(kicad_sch
	(version 20231120)
	(generator "eeschema")
	(generator_version "8.0")
	(uuid "80170493-2311-4dc8-a581-64220a55fa2b")
	(paper "A4")
	(lib_symbols
		(symbol "Borescope:INA219"
			(pin_names
				(offset 1.016)
			)
			(exclude_from_sim no)
			(in_bom yes)
			(on_board yes)
			(property "Reference" "U"
				(at -8.89 7.62 0)
				(effects
					(font
						(size 1.27 1.27)
					)
				)
			)
			(property "Value" "INA219"
				(at 3.81 -8.89 0)
				(effects
					(font
						(size 1.27 1.27)
					)
				)
			)
			(property "Footprint" "Modules:INA219"
				(at 6.35 7.62 0)
				(effects
					(font
						(size 1.27 1.27)
					)
					(hide yes)
				)
			)
			(property "Datasheet" ""
				(at 7.62 6.35 0)
				(effects
					(font
						(size 1.27 1.27)
					)
					(hide yes)
				)
			)
			(property "Description" ""
				(at 0 0 0)
				(effects
					(font
						(size 1.27 1.27)
					)
					(hide yes)
				)
			)
			(symbol "INA219_0_1"
				(rectangle
					(start -8.89 6.35)
					(end 8.89 -7.62)
					(stroke
						(width 0)
						(type default)
					)
					(fill
						(type none)
					)
				)
				(rectangle
					(start 0 -8.89)
					(end 0 -8.89)
					(stroke
						(width 0)
						(type default)
					)
					(fill
						(type none)
					)
				)
			)
			(symbol "INA219_1_1"
				(pin input line
					(at 0 8.89 270)
					(length 2.54)
					(name "Vcc"
						(effects
							(font
								(size 1.27 1.27)
							)
						)
					)
					(number "1"
						(effects
							(font
								(size 1.27 1.27)
							)
						)
					)
				)
				(pin input line
					(at 0 -10.16 90)
					(length 2.54)
					(name "Gnd"
						(effects
							(font
								(size 1.27 1.27)
							)
						)
					)
					(number "2"
						(effects
							(font
								(size 1.27 1.27)
							)
						)
					)
				)
				(pin input line
					(at -11.43 2.54 0)
					(length 2.54)
					(name "SCL"
						(effects
							(font
								(size 1.27 1.27)
							)
						)
					)
					(number "3"
						(effects
							(font
								(size 1.27 1.27)
							)
						)
					)
				)
				(pin bidirectional line
					(at -11.43 -2.54 0)
					(length 2.54)
					(name "SDA"
						(effects
							(font
								(size 1.27 1.27)
							)
						)
					)
					(number "4"
						(effects
							(font
								(size 1.27 1.27)
							)
						)
					)
				)
				(pin bidirectional line
					(at 11.43 3.81 180)
					(length 2.54)
					(name "Vin-"
						(effects
							(font
								(size 1.27 1.27)
							)
						)
					)
					(number "5"
						(effects
							(font
								(size 1.27 1.27)
							)
						)
					)
				)
				(pin bidirectional line
					(at 11.43 1.27 180)
					(length 2.54)
					(name "Vin+"
						(effects
							(font
								(size 1.27 1.27)
							)
						)
					)
					(number "6"
						(effects
							(font
								(size 1.27 1.27)
							)
						)
					)
				)
				(pin bidirectional line
					(at 11.43 -5.08 180)
					(length 2.54)
					(name "R_Vin+"
						(effects
							(font
								(size 1.27 1.27)
							)
						)
					)
					(number "7"
						(effects
							(font
								(size 1.27 1.27)
							)
						)
					)
				)
				(pin bidirectional line
					(at 11.43 -2.54 180)
					(length 2.54)
					(name "R_Vin-"
						(effects
							(font
								(size 1.27 1.27)
							)
						)
					)
					(number "8"
						(effects
							(font
								(size 1.27 1.27)
							)
						)
					)
				)
			)
		)
		(symbol "Connector_Generic:Conn_01x04"
			(pin_names
				(offset 1.016) hide)
			(exclude_from_sim no)
			(in_bom yes)
			(on_board yes)
			(property "Reference" "J"
				(at 0 5.08 0)
				(effects
					(font
						(size 1.27 1.27)
					)
				)
			)
			(property "Value" "Conn_01x04"
				(at 0 -7.62 0)
				(effects
					(font
						(size 1.27 1.27)
					)
				)
			)
			(property "Footprint" ""
				(at 0 0 0)
				(effects
					(font
						(size 1.27 1.27)
					)
					(hide yes)
				)
			)
			(property "Datasheet" "~"
				(at 0 0 0)
				(effects
					(font
						(size 1.27 1.27)
					)
					(hide yes)
				)
			)
			(property "Description" "Generic connector, single row, 01x04, script generated (kicad-library-utils/schlib/autogen/connector/)"
				(at 0 0 0)
				(effects
					(font
						(size 1.27 1.27)
					)
					(hide yes)
				)
			)
			(property "ki_keywords" "connector"
				(at 0 0 0)
				(effects
					(font
						(size 1.27 1.27)
					)
					(hide yes)
				)
			)
			(property "ki_fp_filters" "Connector*:*_1x??_*"
				(at 0 0 0)
				(effects
					(font
						(size 1.27 1.27)
					)
					(hide yes)
				)
			)
			(symbol "Conn_01x04_1_1"
				(rectangle
					(start -1.27 -4.953)
					(end 0 -5.207)
					(stroke
						(width 0.1524)
						(type default)
					)
					(fill
						(type none)
					)
				)
				(rectangle
					(start -1.27 -2.413)
					(end 0 -2.667)
					(stroke
						(width 0.1524)
						(type default)
					)
					(fill
						(type none)
					)
				)
				(rectangle
					(start -1.27 0.127)
					(end 0 -0.127)
					(stroke
						(width 0.1524)
						(type default)
					)
					(fill
						(type none)
					)
				)
				(rectangle
					(start -1.27 2.667)
					(end 0 2.413)
					(stroke
						(width 0.1524)
						(type default)
					)
					(fill
						(type none)
					)
				)
				(rectangle
					(start -1.27 3.81)
					(end 1.27 -6.35)
					(stroke
						(width 0.254)
						(type default)
					)
					(fill
						(type background)
					)
				)
				(pin passive line
					(at -5.08 2.54 0)
					(length 3.81)
					(name "Pin_1"
						(effects
							(font
								(size 1.27 1.27)
							)
						)
					)
					(number "1"
						(effects
							(font
								(size 1.27 1.27)
							)
						)
					)
				)
				(pin passive line
					(at -5.08 0 0)
					(length 3.81)
					(name "Pin_2"
						(effects
							(font
								(size 1.27 1.27)
							)
						)
					)
					(number "2"
						(effects
							(font
								(size 1.27 1.27)
							)
						)
					)
				)
				(pin passive line
					(at -5.08 -2.54 0)
					(length 3.81)
					(name "Pin_3"
						(effects
							(font
								(size 1.27 1.27)
							)
						)
					)
					(number "3"
						(effects
							(font
								(size 1.27 1.27)
							)
						)
					)
				)
				(pin passive line
					(at -5.08 -5.08 0)
					(length 3.81)
					(name "Pin_4"
						(effects
							(font
								(size 1.27 1.27)
							)
						)
					)
					(number "4"
						(effects
							(font
								(size 1.27 1.27)
							)
						)
					)
				)
			)
		)
		(symbol "Connector_Generic:Conn_02x04_Odd_Even"
			(pin_names
				(offset 1.016) hide)
			(exclude_from_sim no)
			(in_bom yes)
			(on_board yes)
			(property "Reference" "J"
				(at 1.27 5.08 0)
				(effects
					(font
						(size 1.27 1.27)
					)
				)
			)
			(property "Value" "Conn_02x04_Odd_Even"
				(at 1.27 -7.62 0)
				(effects
					(font
						(size 1.27 1.27)
					)
				)
			)
			(property "Footprint" ""
				(at 0 0 0)
				(effects
					(font
						(size 1.27 1.27)
					)
					(hide yes)
				)
			)
			(property "Datasheet" "~"
				(at 0 0 0)
				(effects
					(font
						(size 1.27 1.27)
					)
					(hide yes)
				)
			)
			(property "Description" "Generic connector, double row, 02x04, odd/even pin numbering scheme (row 1 odd numbers, row 2 even numbers), script generated (kicad-library-utils/schlib/autogen/connector/)"
				(at 0 0 0)
				(effects
					(font
						(size 1.27 1.27)
					)
					(hide yes)
				)
			)
			(property "ki_keywords" "connector"
				(at 0 0 0)
				(effects
					(font
						(size 1.27 1.27)
					)
					(hide yes)
				)
			)
			(property "ki_fp_filters" "Connector*:*_2x??_*"
				(at 0 0 0)
				(effects
					(font
						(size 1.27 1.27)
					)
					(hide yes)
				)
			)
			(symbol "Conn_02x04_Odd_Even_1_1"
				(rectangle
					(start -1.27 -4.953)
					(end 0 -5.207)
					(stroke
						(width 0.1524)
						(type default)
					)
					(fill
						(type none)
					)
				)
				(rectangle
					(start -1.27 -2.413)
					(end 0 -2.667)
					(stroke
						(width 0.1524)
						(type default)
					)
					(fill
						(type none)
					)
				)
				(rectangle
					(start -1.27 0.127)
					(end 0 -0.127)
					(stroke
						(width 0.1524)
						(type default)
					)
					(fill
						(type none)
					)
				)
				(rectangle
					(start -1.27 2.667)
					(end 0 2.413)
					(stroke
						(width 0.1524)
						(type default)
					)
					(fill
						(type none)
					)
				)
				(rectangle
					(start -1.27 3.81)
					(end 3.81 -6.35)
					(stroke
						(width 0.254)
						(type default)
					)
					(fill
						(type background)
					)
				)
				(rectangle
					(start 3.81 -4.953)
					(end 2.54 -5.207)
					(stroke
						(width 0.1524)
						(type default)
					)
					(fill
						(type none)
					)
				)
				(rectangle
					(start 3.81 -2.413)
					(end 2.54 -2.667)
					(stroke
						(width 0.1524)
						(type default)
					)
					(fill
						(type none)
					)
				)
				(rectangle
					(start 3.81 0.127)
					(end 2.54 -0.127)
					(stroke
						(width 0.1524)
						(type default)
					)
					(fill
						(type none)
					)
				)
				(rectangle
					(start 3.81 2.667)
					(end 2.54 2.413)
					(stroke
						(width 0.1524)
						(type default)
					)
					(fill
						(type none)
					)
				)
				(pin passive line
					(at -5.08 2.54 0)
					(length 3.81)
					(name "Pin_1"
						(effects
							(font
								(size 1.27 1.27)
							)
						)
					)
					(number "1"
						(effects
							(font
								(size 1.27 1.27)
							)
						)
					)
				)
				(pin passive line
					(at 7.62 2.54 180)
					(length 3.81)
					(name "Pin_2"
						(effects
							(font
								(size 1.27 1.27)
							)
						)
					)
					(number "2"
						(effects
							(font
								(size 1.27 1.27)
							)
						)
					)
				)
				(pin passive line
					(at -5.08 0 0)
					(length 3.81)
					(name "Pin_3"
						(effects
							(font
								(size 1.27 1.27)
							)
						)
					)
					(number "3"
						(effects
							(font
								(size 1.27 1.27)
							)
						)
					)
				)
				(pin passive line
					(at 7.62 0 180)
					(length 3.81)
					(name "Pin_4"
						(effects
							(font
								(size 1.27 1.27)
							)
						)
					)
					(number "4"
						(effects
							(font
								(size 1.27 1.27)
							)
						)
					)
				)
				(pin passive line
					(at -5.08 -2.54 0)
					(length 3.81)
					(name "Pin_5"
						(effects
							(font
								(size 1.27 1.27)
							)
						)
					)
					(number "5"
						(effects
							(font
								(size 1.27 1.27)
							)
						)
					)
				)
				(pin passive line
					(at 7.62 -2.54 180)
					(length 3.81)
					(name "Pin_6"
						(effects
							(font
								(size 1.27 1.27)
							)
						)
					)
					(number "6"
						(effects
							(font
								(size 1.27 1.27)
							)
						)
					)
				)
				(pin passive line
					(at -5.08 -5.08 0)
					(length 3.81)
					(name "Pin_7"
						(effects
							(font
								(size 1.27 1.27)
							)
						)
					)
					(number "7"
						(effects
							(font
								(size 1.27 1.27)
							)
						)
					)
				)
				(pin passive line
					(at 7.62 -5.08 180)
					(length 3.81)
					(name "Pin_8"
						(effects
							(font
								(size 1.27 1.27)
							)
						)
					)
					(number "8"
						(effects
							(font
								(size 1.27 1.27)
							)
						)
					)
				)
			)
		)
		(symbol "Device:R"
			(pin_numbers hide)
			(pin_names
				(offset 0)
			)
			(exclude_from_sim no)
			(in_bom yes)
			(on_board yes)
			(property "Reference" "R"
				(at 2.032 0 90)
				(effects
					(font
						(size 1.27 1.27)
					)
				)
			)
			(property "Value" "R"
				(at 0 0 90)
				(effects
					(font
						(size 1.27 1.27)
					)
				)
			)
			(property "Footprint" ""
				(at -1.778 0 90)
				(effects
					(font
						(size 1.27 1.27)
					)
					(hide yes)
				)
			)
			(property "Datasheet" "~"
				(at 0 0 0)
				(effects
					(font
						(size 1.27 1.27)
					)
					(hide yes)
				)
			)
			(property "Description" "Resistor"
				(at 0 0 0)
				(effects
					(font
						(size 1.27 1.27)
					)
					(hide yes)
				)
			)
			(property "ki_keywords" "R res resistor"
				(at 0 0 0)
				(effects
					(font
						(size 1.27 1.27)
					)
					(hide yes)
				)
			)
			(property "ki_fp_filters" "R_*"
				(at 0 0 0)
				(effects
					(font
						(size 1.27 1.27)
					)
					(hide yes)
				)
			)
			(symbol "R_0_1"
				(rectangle
					(start -1.016 -2.54)
					(end 1.016 2.54)
					(stroke
						(width 0.254)
						(type default)
					)
					(fill
						(type none)
					)
				)
			)
			(symbol "R_1_1"
				(pin passive line
					(at 0 3.81 270)
					(length 1.27)
					(name "~"
						(effects
							(font
								(size 1.27 1.27)
							)
						)
					)
					(number "1"
						(effects
							(font
								(size 1.27 1.27)
							)
						)
					)
				)
				(pin passive line
					(at 0 -3.81 90)
					(length 1.27)
					(name "~"
						(effects
							(font
								(size 1.27 1.27)
							)
						)
					)
					(number "2"
						(effects
							(font
								(size 1.27 1.27)
							)
						)
					)
				)
			)
		)
		(symbol "GND_1"
			(power)
			(pin_numbers hide)
			(pin_names
				(offset 0) hide)
			(exclude_from_sim no)
			(in_bom yes)
			(on_board yes)
			(property "Reference" "#PWR"
				(at 0 -6.35 0)
				(effects
					(font
						(size 1.27 1.27)
					)
					(hide yes)
				)
			)
			(property "Value" "GND"
				(at 0 -3.81 0)
				(effects
					(font
						(size 1.27 1.27)
					)
				)
			)
			(property "Footprint" ""
				(at 0 0 0)
				(effects
					(font
						(size 1.27 1.27)
					)
					(hide yes)
				)
			)
			(property "Datasheet" ""
				(at 0 0 0)
				(effects
					(font
						(size 1.27 1.27)
					)
					(hide yes)
				)
			)
			(property "Description" "Power symbol creates a global label with name \"GND\" , ground"
				(at 0 0 0)
				(effects
					(font
						(size 1.27 1.27)
					)
					(hide yes)
				)
			)
			(property "ki_keywords" "global power"
				(at 0 0 0)
				(effects
					(font
						(size 1.27 1.27)
					)
					(hide yes)
				)
			)
			(symbol "GND_1_0_1"
				(polyline
					(pts
						(xy 0 0) (xy 0 -1.27) (xy 1.27 -1.27) (xy 0 -2.54) (xy -1.27 -1.27) (xy 0 -1.27)
					)
					(stroke
						(width 0)
						(type default)
					)
					(fill
						(type none)
					)
				)
			)
			(symbol "GND_1_1_1"
				(pin power_in line
					(at 0 0 270)
					(length 0)
					(name "~"
						(effects
							(font
								(size 1.27 1.27)
							)
						)
					)
					(number "1"
						(effects
							(font
								(size 1.27 1.27)
							)
						)
					)
				)
			)
		)
		(symbol "GND_2"
			(power)
			(pin_numbers hide)
			(pin_names
				(offset 0) hide)
			(exclude_from_sim no)
			(in_bom yes)
			(on_board yes)
			(property "Reference" "#PWR"
				(at 0 -6.35 0)
				(effects
					(font
						(size 1.27 1.27)
					)
					(hide yes)
				)
			)
			(property "Value" "GND"
				(at 0 -3.81 0)
				(effects
					(font
						(size 1.27 1.27)
					)
				)
			)
			(property "Footprint" ""
				(at 0 0 0)
				(effects
					(font
						(size 1.27 1.27)
					)
					(hide yes)
				)
			)
			(property "Datasheet" ""
				(at 0 0 0)
				(effects
					(font
						(size 1.27 1.27)
					)
					(hide yes)
				)
			)
			(property "Description" "Power symbol creates a global label with name \"GND\" , ground"
				(at 0 0 0)
				(effects
					(font
						(size 1.27 1.27)
					)
					(hide yes)
				)
			)
			(property "ki_keywords" "global power"
				(at 0 0 0)
				(effects
					(font
						(size 1.27 1.27)
					)
					(hide yes)
				)
			)
			(symbol "GND_2_0_1"
				(polyline
					(pts
						(xy 0 0) (xy 0 -1.27) (xy 1.27 -1.27) (xy 0 -2.54) (xy -1.27 -1.27) (xy 0 -1.27)
					)
					(stroke
						(width 0)
						(type default)
					)
					(fill
						(type none)
					)
				)
			)
			(symbol "GND_2_1_1"
				(pin power_in line
					(at 0 0 270)
					(length 0)
					(name "~"
						(effects
							(font
								(size 1.27 1.27)
							)
						)
					)
					(number "1"
						(effects
							(font
								(size 1.27 1.27)
							)
						)
					)
				)
			)
		)
		(symbol "Mechanical:MountingHole"
			(pin_names
				(offset 1.016)
			)
			(exclude_from_sim no)
			(in_bom yes)
			(on_board yes)
			(property "Reference" "H"
				(at 0 5.08 0)
				(effects
					(font
						(size 1.27 1.27)
					)
				)
			)
			(property "Value" "MountingHole"
				(at 0 3.175 0)
				(effects
					(font
						(size 1.27 1.27)
					)
				)
			)
			(property "Footprint" ""
				(at 0 0 0)
				(effects
					(font
						(size 1.27 1.27)
					)
					(hide yes)
				)
			)
			(property "Datasheet" "~"
				(at 0 0 0)
				(effects
					(font
						(size 1.27 1.27)
					)
					(hide yes)
				)
			)
			(property "Description" "Mounting Hole without connection"
				(at 0 0 0)
				(effects
					(font
						(size 1.27 1.27)
					)
					(hide yes)
				)
			)
			(property "ki_keywords" "mounting hole"
				(at 0 0 0)
				(effects
					(font
						(size 1.27 1.27)
					)
					(hide yes)
				)
			)
			(property "ki_fp_filters" "MountingHole*"
				(at 0 0 0)
				(effects
					(font
						(size 1.27 1.27)
					)
					(hide yes)
				)
			)
			(symbol "MountingHole_0_1"
				(circle
					(center 0 0)
					(radius 1.27)
					(stroke
						(width 1.27)
						(type default)
					)
					(fill
						(type none)
					)
				)
			)
		)
		(symbol "power:GND"
			(power)
			(pin_names
				(offset 0)
			)
			(exclude_from_sim no)
			(in_bom yes)
			(on_board yes)
			(property "Reference" "#PWR"
				(at 0 -6.35 0)
				(effects
					(font
						(size 1.27 1.27)
					)
					(hide yes)
				)
			)
			(property "Value" "GND"
				(at 0 -3.81 0)
				(effects
					(font
						(size 1.27 1.27)
					)
				)
			)
			(property "Footprint" ""
				(at 0 0 0)
				(effects
					(font
						(size 1.27 1.27)
					)
					(hide yes)
				)
			)
			(property "Datasheet" ""
				(at 0 0 0)
				(effects
					(font
						(size 1.27 1.27)
					)
					(hide yes)
				)
			)
			(property "Description" "Power symbol creates a global label with name \"GND\" , ground"
				(at 0 0 0)
				(effects
					(font
						(size 1.27 1.27)
					)
					(hide yes)
				)
			)
			(property "ki_keywords" "global power"
				(at 0 0 0)
				(effects
					(font
						(size 1.27 1.27)
					)
					(hide yes)
				)
			)
			(symbol "GND_0_1"
				(polyline
					(pts
						(xy 0 0) (xy 0 -1.27) (xy 1.27 -1.27) (xy 0 -2.54) (xy -1.27 -1.27) (xy 0 -1.27)
					)
					(stroke
						(width 0)
						(type default)
					)
					(fill
						(type none)
					)
				)
			)
			(symbol "GND_1_1"
				(pin power_in line
					(at 0 0 270)
					(length 0) hide
					(name "GND"
						(effects
							(font
								(size 1.27 1.27)
							)
						)
					)
					(number "1"
						(effects
							(font
								(size 1.27 1.27)
							)
						)
					)
				)
			)
		)
		(symbol "power:VCC"
			(power)
			(pin_numbers hide)
			(pin_names
				(offset 0) hide)
			(exclude_from_sim no)
			(in_bom yes)
			(on_board yes)
			(property "Reference" "#PWR"
				(at 0 -3.81 0)
				(effects
					(font
						(size 1.27 1.27)
					)
					(hide yes)
				)
			)
			(property "Value" "VCC"
				(at 0 3.556 0)
				(effects
					(font
						(size 1.27 1.27)
					)
				)
			)
			(property "Footprint" ""
				(at 0 0 0)
				(effects
					(font
						(size 1.27 1.27)
					)
					(hide yes)
				)
			)
			(property "Datasheet" ""
				(at 0 0 0)
				(effects
					(font
						(size 1.27 1.27)
					)
					(hide yes)
				)
			)
			(property "Description" "Power symbol creates a global label with name \"VCC\""
				(at 0 0 0)
				(effects
					(font
						(size 1.27 1.27)
					)
					(hide yes)
				)
			)
			(property "ki_keywords" "global power"
				(at 0 0 0)
				(effects
					(font
						(size 1.27 1.27)
					)
					(hide yes)
				)
			)
			(symbol "VCC_0_1"
				(polyline
					(pts
						(xy -0.762 1.27) (xy 0 2.54)
					)
					(stroke
						(width 0)
						(type default)
					)
					(fill
						(type none)
					)
				)
				(polyline
					(pts
						(xy 0 0) (xy 0 2.54)
					)
					(stroke
						(width 0)
						(type default)
					)
					(fill
						(type none)
					)
				)
				(polyline
					(pts
						(xy 0 2.54) (xy 0.762 1.27)
					)
					(stroke
						(width 0)
						(type default)
					)
					(fill
						(type none)
					)
				)
			)
			(symbol "VCC_1_1"
				(pin power_in line
					(at 0 0 90)
					(length 0)
					(name "~"
						(effects
							(font
								(size 1.27 1.27)
							)
						)
					)
					(number "1"
						(effects
							(font
								(size 1.27 1.27)
							)
						)
					)
				)
			)
		)
	)
	(junction
		(at 121.92 101.6)
		(diameter 0)
		(color 0 0 0 0)
		(uuid "0b6ff101-391d-4eb3-b2c0-b14cffd3f732")
	)
	(junction
		(at 121.92 114.3)
		(diameter 0)
		(color 0 0 0 0)
		(uuid "0df92e46-802b-4f59-a68f-99e1dc1629a4")
	)
	(junction
		(at 139.7 161.29)
		(diameter 0)
		(color 0 0 0 0)
		(uuid "154de0f8-4437-4480-96d6-068d4fc8fa90")
	)
	(junction
		(at 40.64 168.91)
		(diameter 0)
		(color 0 0 0 0)
		(uuid "1e1900d8-c163-4b9e-bde5-942233142b65")
	)
	(junction
		(at 58.42 161.29)
		(diameter 0)
		(color 0 0 0 0)
		(uuid "8aa4cc0e-4707-49b7-ba26-cd1596eb1969")
	)
	(junction
		(at 40.64 161.29)
		(diameter 0)
		(color 0 0 0 0)
		(uuid "a4a386c9-ac3c-4318-beae-62167d9dc9f0")
	)
	(junction
		(at 139.7 168.91)
		(diameter 0)
		(color 0 0 0 0)
		(uuid "c9b3f966-18b7-4959-85af-1184847c9b06")
	)
	(junction
		(at 121.92 161.29)
		(diameter 0)
		(color 0 0 0 0)
		(uuid "ea08be71-61c7-45e4-ae1b-436f248fbbea")
	)
	(junction
		(at 58.42 168.91)
		(diameter 0)
		(color 0 0 0 0)
		(uuid "f47b1b5e-1a2e-44e6-aec2-57fef3cf9f89")
	)
	(junction
		(at 121.92 168.91)
		(diameter 0)
		(color 0 0 0 0)
		(uuid "ff3efa8f-8ec0-4842-85ea-bf21e55205f2")
	)
	(no_connect
		(at 95.25 106.68)
		(uuid "51c0fa2f-039c-4ce6-805d-854d1cc0ba7c")
	)
	(no_connect
		(at 95.25 104.14)
		(uuid "b6cda5de-4f3b-4368-bfef-f47323b12abb")
	)
	(wire
		(pts
			(xy 121.92 101.6) (xy 121.92 104.14)
		)
		(stroke
			(width 0)
			(type default)
		)
		(uuid "0f3a1159-a8ff-4334-8ccd-5e18fa66f92f")
	)
	(wire
		(pts
			(xy 40.64 161.29) (xy 43.18 161.29)
		)
		(stroke
			(width 0)
			(type default)
		)
		(uuid "15ab31d3-8850-45be-89eb-5e65f03ca15a")
	)
	(wire
		(pts
			(xy 137.16 166.37) (xy 139.7 166.37)
		)
		(stroke
			(width 0)
			(type default)
		)
		(uuid "1f55d788-92fe-4d20-bc05-0740c37d691d")
	)
	(wire
		(pts
			(xy 118.11 114.3) (xy 121.92 114.3)
		)
		(stroke
			(width 0)
			(type default)
		)
		(uuid "2052f38b-5e01-49e0-91ed-b10fc25aafe4")
	)
	(wire
		(pts
			(xy 139.7 166.37) (xy 139.7 168.91)
		)
		(stroke
			(width 0)
			(type default)
		)
		(uuid "2b1afc3e-f978-454a-9b7d-b9467495e1ce")
	)
	(wire
		(pts
			(xy 121.92 97.79) (xy 121.92 101.6)
		)
		(stroke
			(width 0)
			(type default)
		)
		(uuid "3d3c81e8-73b1-4078-9085-b060318cca4b")
	)
	(wire
		(pts
			(xy 121.92 163.83) (xy 124.46 163.83)
		)
		(stroke
			(width 0)
			(type default)
		)
		(uuid "4288e8eb-c1b8-45a9-93ed-130bca606af8")
	)
	(wire
		(pts
			(xy 121.92 166.37) (xy 124.46 166.37)
		)
		(stroke
			(width 0)
			(type default)
		)
		(uuid "42d33cdb-ba6a-453b-820e-a079d1ac2b5c")
	)
	(wire
		(pts
			(xy 40.64 161.29) (xy 40.64 163.83)
		)
		(stroke
			(width 0)
			(type default)
		)
		(uuid "450e24fb-0d3f-4c9b-983b-6e55d6e040ee")
	)
	(wire
		(pts
			(xy 104.14 162.56) (xy 106.68 162.56)
		)
		(stroke
			(width 0)
			(type default)
		)
		(uuid "46d81425-c677-4c8c-8053-0edccabc442d")
	)
	(wire
		(pts
			(xy 139.7 171.45) (xy 139.7 168.91)
		)
		(stroke
			(width 0)
			(type default)
		)
		(uuid "4b1246fa-4de9-46a8-a80a-0609eceee360")
	)
	(wire
		(pts
			(xy 40.64 168.91) (xy 43.18 168.91)
		)
		(stroke
			(width 0)
			(type default)
		)
		(uuid "4d886678-4f33-445e-a475-b4bda4ba2c46")
	)
	(wire
		(pts
			(xy 107.95 167.64) (xy 107.95 170.18)
		)
		(stroke
			(width 0)
			(type default)
		)
		(uuid "57c924a0-0958-4581-9309-5f0644ed19c3")
	)
	(wire
		(pts
			(xy 118.11 101.6) (xy 121.92 101.6)
		)
		(stroke
			(width 0)
			(type default)
		)
		(uuid "5ac0a27b-284d-4f26-93c3-f745827ad520")
	)
	(wire
		(pts
			(xy 139.7 168.91) (xy 137.16 168.91)
		)
		(stroke
			(width 0)
			(type default)
		)
		(uuid "609be82a-0459-4cd2-a62f-4b30068bb8e0")
	)
	(wire
		(pts
			(xy 121.92 171.45) (xy 121.92 168.91)
		)
		(stroke
			(width 0)
			(type default)
		)
		(uuid "69234848-b056-4f17-9247-d2d10f13fafc")
	)
	(wire
		(pts
			(xy 55.88 161.29) (xy 58.42 161.29)
		)
		(stroke
			(width 0)
			(type default)
		)
		(uuid "6a33384b-eab8-4743-8ef7-de30dfa95bbb")
	)
	(wire
		(pts
			(xy 139.7 161.29) (xy 139.7 158.75)
		)
		(stroke
			(width 0)
			(type default)
		)
		(uuid "7188a00b-7391-47e3-bf47-57698d0b04d0")
	)
	(wire
		(pts
			(xy 121.92 114.3) (xy 121.92 119.38)
		)
		(stroke
			(width 0)
			(type default)
		)
		(uuid "73a04a64-1469-41f2-a234-b40ab45883dc")
	)
	(wire
		(pts
			(xy 40.64 171.45) (xy 40.64 168.91)
		)
		(stroke
			(width 0)
			(type default)
		)
		(uuid "760b0472-11a1-425d-a60e-336303abf8c9")
	)
	(wire
		(pts
			(xy 121.92 158.75) (xy 121.92 161.29)
		)
		(stroke
			(width 0)
			(type default)
		)
		(uuid "7b686d9f-78c3-4fa3-9765-e1fda39b8f75")
	)
	(wire
		(pts
			(xy 58.42 161.29) (xy 58.42 158.75)
		)
		(stroke
			(width 0)
			(type default)
		)
		(uuid "8130f3c8-5b38-4185-8107-6fca73ff4c3f")
	)
	(wire
		(pts
			(xy 139.7 163.83) (xy 139.7 161.29)
		)
		(stroke
			(width 0)
			(type default)
		)
		(uuid "8274b90e-f950-4922-b827-ed30a86e5d6b")
	)
	(wire
		(pts
			(xy 104.14 160.02) (xy 106.68 160.02)
		)
		(stroke
			(width 0)
			(type default)
		)
		(uuid "8760b8e2-5a3b-4291-9b4c-37f3a7cff765")
	)
	(bus
		(pts
			(xy 140.97 128.27) (xy 60.96 128.27)
		)
		(stroke
			(width 0)
			(type default)
		)
		(uuid "8acea432-8b14-413f-b221-a150063d1556")
	)
	(wire
		(pts
			(xy 137.16 161.29) (xy 139.7 161.29)
		)
		(stroke
			(width 0)
			(type default)
		)
		(uuid "9399807f-60c1-4716-96db-8ec18f5bfe98")
	)
	(wire
		(pts
			(xy 40.64 166.37) (xy 43.18 166.37)
		)
		(stroke
			(width 0)
			(type default)
		)
		(uuid "94b9c8f5-3c9e-4b51-bc05-24f55a1cccf8")
	)
	(wire
		(pts
			(xy 55.88 166.37) (xy 58.42 166.37)
		)
		(stroke
			(width 0)
			(type default)
		)
		(uuid "991974ba-604e-4453-b76c-d9c2594add76")
	)
	(wire
		(pts
			(xy 40.64 168.91) (xy 40.64 166.37)
		)
		(stroke
			(width 0)
			(type default)
		)
		(uuid "9e4f23f9-4780-4871-af88-8983ad4c057b")
	)
	(wire
		(pts
			(xy 121.92 168.91) (xy 121.92 166.37)
		)
		(stroke
			(width 0)
			(type default)
		)
		(uuid "a5079d56-6180-463c-af29-d5a5f6c2d0bc")
	)
	(wire
		(pts
			(xy 104.14 167.64) (xy 107.95 167.64)
		)
		(stroke
			(width 0)
			(type default)
		)
		(uuid "a8e0eee4-b781-4019-8298-3d178bd52917")
	)
	(wire
		(pts
			(xy 55.88 163.83) (xy 58.42 163.83)
		)
		(stroke
			(width 0)
			(type default)
		)
		(uuid "aac59c08-f201-400a-b13c-d86b7545b902")
	)
	(wire
		(pts
			(xy 40.64 158.75) (xy 40.64 161.29)
		)
		(stroke
			(width 0)
			(type default)
		)
		(uuid "bf181e63-e08b-468f-980a-b486896b53fe")
	)
	(wire
		(pts
			(xy 121.92 161.29) (xy 121.92 163.83)
		)
		(stroke
			(width 0)
			(type default)
		)
		(uuid "bf506454-9027-40ef-930d-9b865de2b43b")
	)
	(wire
		(pts
			(xy 58.42 163.83) (xy 58.42 161.29)
		)
		(stroke
			(width 0)
			(type default)
		)
		(uuid "cb7deb6c-b3fe-48fe-8ada-69739bdc2ee7")
	)
	(bus
		(pts
			(xy 60.96 77.47) (xy 60.96 128.27)
		)
		(stroke
			(width 0)
			(type default)
		)
		(uuid "cee2a155-349b-4d01-aa02-c3f045aaf4a8")
	)
	(wire
		(pts
			(xy 40.64 163.83) (xy 43.18 163.83)
		)
		(stroke
			(width 0)
			(type default)
		)
		(uuid "d34c9b4f-3b33-4805-ab20-8dc32ae1ddbb")
	)
	(wire
		(pts
			(xy 104.14 165.1) (xy 106.68 165.1)
		)
		(stroke
			(width 0)
			(type default)
		)
		(uuid "d7e5ae91-cec0-4d21-80f0-a06d0fb54c13")
	)
	(wire
		(pts
			(xy 121.92 161.29) (xy 124.46 161.29)
		)
		(stroke
			(width 0)
			(type default)
		)
		(uuid "d8336bcb-2996-4cc9-a4c9-e2198b662fd1")
	)
	(wire
		(pts
			(xy 137.16 163.83) (xy 139.7 163.83)
		)
		(stroke
			(width 0)
			(type default)
		)
		(uuid "dec17349-691c-4afa-8505-f6a3e0977edf")
	)
	(bus
		(pts
			(xy 60.96 77.47) (xy 140.97 77.47)
		)
		(stroke
			(width 0)
			(type default)
		)
		(uuid "ec5e48de-ad56-463e-96d2-4745140c82f7")
	)
	(wire
		(pts
			(xy 58.42 171.45) (xy 58.42 168.91)
		)
		(stroke
			(width 0)
			(type default)
		)
		(uuid "eee52ae4-ade5-4be1-b507-3c0f21eefaec")
	)
	(wire
		(pts
			(xy 58.42 166.37) (xy 58.42 168.91)
		)
		(stroke
			(width 0)
			(type default)
		)
		(uuid "f141c4b5-e09c-4aa9-8f6d-f6e792b3723a")
	)
	(wire
		(pts
			(xy 58.42 168.91) (xy 55.88 168.91)
		)
		(stroke
			(width 0)
			(type default)
		)
		(uuid "f33563c8-3458-46ff-a749-e98023b6d3ae")
	)
	(bus
		(pts
			(xy 140.97 77.47) (xy 140.97 128.27)
		)
		(stroke
			(width 0)
			(type default)
		)
		(uuid "f7f097fd-5404-40d8-8e77-16d7746b6e0a")
	)
	(wire
		(pts
			(xy 121.92 111.76) (xy 121.92 114.3)
		)
		(stroke
			(width 0)
			(type default)
		)
		(uuid "f899f045-7442-4e8a-bb07-4d40e240dac2")
	)
	(wire
		(pts
			(xy 121.92 168.91) (xy 124.46 168.91)
		)
		(stroke
			(width 0)
			(type default)
		)
		(uuid "fdff5ef0-9c21-47f1-b51d-8535f2218da6")
	)
	(text "M3.3 - CURRENT PROCESS INPUT"
		(exclude_from_sim no)
		(at 138.684 32.512 0)
		(effects
			(font
				(face "KiCad Font")
				(size 5 5)
			)
		)
		(uuid "13499829-9a6c-4723-af67-026231f62e91")
	)
	(text "INPUT:\n	-	HORIZONTAL HEADER 2X04 BMS_BATTERY_INPUT to V_BAT (7.4V) and GND\nOUTPUT:\n	-	MOLEX KK 254 1X04 to I2C SIGNALS\n	-	HORIZONTAL HEADER 2X04 BATTERY_OUTPUT_M3.2 to V_OUT and GND\n"
		(exclude_from_sim no)
		(at 47.244 53.34 0)
		(effects
			(font
				(face "KiCad Font")
				(size 3 3)
			)
			(justify left)
		)
		(uuid "2440c5cd-9ad6-4b00-81b8-042380f3890f")
	)
	(text "OUTPUT"
		(exclude_from_sim no)
		(at 122.428 144.272 0)
		(effects
			(font
				(face "KiCad Font")
				(size 3 3)
			)
		)
		(uuid "2f6b8aa0-b037-48dc-8c40-cc0367d17500")
	)
	(text "Sense of current"
		(exclude_from_sim no)
		(at 79.756 74.168 0)
		(effects
			(font
				(size 3 3)
			)
		)
		(uuid "3da22d26-63c4-4ae6-8589-839a8cab4cf4")
	)
	(text "INPUT"
		(exclude_from_sim no)
		(at 48.514 144.272 0)
		(effects
			(font
				(face "KiCad Font")
				(size 3 3)
			)
		)
		(uuid "cf1ab065-f04e-44ad-8e09-c45a8f0154cb")
	)
	(label "R_Vin-"
		(at 118.11 114.3 180)
		(fields_autoplaced yes)
		(effects
			(font
				(size 1.27 1.27)
			)
			(justify right bottom)
		)
		(uuid "1609cf56-0743-44b0-a239-df6ccad2d195")
	)
	(label "R_out"
		(at 139.7 158.75 0)
		(fields_autoplaced yes)
		(effects
			(font
				(size 1.27 1.27)
			)
			(justify left bottom)
		)
		(uuid "3461d69b-3260-45d3-98b6-a31d9a286849")
	)
	(label "R_Vin+"
		(at 95.25 113.03 0)
		(fields_autoplaced yes)
		(effects
			(font
				(size 1.27 1.27)
			)
			(justify left bottom)
		)
		(uuid "3b1af535-9730-4208-a757-028f5830ceed")
	)
	(label "+3.3V"
		(at 106.68 160.02 0)
		(fields_autoplaced yes)
		(effects
			(font
				(size 1.27 1.27)
			)
			(justify left bottom)
		)
		(uuid "424028eb-8fe9-4a81-b3fe-7c6711d2a8fc")
	)
	(label "R_out"
		(at 121.92 119.38 0)
		(fields_autoplaced yes)
		(effects
			(font
				(size 1.27 1.27)
			)
			(justify left bottom)
		)
		(uuid "61e17fe3-d7b7-434b-8125-374006ae70d6")
	)
	(label "+3.3V"
		(at 83.82 99.06 90)
		(fields_autoplaced yes)
		(effects
			(font
				(size 1.27 1.27)
			)
			(justify left bottom)
		)
		(uuid "6383c09c-c759-48a5-a673-70f617e8ba57")
	)
	(label "SCL"
		(at 106.68 162.56 0)
		(fields_autoplaced yes)
		(effects
			(font
				(size 1.27 1.27)
			)
			(justify left bottom)
		)
		(uuid "64cca001-6d0d-406a-87a7-4d84f65b023d")
	)
	(label "R_Vin-"
		(at 95.25 110.49 0)
		(fields_autoplaced yes)
		(effects
			(font
				(size 1.27 1.27)
			)
			(justify left bottom)
		)
		(uuid "77370753-d7db-4fa7-98d0-759670c24723")
	)
	(label "R_out"
		(at 121.92 158.75 180)
		(fields_autoplaced yes)
		(effects
			(font
				(size 1.27 1.27)
			)
			(justify right bottom)
		)
		(uuid "859f3caa-46aa-4368-9d38-6fa5e5409201")
	)
	(label "SDA"
		(at 106.68 165.1 0)
		(fields_autoplaced yes)
		(effects
			(font
				(size 1.27 1.27)
			)
			(justify left bottom)
		)
		(uuid "9495c633-43c6-407a-afac-e31179cbbdb2")
	)
	(label "SCL"
		(at 72.39 105.41 180)
		(fields_autoplaced yes)
		(effects
			(font
				(size 1.27 1.27)
			)
			(justify right bottom)
		)
		(uuid "c515f965-302b-42c9-a298-05f57a958644")
	)
	(label "R_Vin+"
		(at 118.11 101.6 180)
		(fields_autoplaced yes)
		(effects
			(font
				(size 1.27 1.27)
			)
			(justify right bottom)
		)
		(uuid "e4f8b40b-9294-495c-aef4-94525698a56c")
	)
	(label "SDA"
		(at 72.39 110.49 180)
		(fields_autoplaced yes)
		(effects
			(font
				(size 1.27 1.27)
			)
			(justify right bottom)
		)
		(uuid "e7a145e6-bcdf-4bd1-85ff-670ec3d9107c")
	)
	(symbol
		(lib_name "GND_1")
		(lib_id "power:GND")
		(at 40.64 171.45 0)
		(unit 1)
		(exclude_from_sim no)
		(in_bom yes)
		(on_board yes)
		(dnp no)
		(fields_autoplaced yes)
		(uuid "02008155-51f2-4225-95ac-965057241a89")
		(property "Reference" "#PWR02"
			(at 40.64 177.8 0)
			(effects
				(font
					(size 1.27 1.27)
				)
				(hide yes)
			)
		)
		(property "Value" "GND"
			(at 40.64 176.53 0)
			(effects
				(font
					(size 1.27 1.27)
				)
			)
		)
		(property "Footprint" ""
			(at 40.64 171.45 0)
			(effects
				(font
					(size 1.27 1.27)
				)
				(hide yes)
			)
		)
		(property "Datasheet" ""
			(at 40.64 171.45 0)
			(effects
				(font
					(size 1.27 1.27)
				)
				(hide yes)
			)
		)
		(property "Description" "Power symbol creates a global label with name \"GND\" , ground"
			(at 40.64 171.45 0)
			(effects
				(font
					(size 1.27 1.27)
				)
				(hide yes)
			)
		)
		(pin "1"
			(uuid "2ab1d95d-10b6-4aa1-b89e-95dede1a8247")
		)
		(instances
			(project ""
				(path "/80170493-2311-4dc8-a581-64220a55fa2b"
					(reference "#PWR02")
					(unit 1)
				)
			)
		)
	)
	(symbol
		(lib_name "GND_2")
		(lib_id "power:GND")
		(at 139.7 171.45 0)
		(unit 1)
		(exclude_from_sim no)
		(in_bom yes)
		(on_board yes)
		(dnp no)
		(fields_autoplaced yes)
		(uuid "07da9377-1e89-41ad-b20b-a23c798a4370")
		(property "Reference" "#PWR010"
			(at 139.7 177.8 0)
			(effects
				(font
					(size 1.27 1.27)
				)
				(hide yes)
			)
		)
		(property "Value" "GND"
			(at 139.7 176.53 0)
			(effects
				(font
					(size 1.27 1.27)
				)
			)
		)
		(property "Footprint" ""
			(at 139.7 171.45 0)
			(effects
				(font
					(size 1.27 1.27)
				)
				(hide yes)
			)
		)
		(property "Datasheet" ""
			(at 139.7 171.45 0)
			(effects
				(font
					(size 1.27 1.27)
				)
				(hide yes)
			)
		)
		(property "Description" "Power symbol creates a global label with name \"GND\" , ground"
			(at 139.7 171.45 0)
			(effects
				(font
					(size 1.27 1.27)
				)
				(hide yes)
			)
		)
		(pin "1"
			(uuid "89514f5b-1102-4327-a0b8-8f5a4232c749")
		)
		(instances
			(project "M3.3"
				(path "/80170493-2311-4dc8-a581-64220a55fa2b"
					(reference "#PWR010")
					(unit 1)
				)
			)
		)
	)
	(symbol
		(lib_id "Connector_Generic:Conn_01x04")
		(at 99.06 165.1 180)
		(unit 1)
		(exclude_from_sim no)
		(in_bom yes)
		(on_board yes)
		(dnp no)
		(uuid "1c922d96-ee95-4476-a079-e1389d394ed6")
		(property "Reference" "J1"
			(at 96.266 163.576 0)
			(effects
				(font
					(size 1.27 1.27)
				)
			)
		)
		(property "Value" "I2C"
			(at 98.806 156.972 0)
			(effects
				(font
					(size 1.27 1.27)
				)
			)
		)
		(property "Footprint" "my_pretty_componets:Molex_KK-254_1x04_P2.54mm_Horizontal"
			(at 99.06 165.1 0)
			(effects
				(font
					(size 1.27 1.27)
				)
				(hide yes)
			)
		)
		(property "Datasheet" "~"
			(at 99.06 165.1 0)
			(effects
				(font
					(size 1.27 1.27)
				)
				(hide yes)
			)
		)
		(property "Description" ""
			(at 99.06 165.1 0)
			(effects
				(font
					(size 1.27 1.27)
				)
				(hide yes)
			)
		)
		(pin "1"
			(uuid "ba24515c-3514-4451-a9ea-f3f939f3cdc4")
		)
		(pin "2"
			(uuid "e63c4275-d530-4d3f-8a14-24fd954950e1")
		)
		(pin "3"
			(uuid "83b0d863-d43d-4fc9-81f1-9edd638acfb9")
		)
		(pin "4"
			(uuid "235d6d83-095f-4168-8e0a-053856323b2d")
		)
		(instances
			(project "M3.3"
				(path "/80170493-2311-4dc8-a581-64220a55fa2b"
					(reference "J1")
					(unit 1)
				)
			)
		)
	)
	(symbol
		(lib_id "Device:R")
		(at 121.92 107.95 0)
		(unit 1)
		(exclude_from_sim no)
		(in_bom yes)
		(on_board yes)
		(dnp no)
		(fields_autoplaced yes)
		(uuid "31e914ad-53da-439d-a64a-73dc701c5329")
		(property "Reference" "R_shunt1"
			(at 124.46 106.6799 0)
			(effects
				(font
					(size 1.27 1.27)
				)
				(justify left)
			)
		)
		(property "Value" "0.1"
			(at 124.46 109.2199 0)
			(effects
				(font
					(size 1.27 1.27)
				)
				(justify left)
			)
		)
		(property "Footprint" "Resistor_THT:R_Axial_DIN0207_L6.3mm_D2.5mm_P10.16mm_Horizontal"
			(at 120.142 107.95 90)
			(effects
				(font
					(size 1.27 1.27)
				)
				(hide yes)
			)
		)
		(property "Datasheet" "~"
			(at 121.92 107.95 0)
			(effects
				(font
					(size 1.27 1.27)
				)
				(hide yes)
			)
		)
		(property "Description" ""
			(at 121.92 107.95 0)
			(effects
				(font
					(size 1.27 1.27)
				)
				(hide yes)
			)
		)
		(pin "1"
			(uuid "ca8bdb1c-cdb3-4f27-8fe5-5ad0be0391a2")
		)
		(pin "2"
			(uuid "c42451bd-52a3-4901-9af2-ba3ea107a047")
		)
		(instances
			(project "M3.3"
				(path "/80170493-2311-4dc8-a581-64220a55fa2b"
					(reference "R_shunt1")
					(unit 1)
				)
			)
		)
	)
	(symbol
		(lib_id "power:VCC")
		(at 58.42 158.75 0)
		(unit 1)
		(exclude_from_sim no)
		(in_bom yes)
		(on_board yes)
		(dnp no)
		(fields_autoplaced yes)
		(uuid "38505de0-b7cc-4ee4-8072-4c4037036164")
		(property "Reference" "#PWR05"
			(at 58.42 162.56 0)
			(effects
				(font
					(size 1.27 1.27)
				)
				(hide yes)
			)
		)
		(property "Value" "VCC"
			(at 58.42 153.67 0)
			(effects
				(font
					(size 1.27 1.27)
				)
			)
		)
		(property "Footprint" ""
			(at 58.42 158.75 0)
			(effects
				(font
					(size 1.27 1.27)
				)
				(hide yes)
			)
		)
		(property "Datasheet" ""
			(at 58.42 158.75 0)
			(effects
				(font
					(size 1.27 1.27)
				)
				(hide yes)
			)
		)
		(property "Description" "Power symbol creates a global label with name \"VCC\""
			(at 58.42 158.75 0)
			(effects
				(font
					(size 1.27 1.27)
				)
				(hide yes)
			)
		)
		(pin "1"
			(uuid "1902c316-4c92-4283-b933-a8cf7ecfcedd")
		)
		(instances
			(project "M3.3"
				(path "/80170493-2311-4dc8-a581-64220a55fa2b"
					(reference "#PWR05")
					(unit 1)
				)
			)
		)
	)
	(symbol
		(lib_id "power:VCC")
		(at 121.92 97.79 0)
		(unit 1)
		(exclude_from_sim no)
		(in_bom yes)
		(on_board yes)
		(dnp no)
		(fields_autoplaced yes)
		(uuid "585c7885-7bdf-4a67-a3e5-4c89089bb0f9")
		(property "Reference" "#PWR07"
			(at 121.92 101.6 0)
			(effects
				(font
					(size 1.27 1.27)
				)
				(hide yes)
			)
		)
		(property "Value" "VCC"
			(at 121.92 92.71 0)
			(effects
				(font
					(size 1.27 1.27)
				)
			)
		)
		(property "Footprint" ""
			(at 121.92 97.79 0)
			(effects
				(font
					(size 1.27 1.27)
				)
				(hide yes)
			)
		)
		(property "Datasheet" ""
			(at 121.92 97.79 0)
			(effects
				(font
					(size 1.27 1.27)
				)
				(hide yes)
			)
		)
		(property "Description" "Power symbol creates a global label with name \"VCC\""
			(at 121.92 97.79 0)
			(effects
				(font
					(size 1.27 1.27)
				)
				(hide yes)
			)
		)
		(pin "1"
			(uuid "e68a9e31-18bf-4c80-8dc4-ad8002ad2807")
		)
		(instances
			(project "M3.3"
				(path "/80170493-2311-4dc8-a581-64220a55fa2b"
					(reference "#PWR07")
					(unit 1)
				)
			)
		)
	)
	(symbol
		(lib_id "power:VCC")
		(at 40.64 158.75 0)
		(unit 1)
		(exclude_from_sim no)
		(in_bom yes)
		(on_board yes)
		(dnp no)
		(fields_autoplaced yes)
		(uuid "8529e4de-ff68-42c1-abf3-7b4e2bd1409d")
		(property "Reference" "#PWR04"
			(at 40.64 162.56 0)
			(effects
				(font
					(size 1.27 1.27)
				)
				(hide yes)
			)
		)
		(property "Value" "VCC"
			(at 40.64 153.67 0)
			(effects
				(font
					(size 1.27 1.27)
				)
			)
		)
		(property "Footprint" ""
			(at 40.64 158.75 0)
			(effects
				(font
					(size 1.27 1.27)
				)
				(hide yes)
			)
		)
		(property "Datasheet" ""
			(at 40.64 158.75 0)
			(effects
				(font
					(size 1.27 1.27)
				)
				(hide yes)
			)
		)
		(property "Description" "Power symbol creates a global label with name \"VCC\""
			(at 40.64 158.75 0)
			(effects
				(font
					(size 1.27 1.27)
				)
				(hide yes)
			)
		)
		(pin "1"
			(uuid "b59b8fc4-ddce-4d19-bf1d-aa5f5b7dc496")
		)
		(instances
			(project ""
				(path "/80170493-2311-4dc8-a581-64220a55fa2b"
					(reference "#PWR04")
					(unit 1)
				)
			)
		)
	)
	(symbol
		(lib_id "power:GND")
		(at 107.95 170.18 0)
		(unit 1)
		(exclude_from_sim no)
		(in_bom yes)
		(on_board yes)
		(dnp no)
		(fields_autoplaced yes)
		(uuid "8708ffa5-1151-4a71-bfe1-b45c27bc2110")
		(property "Reference" "#PWR06"
			(at 107.95 176.53 0)
			(effects
				(font
					(size 1.27 1.27)
				)
				(hide yes)
			)
		)
		(property "Value" "GND"
			(at 107.95 175.26 0)
			(effects
				(font
					(size 1.27 1.27)
				)
			)
		)
		(property "Footprint" ""
			(at 107.95 170.18 0)
			(effects
				(font
					(size 1.27 1.27)
				)
				(hide yes)
			)
		)
		(property "Datasheet" ""
			(at 107.95 170.18 0)
			(effects
				(font
					(size 1.27 1.27)
				)
				(hide yes)
			)
		)
		(property "Description" ""
			(at 107.95 170.18 0)
			(effects
				(font
					(size 1.27 1.27)
				)
				(hide yes)
			)
		)
		(pin "1"
			(uuid "8d31f995-63ff-4426-9beb-fb6136bb3391")
		)
		(instances
			(project "M3.3"
				(path "/80170493-2311-4dc8-a581-64220a55fa2b"
					(reference "#PWR06")
					(unit 1)
				)
			)
		)
	)
	(symbol
		(lib_name "GND_1")
		(lib_id "power:GND")
		(at 121.92 171.45 0)
		(unit 1)
		(exclude_from_sim no)
		(in_bom yes)
		(on_board yes)
		(dnp no)
		(fields_autoplaced yes)
		(uuid "92fc8f05-aca4-4e4c-b925-7c7e21dff7b1")
		(property "Reference" "#PWR08"
			(at 121.92 177.8 0)
			(effects
				(font
					(size 1.27 1.27)
				)
				(hide yes)
			)
		)
		(property "Value" "GND"
			(at 121.92 176.53 0)
			(effects
				(font
					(size 1.27 1.27)
				)
			)
		)
		(property "Footprint" ""
			(at 121.92 171.45 0)
			(effects
				(font
					(size 1.27 1.27)
				)
				(hide yes)
			)
		)
		(property "Datasheet" ""
			(at 121.92 171.45 0)
			(effects
				(font
					(size 1.27 1.27)
				)
				(hide yes)
			)
		)
		(property "Description" "Power symbol creates a global label with name \"GND\" , ground"
			(at 121.92 171.45 0)
			(effects
				(font
					(size 1.27 1.27)
				)
				(hide yes)
			)
		)
		(pin "1"
			(uuid "742150ad-3764-4049-8926-8481ea7e7f08")
		)
		(instances
			(project "M3.3"
				(path "/80170493-2311-4dc8-a581-64220a55fa2b"
					(reference "#PWR08")
					(unit 1)
				)
			)
		)
	)
	(symbol
		(lib_id "Borescope:INA219")
		(at 83.82 107.95 0)
		(unit 1)
		(exclude_from_sim no)
		(in_bom yes)
		(on_board yes)
		(dnp no)
		(uuid "aa8e70f2-13e4-48e1-87fa-3e3dd468eed8")
		(property "Reference" "U1"
			(at 74.93 100.33 0)
			(effects
				(font
					(size 1.27 1.27)
				)
			)
		)
		(property "Value" "INA219"
			(at 87.63 116.84 0)
			(effects
				(font
					(size 1.27 1.27)
				)
			)
		)
		(property "Footprint" "Footprints:INA219"
			(at 95.25 92.71 0)
			(effects
				(font
					(size 1.27 1.27)
				)
				(hide yes)
			)
		)
		(property "Datasheet" ""
			(at 91.44 101.6 0)
			(effects
				(font
					(size 1.27 1.27)
				)
				(hide yes)
			)
		)
		(property "Description" ""
			(at 83.82 107.95 0)
			(effects
				(font
					(size 1.27 1.27)
				)
				(hide yes)
			)
		)
		(pin "1"
			(uuid "bb870544-4378-4166-b845-7f7a19380e31")
		)
		(pin "2"
			(uuid "203ec01f-97f5-45dc-a907-1511fb5b133a")
		)
		(pin "3"
			(uuid "6c1b69b9-f995-4378-ab45-f0100720e16d")
		)
		(pin "4"
			(uuid "5673a70c-7fa5-4c01-83b7-2bc39c4b0e9a")
		)
		(pin "5"
			(uuid "249cffe6-9e04-4dfc-b6ec-5c69f1723a92")
		)
		(pin "6"
			(uuid "0e8e2c99-6238-47bc-a76b-b2bcb011fb79")
		)
		(pin "7"
			(uuid "4165dbbc-d98e-436d-b19e-f6edecd2dca6")
		)
		(pin "8"
			(uuid "0c51debc-a9a5-4bee-8d23-2efbeb58643d")
		)
		(instances
			(project "M3.3"
				(path "/80170493-2311-4dc8-a581-64220a55fa2b"
					(reference "U1")
					(unit 1)
				)
			)
		)
	)
	(symbol
		(lib_id "Connector_Generic:Conn_02x04_Odd_Even")
		(at 129.54 166.37 0)
		(mirror x)
		(unit 1)
		(exclude_from_sim no)
		(in_bom yes)
		(on_board yes)
		(dnp no)
		(uuid "ad8d86df-5398-43c0-84fd-01e15a7e3947")
		(property "Reference" "J5"
			(at 130.81 157.988 0)
			(effects
				(font
					(size 1.27 1.27)
				)
			)
		)
		(property "Value" "BATTERY_OUTPUT_M3.2"
			(at 130.048 153.162 0)
			(effects
				(font
					(size 1.27 1.27)
				)
			)
		)
		(property "Footprint" "Connector_PinHeader_2.54mm:PinHeader_2x04_P2.54mm_Horizontal"
			(at 129.54 166.37 0)
			(effects
				(font
					(size 1.27 1.27)
				)
				(hide yes)
			)
		)
		(property "Datasheet" "~"
			(at 129.54 166.37 0)
			(effects
				(font
					(size 1.27 1.27)
				)
				(hide yes)
			)
		)
		(property "Description" "Generic connector, double row, 02x04, odd/even pin numbering scheme (row 1 odd numbers, row 2 even numbers), script generated (kicad-library-utils/schlib/autogen/connector/)"
			(at 129.54 166.37 0)
			(effects
				(font
					(size 1.27 1.27)
				)
				(hide yes)
			)
		)
		(pin "8"
			(uuid "cec22352-3378-42bc-a3c2-88180873fff2")
		)
		(pin "5"
			(uuid "4502e6c4-b135-49b8-b5f2-0d18d039ee57")
		)
		(pin "4"
			(uuid "f8c0aa98-11b7-4491-ad11-2d4631564ebe")
		)
		(pin "3"
			(uuid "c164a73e-dad6-42ee-a1e8-39e30a2fc816")
		)
		(pin "2"
			(uuid "b75f676c-482f-4973-9e88-0580b54dde40")
		)
		(pin "7"
			(uuid "c00702cc-d7a5-4f3b-994d-16915abb675e")
		)
		(pin "6"
			(uuid "3d765808-3a5b-4b97-b567-e6693e9e0c43")
		)
		(pin "1"
			(uuid "6b61c947-8b06-4250-b7dd-45140b3a8667")
		)
		(instances
			(project "M3.3"
				(path "/80170493-2311-4dc8-a581-64220a55fa2b"
					(reference "J5")
					(unit 1)
				)
			)
		)
	)
	(symbol
		(lib_id "Connector_Generic:Conn_02x04_Odd_Even")
		(at 48.26 166.37 0)
		(mirror x)
		(unit 1)
		(exclude_from_sim no)
		(in_bom yes)
		(on_board yes)
		(dnp no)
		(uuid "ce77f551-f8d6-4afd-8c61-219a736b069b")
		(property "Reference" "J4"
			(at 49.53 157.988 0)
			(effects
				(font
					(size 1.27 1.27)
				)
			)
		)
		(property "Value" "BMS_BATTERY_INPUT"
			(at 48.514 149.86 0)
			(effects
				(font
					(size 1.27 1.27)
				)
			)
		)
		(property "Footprint" "Connector_PinHeader_2.54mm:PinHeader_2x04_P2.54mm_Horizontal"
			(at 48.26 166.37 0)
			(effects
				(font
					(size 1.27 1.27)
				)
				(hide yes)
			)
		)
		(property "Datasheet" "~"
			(at 48.26 166.37 0)
			(effects
				(font
					(size 1.27 1.27)
				)
				(hide yes)
			)
		)
		(property "Description" "Generic connector, double row, 02x04, odd/even pin numbering scheme (row 1 odd numbers, row 2 even numbers), script generated (kicad-library-utils/schlib/autogen/connector/)"
			(at 48.26 166.37 0)
			(effects
				(font
					(size 1.27 1.27)
				)
				(hide yes)
			)
		)
		(pin "8"
			(uuid "ae290952-babc-488d-9e69-d2d557632e26")
		)
		(pin "5"
			(uuid "202614df-207a-4699-af65-d5c9b4c1301c")
		)
		(pin "4"
			(uuid "f39aca6e-4731-441f-b4de-3ffb5cee4ae8")
		)
		(pin "3"
			(uuid "ff8341f6-a68f-4f77-a064-cf17de2730ab")
		)
		(pin "2"
			(uuid "7dd5b31e-2858-48cf-ac57-7c8f942e3a8d")
		)
		(pin "7"
			(uuid "d43262a4-e5c2-44db-aa82-6a075ed7e345")
		)
		(pin "6"
			(uuid "e71d6ccf-6305-4dd9-9576-1e0ff72bfc6b")
		)
		(pin "1"
			(uuid "a3420cd4-d3bc-4300-b556-bfbaf9571d4e")
		)
		(instances
			(project ""
				(path "/80170493-2311-4dc8-a581-64220a55fa2b"
					(reference "J4")
					(unit 1)
				)
			)
		)
	)
	(symbol
		(lib_id "Mechanical:MountingHole")
		(at 66.04 82.55 0)
		(unit 1)
		(exclude_from_sim no)
		(in_bom yes)
		(on_board yes)
		(dnp no)
		(fields_autoplaced yes)
		(uuid "d5262750-2a17-4cb2-bbbb-a4b95051b1e7")
		(property "Reference" "H2"
			(at 68.58 81.28 0)
			(effects
				(font
					(size 1.27 1.27)
				)
				(justify left)
			)
		)
		(property "Value" "MountingHole"
			(at 68.58 83.82 0)
			(effects
				(font
					(size 1.27 1.27)
				)
				(justify left)
			)
		)
		(property "Footprint" "MountingHole:MountingHole_3.2mm_M3"
			(at 66.04 82.55 0)
			(effects
				(font
					(size 1.27 1.27)
				)
				(hide yes)
			)
		)
		(property "Datasheet" "~"
			(at 66.04 82.55 0)
			(effects
				(font
					(size 1.27 1.27)
				)
				(hide yes)
			)
		)
		(property "Description" ""
			(at 66.04 82.55 0)
			(effects
				(font
					(size 1.27 1.27)
				)
				(hide yes)
			)
		)
		(instances
			(project "M3.3"
				(path "/80170493-2311-4dc8-a581-64220a55fa2b"
					(reference "H2")
					(unit 1)
				)
			)
		)
	)
	(symbol
		(lib_name "GND_2")
		(lib_id "power:GND")
		(at 58.42 171.45 0)
		(unit 1)
		(exclude_from_sim no)
		(in_bom yes)
		(on_board yes)
		(dnp no)
		(fields_autoplaced yes)
		(uuid "e20e2e6e-3dfa-4fbb-a175-e1fd472f6f9f")
		(property "Reference" "#PWR03"
			(at 58.42 177.8 0)
			(effects
				(font
					(size 1.27 1.27)
				)
				(hide yes)
			)
		)
		(property "Value" "GND"
			(at 58.42 176.53 0)
			(effects
				(font
					(size 1.27 1.27)
				)
			)
		)
		(property "Footprint" ""
			(at 58.42 171.45 0)
			(effects
				(font
					(size 1.27 1.27)
				)
				(hide yes)
			)
		)
		(property "Datasheet" ""
			(at 58.42 171.45 0)
			(effects
				(font
					(size 1.27 1.27)
				)
				(hide yes)
			)
		)
		(property "Description" "Power symbol creates a global label with name \"GND\" , ground"
			(at 58.42 171.45 0)
			(effects
				(font
					(size 1.27 1.27)
				)
				(hide yes)
			)
		)
		(pin "1"
			(uuid "639352cb-421f-4564-98d9-7a414c0a8e78")
		)
		(instances
			(project ""
				(path "/80170493-2311-4dc8-a581-64220a55fa2b"
					(reference "#PWR03")
					(unit 1)
				)
			)
		)
	)
	(symbol
		(lib_id "power:GND")
		(at 83.82 118.11 0)
		(unit 1)
		(exclude_from_sim no)
		(in_bom yes)
		(on_board yes)
		(dnp no)
		(fields_autoplaced yes)
		(uuid "f32ab0c2-58b1-4966-8343-11b8df06adb3")
		(property "Reference" "#PWR01"
			(at 83.82 124.46 0)
			(effects
				(font
					(size 1.27 1.27)
				)
				(hide yes)
			)
		)
		(property "Value" "GND"
			(at 83.82 123.19 0)
			(effects
				(font
					(size 1.27 1.27)
				)
			)
		)
		(property "Footprint" ""
			(at 83.82 118.11 0)
			(effects
				(font
					(size 1.27 1.27)
				)
				(hide yes)
			)
		)
		(property "Datasheet" ""
			(at 83.82 118.11 0)
			(effects
				(font
					(size 1.27 1.27)
				)
				(hide yes)
			)
		)
		(property "Description" ""
			(at 83.82 118.11 0)
			(effects
				(font
					(size 1.27 1.27)
				)
				(hide yes)
			)
		)
		(pin "1"
			(uuid "68d23ce4-63f5-4c1b-8ee0-e7847a01cb3f")
		)
		(instances
			(project "M3.3"
				(path "/80170493-2311-4dc8-a581-64220a55fa2b"
					(reference "#PWR01")
					(unit 1)
				)
			)
		)
	)
	(symbol
		(lib_id "Mechanical:MountingHole")
		(at 90.17 82.55 0)
		(unit 1)
		(exclude_from_sim no)
		(in_bom yes)
		(on_board yes)
		(dnp no)
		(fields_autoplaced yes)
		(uuid "f4d0a6f7-81ac-43b4-ab04-0670450a216c")
		(property "Reference" "H1"
			(at 92.71 81.28 0)
			(effects
				(font
					(size 1.27 1.27)
				)
				(justify left)
			)
		)
		(property "Value" "MountingHole"
			(at 92.71 83.82 0)
			(effects
				(font
					(size 1.27 1.27)
				)
				(justify left)
			)
		)
		(property "Footprint" "MountingHole:MountingHole_3.2mm_M3"
			(at 90.17 82.55 0)
			(effects
				(font
					(size 1.27 1.27)
				)
				(hide yes)
			)
		)
		(property "Datasheet" "~"
			(at 90.17 82.55 0)
			(effects
				(font
					(size 1.27 1.27)
				)
				(hide yes)
			)
		)
		(property "Description" ""
			(at 90.17 82.55 0)
			(effects
				(font
					(size 1.27 1.27)
				)
				(hide yes)
			)
		)
		(instances
			(project "M3.3"
				(path "/80170493-2311-4dc8-a581-64220a55fa2b"
					(reference "H1")
					(unit 1)
				)
			)
		)
	)
	(sheet_instances
		(path "/"
			(page "1")
		)
	)
)
