(kicad_sch
	(version 20231120)
	(generator "eeschema")
	(generator_version "8.0")
	(uuid "a917e773-fe08-452a-936e-0e183dd66cda")
	(paper "A4")
	(lib_symbols
		(symbol "74xx:74HCT244"
			(exclude_from_sim no)
			(in_bom yes)
			(on_board yes)
			(property "Reference" "U"
				(at -7.62 16.51 0)
				(effects
					(font
						(size 1.27 1.27)
					)
				)
			)
			(property "Value" "74HCT244"
				(at -7.62 -16.51 0)
				(effects
					(font
						(size 1.27 1.27)
					)
				)
			)
			(property "Footprint" ""
				(at 0 0 0)
				(effects
					(font
						(size 1.27 1.27)
					)
					(hide yes)
				)
			)
			(property "Datasheet" "https://assets.nexperia.com/documents/data-sheet/74HC_HCT244.pdf"
				(at 0 0 0)
				(effects
					(font
						(size 1.27 1.27)
					)
					(hide yes)
				)
			)
			(property "Description" "8-bit Buffer/Line Driver 3-state"
				(at 0 0 0)
				(effects
					(font
						(size 1.27 1.27)
					)
					(hide yes)
				)
			)
			(property "ki_keywords" "HCTMOS BUFFER 3State"
				(at 0 0 0)
				(effects
					(font
						(size 1.27 1.27)
					)
					(hide yes)
				)
			)
			(property "ki_fp_filters" "TSSOP*4.4x6.5mm*P0.65mm* SSOP*4.4x6.5mm*P0.65mm*"
				(at 0 0 0)
				(effects
					(font
						(size 1.27 1.27)
					)
					(hide yes)
				)
			)
			(symbol "74HCT244_1_0"
				(polyline
					(pts
						(xy 1.27 0) (xy -1.27 1.27) (xy -1.27 -1.27) (xy 1.27 0)
					)
					(stroke
						(width 0.1524)
						(type default)
					)
					(fill
						(type none)
					)
				)
				(pin input inverted
					(at -12.7 -10.16 0)
					(length 5.08)
					(name "1OE"
						(effects
							(font
								(size 1.27 1.27)
							)
						)
					)
					(number "1"
						(effects
							(font
								(size 1.27 1.27)
							)
						)
					)
				)
				(pin power_in line
					(at 0 -20.32 90)
					(length 5.08)
					(name "GND"
						(effects
							(font
								(size 1.27 1.27)
							)
						)
					)
					(number "10"
						(effects
							(font
								(size 1.27 1.27)
							)
						)
					)
				)
				(pin input line
					(at -12.7 -5.08 0)
					(length 5.08)
					(name "2A3"
						(effects
							(font
								(size 1.27 1.27)
							)
						)
					)
					(number "11"
						(effects
							(font
								(size 1.27 1.27)
							)
						)
					)
				)
				(pin tri_state line
					(at 12.7 5.08 180)
					(length 5.08)
					(name "1Y3"
						(effects
							(font
								(size 1.27 1.27)
							)
						)
					)
					(number "12"
						(effects
							(font
								(size 1.27 1.27)
							)
						)
					)
				)
				(pin input line
					(at -12.7 -2.54 0)
					(length 5.08)
					(name "2A2"
						(effects
							(font
								(size 1.27 1.27)
							)
						)
					)
					(number "13"
						(effects
							(font
								(size 1.27 1.27)
							)
						)
					)
				)
				(pin tri_state line
					(at 12.7 7.62 180)
					(length 5.08)
					(name "1Y2"
						(effects
							(font
								(size 1.27 1.27)
							)
						)
					)
					(number "14"
						(effects
							(font
								(size 1.27 1.27)
							)
						)
					)
				)
				(pin input line
					(at -12.7 0 0)
					(length 5.08)
					(name "2A1"
						(effects
							(font
								(size 1.27 1.27)
							)
						)
					)
					(number "15"
						(effects
							(font
								(size 1.27 1.27)
							)
						)
					)
				)
				(pin tri_state line
					(at 12.7 10.16 180)
					(length 5.08)
					(name "1Y1"
						(effects
							(font
								(size 1.27 1.27)
							)
						)
					)
					(number "16"
						(effects
							(font
								(size 1.27 1.27)
							)
						)
					)
				)
				(pin input line
					(at -12.7 2.54 0)
					(length 5.08)
					(name "2A0"
						(effects
							(font
								(size 1.27 1.27)
							)
						)
					)
					(number "17"
						(effects
							(font
								(size 1.27 1.27)
							)
						)
					)
				)
				(pin tri_state line
					(at 12.7 12.7 180)
					(length 5.08)
					(name "1Y0"
						(effects
							(font
								(size 1.27 1.27)
							)
						)
					)
					(number "18"
						(effects
							(font
								(size 1.27 1.27)
							)
						)
					)
				)
				(pin input inverted
					(at -12.7 -12.7 0)
					(length 5.08)
					(name "2OE"
						(effects
							(font
								(size 1.27 1.27)
							)
						)
					)
					(number "19"
						(effects
							(font
								(size 1.27 1.27)
							)
						)
					)
				)
				(pin input line
					(at -12.7 12.7 0)
					(length 5.08)
					(name "1A0"
						(effects
							(font
								(size 1.27 1.27)
							)
						)
					)
					(number "2"
						(effects
							(font
								(size 1.27 1.27)
							)
						)
					)
				)
				(pin power_in line
					(at 0 20.32 270)
					(length 5.08)
					(name "VCC"
						(effects
							(font
								(size 1.27 1.27)
							)
						)
					)
					(number "20"
						(effects
							(font
								(size 1.27 1.27)
							)
						)
					)
				)
				(pin tri_state line
					(at 12.7 2.54 180)
					(length 5.08)
					(name "2Y0"
						(effects
							(font
								(size 1.27 1.27)
							)
						)
					)
					(number "3"
						(effects
							(font
								(size 1.27 1.27)
							)
						)
					)
				)
				(pin input line
					(at -12.7 10.16 0)
					(length 5.08)
					(name "1A1"
						(effects
							(font
								(size 1.27 1.27)
							)
						)
					)
					(number "4"
						(effects
							(font
								(size 1.27 1.27)
							)
						)
					)
				)
				(pin tri_state line
					(at 12.7 0 180)
					(length 5.08)
					(name "2Y1"
						(effects
							(font
								(size 1.27 1.27)
							)
						)
					)
					(number "5"
						(effects
							(font
								(size 1.27 1.27)
							)
						)
					)
				)
				(pin input line
					(at -12.7 7.62 0)
					(length 5.08)
					(name "1A2"
						(effects
							(font
								(size 1.27 1.27)
							)
						)
					)
					(number "6"
						(effects
							(font
								(size 1.27 1.27)
							)
						)
					)
				)
				(pin tri_state line
					(at 12.7 -2.54 180)
					(length 5.08)
					(name "2Y2"
						(effects
							(font
								(size 1.27 1.27)
							)
						)
					)
					(number "7"
						(effects
							(font
								(size 1.27 1.27)
							)
						)
					)
				)
				(pin input line
					(at -12.7 5.08 0)
					(length 5.08)
					(name "1A3"
						(effects
							(font
								(size 1.27 1.27)
							)
						)
					)
					(number "8"
						(effects
							(font
								(size 1.27 1.27)
							)
						)
					)
				)
				(pin tri_state line
					(at 12.7 -5.08 180)
					(length 5.08)
					(name "2Y3"
						(effects
							(font
								(size 1.27 1.27)
							)
						)
					)
					(number "9"
						(effects
							(font
								(size 1.27 1.27)
							)
						)
					)
				)
			)
			(symbol "74HCT244_1_1"
				(rectangle
					(start -7.62 15.24)
					(end 7.62 -15.24)
					(stroke
						(width 0.254)
						(type default)
					)
					(fill
						(type background)
					)
				)
			)
		)
		(symbol "Connector:Barrel_Jack_Switch"
			(pin_names hide)
			(exclude_from_sim no)
			(in_bom yes)
			(on_board yes)
			(property "Reference" "J"
				(at 0 5.334 0)
				(effects
					(font
						(size 1.27 1.27)
					)
				)
			)
			(property "Value" "Barrel_Jack_Switch"
				(at 0 -5.08 0)
				(effects
					(font
						(size 1.27 1.27)
					)
				)
			)
			(property "Footprint" ""
				(at 1.27 -1.016 0)
				(effects
					(font
						(size 1.27 1.27)
					)
					(hide yes)
				)
			)
			(property "Datasheet" "~"
				(at 1.27 -1.016 0)
				(effects
					(font
						(size 1.27 1.27)
					)
					(hide yes)
				)
			)
			(property "Description" "DC Barrel Jack with an internal switch"
				(at 0 0 0)
				(effects
					(font
						(size 1.27 1.27)
					)
					(hide yes)
				)
			)
			(property "ki_keywords" "DC power barrel jack connector"
				(at 0 0 0)
				(effects
					(font
						(size 1.27 1.27)
					)
					(hide yes)
				)
			)
			(property "ki_fp_filters" "BarrelJack*"
				(at 0 0 0)
				(effects
					(font
						(size 1.27 1.27)
					)
					(hide yes)
				)
			)
			(symbol "Barrel_Jack_Switch_0_1"
				(rectangle
					(start -5.08 3.81)
					(end 5.08 -3.81)
					(stroke
						(width 0.254)
						(type default)
					)
					(fill
						(type background)
					)
				)
				(arc
					(start -3.302 3.175)
					(mid -3.9343 2.54)
					(end -3.302 1.905)
					(stroke
						(width 0.254)
						(type default)
					)
					(fill
						(type none)
					)
				)
				(arc
					(start -3.302 3.175)
					(mid -3.9343 2.54)
					(end -3.302 1.905)
					(stroke
						(width 0.254)
						(type default)
					)
					(fill
						(type outline)
					)
				)
				(polyline
					(pts
						(xy 1.27 -2.286) (xy 1.905 -1.651)
					)
					(stroke
						(width 0.254)
						(type default)
					)
					(fill
						(type none)
					)
				)
				(polyline
					(pts
						(xy 5.08 2.54) (xy 3.81 2.54)
					)
					(stroke
						(width 0.254)
						(type default)
					)
					(fill
						(type none)
					)
				)
				(polyline
					(pts
						(xy 5.08 0) (xy 1.27 0) (xy 1.27 -2.286) (xy 0.635 -1.651)
					)
					(stroke
						(width 0.254)
						(type default)
					)
					(fill
						(type none)
					)
				)
				(polyline
					(pts
						(xy -3.81 -2.54) (xy -2.54 -2.54) (xy -1.27 -1.27) (xy 0 -2.54) (xy 2.54 -2.54) (xy 5.08 -2.54)
					)
					(stroke
						(width 0.254)
						(type default)
					)
					(fill
						(type none)
					)
				)
				(rectangle
					(start 3.683 3.175)
					(end -3.302 1.905)
					(stroke
						(width 0.254)
						(type default)
					)
					(fill
						(type outline)
					)
				)
			)
			(symbol "Barrel_Jack_Switch_1_1"
				(pin passive line
					(at 7.62 2.54 180)
					(length 2.54)
					(name "~"
						(effects
							(font
								(size 1.27 1.27)
							)
						)
					)
					(number "1"
						(effects
							(font
								(size 1.27 1.27)
							)
						)
					)
				)
				(pin passive line
					(at 7.62 -2.54 180)
					(length 2.54)
					(name "~"
						(effects
							(font
								(size 1.27 1.27)
							)
						)
					)
					(number "2"
						(effects
							(font
								(size 1.27 1.27)
							)
						)
					)
				)
				(pin passive line
					(at 7.62 0 180)
					(length 2.54)
					(name "~"
						(effects
							(font
								(size 1.27 1.27)
							)
						)
					)
					(number "3"
						(effects
							(font
								(size 1.27 1.27)
							)
						)
					)
				)
			)
		)
		(symbol "Connector_Generic:Conn_01x03"
			(pin_names
				(offset 1.016) hide)
			(exclude_from_sim no)
			(in_bom yes)
			(on_board yes)
			(property "Reference" "J"
				(at 0 5.08 0)
				(effects
					(font
						(size 1.27 1.27)
					)
				)
			)
			(property "Value" "Conn_01x03"
				(at 0 -5.08 0)
				(effects
					(font
						(size 1.27 1.27)
					)
				)
			)
			(property "Footprint" ""
				(at 0 0 0)
				(effects
					(font
						(size 1.27 1.27)
					)
					(hide yes)
				)
			)
			(property "Datasheet" "~"
				(at 0 0 0)
				(effects
					(font
						(size 1.27 1.27)
					)
					(hide yes)
				)
			)
			(property "Description" "Generic connector, single row, 01x03, script generated (kicad-library-utils/schlib/autogen/connector/)"
				(at 0 0 0)
				(effects
					(font
						(size 1.27 1.27)
					)
					(hide yes)
				)
			)
			(property "ki_keywords" "connector"
				(at 0 0 0)
				(effects
					(font
						(size 1.27 1.27)
					)
					(hide yes)
				)
			)
			(property "ki_fp_filters" "Connector*:*_1x??_*"
				(at 0 0 0)
				(effects
					(font
						(size 1.27 1.27)
					)
					(hide yes)
				)
			)
			(symbol "Conn_01x03_1_1"
				(rectangle
					(start -1.27 -2.413)
					(end 0 -2.667)
					(stroke
						(width 0.1524)
						(type default)
					)
					(fill
						(type none)
					)
				)
				(rectangle
					(start -1.27 0.127)
					(end 0 -0.127)
					(stroke
						(width 0.1524)
						(type default)
					)
					(fill
						(type none)
					)
				)
				(rectangle
					(start -1.27 2.667)
					(end 0 2.413)
					(stroke
						(width 0.1524)
						(type default)
					)
					(fill
						(type none)
					)
				)
				(rectangle
					(start -1.27 3.81)
					(end 1.27 -3.81)
					(stroke
						(width 0.254)
						(type default)
					)
					(fill
						(type background)
					)
				)
				(pin passive line
					(at -5.08 2.54 0)
					(length 3.81)
					(name "Pin_1"
						(effects
							(font
								(size 1.27 1.27)
							)
						)
					)
					(number "1"
						(effects
							(font
								(size 1.27 1.27)
							)
						)
					)
				)
				(pin passive line
					(at -5.08 0 0)
					(length 3.81)
					(name "Pin_2"
						(effects
							(font
								(size 1.27 1.27)
							)
						)
					)
					(number "2"
						(effects
							(font
								(size 1.27 1.27)
							)
						)
					)
				)
				(pin passive line
					(at -5.08 -2.54 0)
					(length 3.81)
					(name "Pin_3"
						(effects
							(font
								(size 1.27 1.27)
							)
						)
					)
					(number "3"
						(effects
							(font
								(size 1.27 1.27)
							)
						)
					)
				)
			)
		)
		(symbol "Connector_Generic:Conn_01x04"
			(pin_names
				(offset 1.016) hide)
			(exclude_from_sim no)
			(in_bom yes)
			(on_board yes)
			(property "Reference" "J"
				(at 0 5.08 0)
				(effects
					(font
						(size 1.27 1.27)
					)
				)
			)
			(property "Value" "Conn_01x04"
				(at 0 -7.62 0)
				(effects
					(font
						(size 1.27 1.27)
					)
				)
			)
			(property "Footprint" ""
				(at 0 0 0)
				(effects
					(font
						(size 1.27 1.27)
					)
					(hide yes)
				)
			)
			(property "Datasheet" "~"
				(at 0 0 0)
				(effects
					(font
						(size 1.27 1.27)
					)
					(hide yes)
				)
			)
			(property "Description" "Generic connector, single row, 01x04, script generated (kicad-library-utils/schlib/autogen/connector/)"
				(at 0 0 0)
				(effects
					(font
						(size 1.27 1.27)
					)
					(hide yes)
				)
			)
			(property "ki_keywords" "connector"
				(at 0 0 0)
				(effects
					(font
						(size 1.27 1.27)
					)
					(hide yes)
				)
			)
			(property "ki_fp_filters" "Connector*:*_1x??_*"
				(at 0 0 0)
				(effects
					(font
						(size 1.27 1.27)
					)
					(hide yes)
				)
			)
			(symbol "Conn_01x04_1_1"
				(rectangle
					(start -1.27 -4.953)
					(end 0 -5.207)
					(stroke
						(width 0.1524)
						(type default)
					)
					(fill
						(type none)
					)
				)
				(rectangle
					(start -1.27 -2.413)
					(end 0 -2.667)
					(stroke
						(width 0.1524)
						(type default)
					)
					(fill
						(type none)
					)
				)
				(rectangle
					(start -1.27 0.127)
					(end 0 -0.127)
					(stroke
						(width 0.1524)
						(type default)
					)
					(fill
						(type none)
					)
				)
				(rectangle
					(start -1.27 2.667)
					(end 0 2.413)
					(stroke
						(width 0.1524)
						(type default)
					)
					(fill
						(type none)
					)
				)
				(rectangle
					(start -1.27 3.81)
					(end 1.27 -6.35)
					(stroke
						(width 0.254)
						(type default)
					)
					(fill
						(type background)
					)
				)
				(pin passive line
					(at -5.08 2.54 0)
					(length 3.81)
					(name "Pin_1"
						(effects
							(font
								(size 1.27 1.27)
							)
						)
					)
					(number "1"
						(effects
							(font
								(size 1.27 1.27)
							)
						)
					)
				)
				(pin passive line
					(at -5.08 0 0)
					(length 3.81)
					(name "Pin_2"
						(effects
							(font
								(size 1.27 1.27)
							)
						)
					)
					(number "2"
						(effects
							(font
								(size 1.27 1.27)
							)
						)
					)
				)
				(pin passive line
					(at -5.08 -2.54 0)
					(length 3.81)
					(name "Pin_3"
						(effects
							(font
								(size 1.27 1.27)
							)
						)
					)
					(number "3"
						(effects
							(font
								(size 1.27 1.27)
							)
						)
					)
				)
				(pin passive line
					(at -5.08 -5.08 0)
					(length 3.81)
					(name "Pin_4"
						(effects
							(font
								(size 1.27 1.27)
							)
						)
					)
					(number "4"
						(effects
							(font
								(size 1.27 1.27)
							)
						)
					)
				)
			)
		)
		(symbol "Connector_Generic:Conn_01x05"
			(pin_names
				(offset 1.016) hide)
			(exclude_from_sim no)
			(in_bom yes)
			(on_board yes)
			(property "Reference" "J"
				(at 0 7.62 0)
				(effects
					(font
						(size 1.27 1.27)
					)
				)
			)
			(property "Value" "Conn_01x05"
				(at 0 -7.62 0)
				(effects
					(font
						(size 1.27 1.27)
					)
				)
			)
			(property "Footprint" ""
				(at 0 0 0)
				(effects
					(font
						(size 1.27 1.27)
					)
					(hide yes)
				)
			)
			(property "Datasheet" "~"
				(at 0 0 0)
				(effects
					(font
						(size 1.27 1.27)
					)
					(hide yes)
				)
			)
			(property "Description" "Generic connector, single row, 01x05, script generated (kicad-library-utils/schlib/autogen/connector/)"
				(at 0 0 0)
				(effects
					(font
						(size 1.27 1.27)
					)
					(hide yes)
				)
			)
			(property "ki_keywords" "connector"
				(at 0 0 0)
				(effects
					(font
						(size 1.27 1.27)
					)
					(hide yes)
				)
			)
			(property "ki_fp_filters" "Connector*:*_1x??_*"
				(at 0 0 0)
				(effects
					(font
						(size 1.27 1.27)
					)
					(hide yes)
				)
			)
			(symbol "Conn_01x05_1_1"
				(rectangle
					(start -1.27 -4.953)
					(end 0 -5.207)
					(stroke
						(width 0.1524)
						(type default)
					)
					(fill
						(type none)
					)
				)
				(rectangle
					(start -1.27 -2.413)
					(end 0 -2.667)
					(stroke
						(width 0.1524)
						(type default)
					)
					(fill
						(type none)
					)
				)
				(rectangle
					(start -1.27 0.127)
					(end 0 -0.127)
					(stroke
						(width 0.1524)
						(type default)
					)
					(fill
						(type none)
					)
				)
				(rectangle
					(start -1.27 2.667)
					(end 0 2.413)
					(stroke
						(width 0.1524)
						(type default)
					)
					(fill
						(type none)
					)
				)
				(rectangle
					(start -1.27 5.207)
					(end 0 4.953)
					(stroke
						(width 0.1524)
						(type default)
					)
					(fill
						(type none)
					)
				)
				(rectangle
					(start -1.27 6.35)
					(end 1.27 -6.35)
					(stroke
						(width 0.254)
						(type default)
					)
					(fill
						(type background)
					)
				)
				(pin passive line
					(at -5.08 5.08 0)
					(length 3.81)
					(name "Pin_1"
						(effects
							(font
								(size 1.27 1.27)
							)
						)
					)
					(number "1"
						(effects
							(font
								(size 1.27 1.27)
							)
						)
					)
				)
				(pin passive line
					(at -5.08 2.54 0)
					(length 3.81)
					(name "Pin_2"
						(effects
							(font
								(size 1.27 1.27)
							)
						)
					)
					(number "2"
						(effects
							(font
								(size 1.27 1.27)
							)
						)
					)
				)
				(pin passive line
					(at -5.08 0 0)
					(length 3.81)
					(name "Pin_3"
						(effects
							(font
								(size 1.27 1.27)
							)
						)
					)
					(number "3"
						(effects
							(font
								(size 1.27 1.27)
							)
						)
					)
				)
				(pin passive line
					(at -5.08 -2.54 0)
					(length 3.81)
					(name "Pin_4"
						(effects
							(font
								(size 1.27 1.27)
							)
						)
					)
					(number "4"
						(effects
							(font
								(size 1.27 1.27)
							)
						)
					)
				)
				(pin passive line
					(at -5.08 -5.08 0)
					(length 3.81)
					(name "Pin_5"
						(effects
							(font
								(size 1.27 1.27)
							)
						)
					)
					(number "5"
						(effects
							(font
								(size 1.27 1.27)
							)
						)
					)
				)
			)
		)
		(symbol "Connector_Generic:Conn_02x20_Odd_Even"
			(pin_names
				(offset 1.016) hide)
			(exclude_from_sim no)
			(in_bom yes)
			(on_board yes)
			(property "Reference" "J"
				(at 1.27 25.4 0)
				(effects
					(font
						(size 1.27 1.27)
					)
				)
			)
			(property "Value" "Conn_02x20_Odd_Even"
				(at 1.27 -27.94 0)
				(effects
					(font
						(size 1.27 1.27)
					)
				)
			)
			(property "Footprint" ""
				(at 0 0 0)
				(effects
					(font
						(size 1.27 1.27)
					)
					(hide yes)
				)
			)
			(property "Datasheet" "~"
				(at 0 0 0)
				(effects
					(font
						(size 1.27 1.27)
					)
					(hide yes)
				)
			)
			(property "Description" "Generic connector, double row, 02x20, odd/even pin numbering scheme (row 1 odd numbers, row 2 even numbers), script generated (kicad-library-utils/schlib/autogen/connector/)"
				(at 0 0 0)
				(effects
					(font
						(size 1.27 1.27)
					)
					(hide yes)
				)
			)
			(property "ki_keywords" "connector"
				(at 0 0 0)
				(effects
					(font
						(size 1.27 1.27)
					)
					(hide yes)
				)
			)
			(property "ki_fp_filters" "Connector*:*_2x??_*"
				(at 0 0 0)
				(effects
					(font
						(size 1.27 1.27)
					)
					(hide yes)
				)
			)
			(symbol "Conn_02x20_Odd_Even_1_1"
				(rectangle
					(start -1.27 -25.273)
					(end 0 -25.527)
					(stroke
						(width 0.1524)
						(type default)
					)
					(fill
						(type none)
					)
				)
				(rectangle
					(start -1.27 -22.733)
					(end 0 -22.987)
					(stroke
						(width 0.1524)
						(type default)
					)
					(fill
						(type none)
					)
				)
				(rectangle
					(start -1.27 -20.193)
					(end 0 -20.447)
					(stroke
						(width 0.1524)
						(type default)
					)
					(fill
						(type none)
					)
				)
				(rectangle
					(start -1.27 -17.653)
					(end 0 -17.907)
					(stroke
						(width 0.1524)
						(type default)
					)
					(fill
						(type none)
					)
				)
				(rectangle
					(start -1.27 -15.113)
					(end 0 -15.367)
					(stroke
						(width 0.1524)
						(type default)
					)
					(fill
						(type none)
					)
				)
				(rectangle
					(start -1.27 -12.573)
					(end 0 -12.827)
					(stroke
						(width 0.1524)
						(type default)
					)
					(fill
						(type none)
					)
				)
				(rectangle
					(start -1.27 -10.033)
					(end 0 -10.287)
					(stroke
						(width 0.1524)
						(type default)
					)
					(fill
						(type none)
					)
				)
				(rectangle
					(start -1.27 -7.493)
					(end 0 -7.747)
					(stroke
						(width 0.1524)
						(type default)
					)
					(fill
						(type none)
					)
				)
				(rectangle
					(start -1.27 -4.953)
					(end 0 -5.207)
					(stroke
						(width 0.1524)
						(type default)
					)
					(fill
						(type none)
					)
				)
				(rectangle
					(start -1.27 -2.413)
					(end 0 -2.667)
					(stroke
						(width 0.1524)
						(type default)
					)
					(fill
						(type none)
					)
				)
				(rectangle
					(start -1.27 0.127)
					(end 0 -0.127)
					(stroke
						(width 0.1524)
						(type default)
					)
					(fill
						(type none)
					)
				)
				(rectangle
					(start -1.27 2.667)
					(end 0 2.413)
					(stroke
						(width 0.1524)
						(type default)
					)
					(fill
						(type none)
					)
				)
				(rectangle
					(start -1.27 5.207)
					(end 0 4.953)
					(stroke
						(width 0.1524)
						(type default)
					)
					(fill
						(type none)
					)
				)
				(rectangle
					(start -1.27 7.747)
					(end 0 7.493)
					(stroke
						(width 0.1524)
						(type default)
					)
					(fill
						(type none)
					)
				)
				(rectangle
					(start -1.27 10.287)
					(end 0 10.033)
					(stroke
						(width 0.1524)
						(type default)
					)
					(fill
						(type none)
					)
				)
				(rectangle
					(start -1.27 12.827)
					(end 0 12.573)
					(stroke
						(width 0.1524)
						(type default)
					)
					(fill
						(type none)
					)
				)
				(rectangle
					(start -1.27 15.367)
					(end 0 15.113)
					(stroke
						(width 0.1524)
						(type default)
					)
					(fill
						(type none)
					)
				)
				(rectangle
					(start -1.27 17.907)
					(end 0 17.653)
					(stroke
						(width 0.1524)
						(type default)
					)
					(fill
						(type none)
					)
				)
				(rectangle
					(start -1.27 20.447)
					(end 0 20.193)
					(stroke
						(width 0.1524)
						(type default)
					)
					(fill
						(type none)
					)
				)
				(rectangle
					(start -1.27 22.987)
					(end 0 22.733)
					(stroke
						(width 0.1524)
						(type default)
					)
					(fill
						(type none)
					)
				)
				(rectangle
					(start -1.27 24.13)
					(end 3.81 -26.67)
					(stroke
						(width 0.254)
						(type default)
					)
					(fill
						(type background)
					)
				)
				(rectangle
					(start 3.81 -25.273)
					(end 2.54 -25.527)
					(stroke
						(width 0.1524)
						(type default)
					)
					(fill
						(type none)
					)
				)
				(rectangle
					(start 3.81 -22.733)
					(end 2.54 -22.987)
					(stroke
						(width 0.1524)
						(type default)
					)
					(fill
						(type none)
					)
				)
				(rectangle
					(start 3.81 -20.193)
					(end 2.54 -20.447)
					(stroke
						(width 0.1524)
						(type default)
					)
					(fill
						(type none)
					)
				)
				(rectangle
					(start 3.81 -17.653)
					(end 2.54 -17.907)
					(stroke
						(width 0.1524)
						(type default)
					)
					(fill
						(type none)
					)
				)
				(rectangle
					(start 3.81 -15.113)
					(end 2.54 -15.367)
					(stroke
						(width 0.1524)
						(type default)
					)
					(fill
						(type none)
					)
				)
				(rectangle
					(start 3.81 -12.573)
					(end 2.54 -12.827)
					(stroke
						(width 0.1524)
						(type default)
					)
					(fill
						(type none)
					)
				)
				(rectangle
					(start 3.81 -10.033)
					(end 2.54 -10.287)
					(stroke
						(width 0.1524)
						(type default)
					)
					(fill
						(type none)
					)
				)
				(rectangle
					(start 3.81 -7.493)
					(end 2.54 -7.747)
					(stroke
						(width 0.1524)
						(type default)
					)
					(fill
						(type none)
					)
				)
				(rectangle
					(start 3.81 -4.953)
					(end 2.54 -5.207)
					(stroke
						(width 0.1524)
						(type default)
					)
					(fill
						(type none)
					)
				)
				(rectangle
					(start 3.81 -2.413)
					(end 2.54 -2.667)
					(stroke
						(width 0.1524)
						(type default)
					)
					(fill
						(type none)
					)
				)
				(rectangle
					(start 3.81 0.127)
					(end 2.54 -0.127)
					(stroke
						(width 0.1524)
						(type default)
					)
					(fill
						(type none)
					)
				)
				(rectangle
					(start 3.81 2.667)
					(end 2.54 2.413)
					(stroke
						(width 0.1524)
						(type default)
					)
					(fill
						(type none)
					)
				)
				(rectangle
					(start 3.81 5.207)
					(end 2.54 4.953)
					(stroke
						(width 0.1524)
						(type default)
					)
					(fill
						(type none)
					)
				)
				(rectangle
					(start 3.81 7.747)
					(end 2.54 7.493)
					(stroke
						(width 0.1524)
						(type default)
					)
					(fill
						(type none)
					)
				)
				(rectangle
					(start 3.81 10.287)
					(end 2.54 10.033)
					(stroke
						(width 0.1524)
						(type default)
					)
					(fill
						(type none)
					)
				)
				(rectangle
					(start 3.81 12.827)
					(end 2.54 12.573)
					(stroke
						(width 0.1524)
						(type default)
					)
					(fill
						(type none)
					)
				)
				(rectangle
					(start 3.81 15.367)
					(end 2.54 15.113)
					(stroke
						(width 0.1524)
						(type default)
					)
					(fill
						(type none)
					)
				)
				(rectangle
					(start 3.81 17.907)
					(end 2.54 17.653)
					(stroke
						(width 0.1524)
						(type default)
					)
					(fill
						(type none)
					)
				)
				(rectangle
					(start 3.81 20.447)
					(end 2.54 20.193)
					(stroke
						(width 0.1524)
						(type default)
					)
					(fill
						(type none)
					)
				)
				(rectangle
					(start 3.81 22.987)
					(end 2.54 22.733)
					(stroke
						(width 0.1524)
						(type default)
					)
					(fill
						(type none)
					)
				)
				(pin passive line
					(at -5.08 22.86 0)
					(length 3.81)
					(name "Pin_1"
						(effects
							(font
								(size 1.27 1.27)
							)
						)
					)
					(number "1"
						(effects
							(font
								(size 1.27 1.27)
							)
						)
					)
				)
				(pin passive line
					(at 7.62 12.7 180)
					(length 3.81)
					(name "Pin_10"
						(effects
							(font
								(size 1.27 1.27)
							)
						)
					)
					(number "10"
						(effects
							(font
								(size 1.27 1.27)
							)
						)
					)
				)
				(pin passive line
					(at -5.08 10.16 0)
					(length 3.81)
					(name "Pin_11"
						(effects
							(font
								(size 1.27 1.27)
							)
						)
					)
					(number "11"
						(effects
							(font
								(size 1.27 1.27)
							)
						)
					)
				)
				(pin passive line
					(at 7.62 10.16 180)
					(length 3.81)
					(name "Pin_12"
						(effects
							(font
								(size 1.27 1.27)
							)
						)
					)
					(number "12"
						(effects
							(font
								(size 1.27 1.27)
							)
						)
					)
				)
				(pin passive line
					(at -5.08 7.62 0)
					(length 3.81)
					(name "Pin_13"
						(effects
							(font
								(size 1.27 1.27)
							)
						)
					)
					(number "13"
						(effects
							(font
								(size 1.27 1.27)
							)
						)
					)
				)
				(pin passive line
					(at 7.62 7.62 180)
					(length 3.81)
					(name "Pin_14"
						(effects
							(font
								(size 1.27 1.27)
							)
						)
					)
					(number "14"
						(effects
							(font
								(size 1.27 1.27)
							)
						)
					)
				)
				(pin passive line
					(at -5.08 5.08 0)
					(length 3.81)
					(name "Pin_15"
						(effects
							(font
								(size 1.27 1.27)
							)
						)
					)
					(number "15"
						(effects
							(font
								(size 1.27 1.27)
							)
						)
					)
				)
				(pin passive line
					(at 7.62 5.08 180)
					(length 3.81)
					(name "Pin_16"
						(effects
							(font
								(size 1.27 1.27)
							)
						)
					)
					(number "16"
						(effects
							(font
								(size 1.27 1.27)
							)
						)
					)
				)
				(pin passive line
					(at -5.08 2.54 0)
					(length 3.81)
					(name "Pin_17"
						(effects
							(font
								(size 1.27 1.27)
							)
						)
					)
					(number "17"
						(effects
							(font
								(size 1.27 1.27)
							)
						)
					)
				)
				(pin passive line
					(at 7.62 2.54 180)
					(length 3.81)
					(name "Pin_18"
						(effects
							(font
								(size 1.27 1.27)
							)
						)
					)
					(number "18"
						(effects
							(font
								(size 1.27 1.27)
							)
						)
					)
				)
				(pin passive line
					(at -5.08 0 0)
					(length 3.81)
					(name "Pin_19"
						(effects
							(font
								(size 1.27 1.27)
							)
						)
					)
					(number "19"
						(effects
							(font
								(size 1.27 1.27)
							)
						)
					)
				)
				(pin passive line
					(at 7.62 22.86 180)
					(length 3.81)
					(name "Pin_2"
						(effects
							(font
								(size 1.27 1.27)
							)
						)
					)
					(number "2"
						(effects
							(font
								(size 1.27 1.27)
							)
						)
					)
				)
				(pin passive line
					(at 7.62 0 180)
					(length 3.81)
					(name "Pin_20"
						(effects
							(font
								(size 1.27 1.27)
							)
						)
					)
					(number "20"
						(effects
							(font
								(size 1.27 1.27)
							)
						)
					)
				)
				(pin passive line
					(at -5.08 -2.54 0)
					(length 3.81)
					(name "Pin_21"
						(effects
							(font
								(size 1.27 1.27)
							)
						)
					)
					(number "21"
						(effects
							(font
								(size 1.27 1.27)
							)
						)
					)
				)
				(pin passive line
					(at 7.62 -2.54 180)
					(length 3.81)
					(name "Pin_22"
						(effects
							(font
								(size 1.27 1.27)
							)
						)
					)
					(number "22"
						(effects
							(font
								(size 1.27 1.27)
							)
						)
					)
				)
				(pin passive line
					(at -5.08 -5.08 0)
					(length 3.81)
					(name "Pin_23"
						(effects
							(font
								(size 1.27 1.27)
							)
						)
					)
					(number "23"
						(effects
							(font
								(size 1.27 1.27)
							)
						)
					)
				)
				(pin passive line
					(at 7.62 -5.08 180)
					(length 3.81)
					(name "Pin_24"
						(effects
							(font
								(size 1.27 1.27)
							)
						)
					)
					(number "24"
						(effects
							(font
								(size 1.27 1.27)
							)
						)
					)
				)
				(pin passive line
					(at -5.08 -7.62 0)
					(length 3.81)
					(name "Pin_25"
						(effects
							(font
								(size 1.27 1.27)
							)
						)
					)
					(number "25"
						(effects
							(font
								(size 1.27 1.27)
							)
						)
					)
				)
				(pin passive line
					(at 7.62 -7.62 180)
					(length 3.81)
					(name "Pin_26"
						(effects
							(font
								(size 1.27 1.27)
							)
						)
					)
					(number "26"
						(effects
							(font
								(size 1.27 1.27)
							)
						)
					)
				)
				(pin passive line
					(at -5.08 -10.16 0)
					(length 3.81)
					(name "Pin_27"
						(effects
							(font
								(size 1.27 1.27)
							)
						)
					)
					(number "27"
						(effects
							(font
								(size 1.27 1.27)
							)
						)
					)
				)
				(pin passive line
					(at 7.62 -10.16 180)
					(length 3.81)
					(name "Pin_28"
						(effects
							(font
								(size 1.27 1.27)
							)
						)
					)
					(number "28"
						(effects
							(font
								(size 1.27 1.27)
							)
						)
					)
				)
				(pin passive line
					(at -5.08 -12.7 0)
					(length 3.81)
					(name "Pin_29"
						(effects
							(font
								(size 1.27 1.27)
							)
						)
					)
					(number "29"
						(effects
							(font
								(size 1.27 1.27)
							)
						)
					)
				)
				(pin passive line
					(at -5.08 20.32 0)
					(length 3.81)
					(name "Pin_3"
						(effects
							(font
								(size 1.27 1.27)
							)
						)
					)
					(number "3"
						(effects
							(font
								(size 1.27 1.27)
							)
						)
					)
				)
				(pin passive line
					(at 7.62 -12.7 180)
					(length 3.81)
					(name "Pin_30"
						(effects
							(font
								(size 1.27 1.27)
							)
						)
					)
					(number "30"
						(effects
							(font
								(size 1.27 1.27)
							)
						)
					)
				)
				(pin passive line
					(at -5.08 -15.24 0)
					(length 3.81)
					(name "Pin_31"
						(effects
							(font
								(size 1.27 1.27)
							)
						)
					)
					(number "31"
						(effects
							(font
								(size 1.27 1.27)
							)
						)
					)
				)
				(pin passive line
					(at 7.62 -15.24 180)
					(length 3.81)
					(name "Pin_32"
						(effects
							(font
								(size 1.27 1.27)
							)
						)
					)
					(number "32"
						(effects
							(font
								(size 1.27 1.27)
							)
						)
					)
				)
				(pin passive line
					(at -5.08 -17.78 0)
					(length 3.81)
					(name "Pin_33"
						(effects
							(font
								(size 1.27 1.27)
							)
						)
					)
					(number "33"
						(effects
							(font
								(size 1.27 1.27)
							)
						)
					)
				)
				(pin passive line
					(at 7.62 -17.78 180)
					(length 3.81)
					(name "Pin_34"
						(effects
							(font
								(size 1.27 1.27)
							)
						)
					)
					(number "34"
						(effects
							(font
								(size 1.27 1.27)
							)
						)
					)
				)
				(pin passive line
					(at -5.08 -20.32 0)
					(length 3.81)
					(name "Pin_35"
						(effects
							(font
								(size 1.27 1.27)
							)
						)
					)
					(number "35"
						(effects
							(font
								(size 1.27 1.27)
							)
						)
					)
				)
				(pin passive line
					(at 7.62 -20.32 180)
					(length 3.81)
					(name "Pin_36"
						(effects
							(font
								(size 1.27 1.27)
							)
						)
					)
					(number "36"
						(effects
							(font
								(size 1.27 1.27)
							)
						)
					)
				)
				(pin passive line
					(at -5.08 -22.86 0)
					(length 3.81)
					(name "Pin_37"
						(effects
							(font
								(size 1.27 1.27)
							)
						)
					)
					(number "37"
						(effects
							(font
								(size 1.27 1.27)
							)
						)
					)
				)
				(pin passive line
					(at 7.62 -22.86 180)
					(length 3.81)
					(name "Pin_38"
						(effects
							(font
								(size 1.27 1.27)
							)
						)
					)
					(number "38"
						(effects
							(font
								(size 1.27 1.27)
							)
						)
					)
				)
				(pin passive line
					(at -5.08 -25.4 0)
					(length 3.81)
					(name "Pin_39"
						(effects
							(font
								(size 1.27 1.27)
							)
						)
					)
					(number "39"
						(effects
							(font
								(size 1.27 1.27)
							)
						)
					)
				)
				(pin passive line
					(at 7.62 20.32 180)
					(length 3.81)
					(name "Pin_4"
						(effects
							(font
								(size 1.27 1.27)
							)
						)
					)
					(number "4"
						(effects
							(font
								(size 1.27 1.27)
							)
						)
					)
				)
				(pin passive line
					(at 7.62 -25.4 180)
					(length 3.81)
					(name "Pin_40"
						(effects
							(font
								(size 1.27 1.27)
							)
						)
					)
					(number "40"
						(effects
							(font
								(size 1.27 1.27)
							)
						)
					)
				)
				(pin passive line
					(at -5.08 17.78 0)
					(length 3.81)
					(name "Pin_5"
						(effects
							(font
								(size 1.27 1.27)
							)
						)
					)
					(number "5"
						(effects
							(font
								(size 1.27 1.27)
							)
						)
					)
				)
				(pin passive line
					(at 7.62 17.78 180)
					(length 3.81)
					(name "Pin_6"
						(effects
							(font
								(size 1.27 1.27)
							)
						)
					)
					(number "6"
						(effects
							(font
								(size 1.27 1.27)
							)
						)
					)
				)
				(pin passive line
					(at -5.08 15.24 0)
					(length 3.81)
					(name "Pin_7"
						(effects
							(font
								(size 1.27 1.27)
							)
						)
					)
					(number "7"
						(effects
							(font
								(size 1.27 1.27)
							)
						)
					)
				)
				(pin passive line
					(at 7.62 15.24 180)
					(length 3.81)
					(name "Pin_8"
						(effects
							(font
								(size 1.27 1.27)
							)
						)
					)
					(number "8"
						(effects
							(font
								(size 1.27 1.27)
							)
						)
					)
				)
				(pin passive line
					(at -5.08 12.7 0)
					(length 3.81)
					(name "Pin_9"
						(effects
							(font
								(size 1.27 1.27)
							)
						)
					)
					(number "9"
						(effects
							(font
								(size 1.27 1.27)
							)
						)
					)
				)
			)
		)
		(symbol "Device:C"
			(pin_numbers hide)
			(pin_names
				(offset 0.254)
			)
			(exclude_from_sim no)
			(in_bom yes)
			(on_board yes)
			(property "Reference" "C"
				(at 0.635 2.54 0)
				(effects
					(font
						(size 1.27 1.27)
					)
					(justify left)
				)
			)
			(property "Value" "C"
				(at 0.635 -2.54 0)
				(effects
					(font
						(size 1.27 1.27)
					)
					(justify left)
				)
			)
			(property "Footprint" ""
				(at 0.9652 -3.81 0)
				(effects
					(font
						(size 1.27 1.27)
					)
					(hide yes)
				)
			)
			(property "Datasheet" "~"
				(at 0 0 0)
				(effects
					(font
						(size 1.27 1.27)
					)
					(hide yes)
				)
			)
			(property "Description" "Unpolarized capacitor"
				(at 0 0 0)
				(effects
					(font
						(size 1.27 1.27)
					)
					(hide yes)
				)
			)
			(property "ki_keywords" "cap capacitor"
				(at 0 0 0)
				(effects
					(font
						(size 1.27 1.27)
					)
					(hide yes)
				)
			)
			(property "ki_fp_filters" "C_*"
				(at 0 0 0)
				(effects
					(font
						(size 1.27 1.27)
					)
					(hide yes)
				)
			)
			(symbol "C_0_1"
				(polyline
					(pts
						(xy -2.032 -0.762) (xy 2.032 -0.762)
					)
					(stroke
						(width 0.508)
						(type default)
					)
					(fill
						(type none)
					)
				)
				(polyline
					(pts
						(xy -2.032 0.762) (xy 2.032 0.762)
					)
					(stroke
						(width 0.508)
						(type default)
					)
					(fill
						(type none)
					)
				)
			)
			(symbol "C_1_1"
				(pin passive line
					(at 0 3.81 270)
					(length 2.794)
					(name "~"
						(effects
							(font
								(size 1.27 1.27)
							)
						)
					)
					(number "1"
						(effects
							(font
								(size 1.27 1.27)
							)
						)
					)
				)
				(pin passive line
					(at 0 -3.81 90)
					(length 2.794)
					(name "~"
						(effects
							(font
								(size 1.27 1.27)
							)
						)
					)
					(number "2"
						(effects
							(font
								(size 1.27 1.27)
							)
						)
					)
				)
			)
		)
		(symbol "Device:R"
			(pin_numbers hide)
			(pin_names
				(offset 0)
			)
			(exclude_from_sim no)
			(in_bom yes)
			(on_board yes)
			(property "Reference" "R"
				(at 2.032 0 90)
				(effects
					(font
						(size 1.27 1.27)
					)
				)
			)
			(property "Value" "R"
				(at 0 0 90)
				(effects
					(font
						(size 1.27 1.27)
					)
				)
			)
			(property "Footprint" ""
				(at -1.778 0 90)
				(effects
					(font
						(size 1.27 1.27)
					)
					(hide yes)
				)
			)
			(property "Datasheet" "~"
				(at 0 0 0)
				(effects
					(font
						(size 1.27 1.27)
					)
					(hide yes)
				)
			)
			(property "Description" "Resistor"
				(at 0 0 0)
				(effects
					(font
						(size 1.27 1.27)
					)
					(hide yes)
				)
			)
			(property "ki_keywords" "R res resistor"
				(at 0 0 0)
				(effects
					(font
						(size 1.27 1.27)
					)
					(hide yes)
				)
			)
			(property "ki_fp_filters" "R_*"
				(at 0 0 0)
				(effects
					(font
						(size 1.27 1.27)
					)
					(hide yes)
				)
			)
			(symbol "R_0_1"
				(rectangle
					(start -1.016 -2.54)
					(end 1.016 2.54)
					(stroke
						(width 0.254)
						(type default)
					)
					(fill
						(type none)
					)
				)
			)
			(symbol "R_1_1"
				(pin passive line
					(at 0 3.81 270)
					(length 1.27)
					(name "~"
						(effects
							(font
								(size 1.27 1.27)
							)
						)
					)
					(number "1"
						(effects
							(font
								(size 1.27 1.27)
							)
						)
					)
				)
				(pin passive line
					(at 0 -3.81 90)
					(length 1.27)
					(name "~"
						(effects
							(font
								(size 1.27 1.27)
							)
						)
					)
					(number "2"
						(effects
							(font
								(size 1.27 1.27)
							)
						)
					)
				)
			)
		)
		(symbol "power:GND"
			(power)
			(pin_names
				(offset 0)
			)
			(exclude_from_sim no)
			(in_bom yes)
			(on_board yes)
			(property "Reference" "#PWR"
				(at 0 -6.35 0)
				(effects
					(font
						(size 1.27 1.27)
					)
					(hide yes)
				)
			)
			(property "Value" "GND"
				(at 0 -3.81 0)
				(effects
					(font
						(size 1.27 1.27)
					)
				)
			)
			(property "Footprint" ""
				(at 0 0 0)
				(effects
					(font
						(size 1.27 1.27)
					)
					(hide yes)
				)
			)
			(property "Datasheet" ""
				(at 0 0 0)
				(effects
					(font
						(size 1.27 1.27)
					)
					(hide yes)
				)
			)
			(property "Description" "Power symbol creates a global label with name \"GND\" , ground"
				(at 0 0 0)
				(effects
					(font
						(size 1.27 1.27)
					)
					(hide yes)
				)
			)
			(property "ki_keywords" "power-flag"
				(at 0 0 0)
				(effects
					(font
						(size 1.27 1.27)
					)
					(hide yes)
				)
			)
			(symbol "GND_0_1"
				(polyline
					(pts
						(xy 0 0) (xy 0 -1.27) (xy 1.27 -1.27) (xy 0 -2.54) (xy -1.27 -1.27) (xy 0 -1.27)
					)
					(stroke
						(width 0)
						(type default)
					)
					(fill
						(type none)
					)
				)
			)
			(symbol "GND_1_1"
				(pin power_in line
					(at 0 0 270)
					(length 0) hide
					(name "GND"
						(effects
							(font
								(size 1.27 1.27)
							)
						)
					)
					(number "1"
						(effects
							(font
								(size 1.27 1.27)
							)
						)
					)
				)
			)
		)
	)
	(junction
		(at 153.67 82.55)
		(diameter 0)
		(color 0 0 0 0)
		(uuid "04a27745-74a7-4687-9ff9-6c3f0743c408")
	)
	(junction
		(at 185.42 82.55)
		(diameter 0)
		(color 0 0 0 0)
		(uuid "437c4726-b865-462a-a629-21ddfa80cc27")
	)
	(junction
		(at 185.42 90.17)
		(diameter 0)
		(color 0 0 0 0)
		(uuid "6854776e-6a6b-411f-b77d-0e9732eb2b11")
	)
	(junction
		(at 222.25 73.66)
		(diameter 0)
		(color 0 0 0 0)
		(uuid "8728109d-c35c-4261-8d14-0d11a398fab5")
	)
	(junction
		(at 153.67 90.17)
		(diameter 0)
		(color 0 0 0 0)
		(uuid "b45e95c9-fc67-4db3-b870-cd6d19075bef")
	)
	(no_connect
		(at 113.03 88.9)
		(uuid "0d127eb9-58d3-4e26-8f90-41715e4d927f")
	)
	(no_connect
		(at 52.07 83.82)
		(uuid "14066874-b28e-4193-b811-51435c01b6d1")
	)
	(no_connect
		(at 52.07 76.2)
		(uuid "395af49f-8cc5-4c30-b105-8c451ac361e1")
	)
	(no_connect
		(at 87.63 91.44)
		(uuid "3f276267-48a4-45f6-9bd5-42060e89e899")
	)
	(no_connect
		(at 87.63 76.2)
		(uuid "40e11ce9-b5e9-4d18-b337-2eaf80fd6619")
	)
	(no_connect
		(at 87.63 78.74)
		(uuid "484762af-476b-44d2-aa26-c921acee1f84")
	)
	(no_connect
		(at 87.63 83.82)
		(uuid "49da5c15-6236-4c90-9e25-4414e6f137f7")
	)
	(no_connect
		(at 52.07 86.36)
		(uuid "4c4c64dd-0eba-47c9-b792-5eedc842a0c5")
	)
	(no_connect
		(at 52.07 71.12)
		(uuid "5b8750fa-7d85-48a4-ab81-8054df34e790")
	)
	(no_connect
		(at 64.77 71.12)
		(uuid "60bc21de-cbe6-4c5c-82cc-dd03b786ddd4")
	)
	(no_connect
		(at 64.77 96.52)
		(uuid "687478e6-a483-42a1-b756-704eea12fa3d")
	)
	(no_connect
		(at 64.77 81.28)
		(uuid "68b6b806-cece-4089-a7fc-8cc71ac72782")
	)
	(no_connect
		(at 52.07 96.52)
		(uuid "6ca382f2-aad8-4da7-851e-753db74fa8f7")
	)
	(no_connect
		(at 113.03 86.36)
		(uuid "6d5d96c0-dad9-4150-9de8-808262f3025b")
	)
	(no_connect
		(at 52.07 101.6)
		(uuid "6e2d245c-3205-4731-aa09-4d2bfcc9aa32")
	)
	(no_connect
		(at 64.77 73.66)
		(uuid "78b2b7a0-4f70-42f5-85ba-933bbb0b97cf")
	)
	(no_connect
		(at 52.07 106.68)
		(uuid "82834c7b-a49c-4dee-b923-dd6e1d41d0b3")
	)
	(no_connect
		(at 87.63 86.36)
		(uuid "87d7903c-c732-4254-9ba9-2c0e4fac2793")
	)
	(no_connect
		(at 87.63 88.9)
		(uuid "8f523284-7821-4d29-a4f1-90027699735d")
	)
	(no_connect
		(at 113.03 76.2)
		(uuid "921a2fd6-3deb-4bad-95c6-9137ecca54a1")
	)
	(no_connect
		(at 113.03 81.28)
		(uuid "93d1e71e-0a4e-40eb-87c8-dd29d0ed6509")
	)
	(no_connect
		(at 113.03 78.74)
		(uuid "997f880f-5983-4b9e-b85f-d05e8e0ead9a")
	)
	(no_connect
		(at 52.07 78.74)
		(uuid "9da0959e-c35d-444f-a6a3-b5ecc7cc4cac")
	)
	(no_connect
		(at 52.07 109.22)
		(uuid "a2f5084b-2702-49d2-927f-45d09ec15ae9")
	)
	(no_connect
		(at 52.07 99.06)
		(uuid "a92d0a22-4343-492e-a077-1c350f0ca343")
	)
	(no_connect
		(at 52.07 81.28)
		(uuid "b6bca782-70e1-421f-ae3c-1d51983a0dfc")
	)
	(no_connect
		(at 52.07 91.44)
		(uuid "be427386-b3c6-4406-8846-97830b0453e0")
	)
	(no_connect
		(at 64.77 83.82)
		(uuid "c0893d4f-ba31-4f35-aeaa-bd8bf0261b86")
	)
	(no_connect
		(at 52.07 104.14)
		(uuid "cba970b0-3d5d-4ead-963d-0e5d4e08a005")
	)
	(no_connect
		(at 87.63 81.28)
		(uuid "dfc8ebe8-228c-4f87-b9fa-3e86ebb0e886")
	)
	(no_connect
		(at 64.77 76.2)
		(uuid "e0248a23-18cb-4116-a0c0-77e549a45c2a")
	)
	(no_connect
		(at 113.03 91.44)
		(uuid "e8b2e4c2-e4e0-43bb-9312-54228b4d0bef")
	)
	(no_connect
		(at 52.07 88.9)
		(uuid "ed990b48-aa1f-4632-b341-d7b309c99339")
	)
	(no_connect
		(at 87.63 99.06)
		(uuid "f8f9ba3d-e148-4b8a-8ae1-aeb1221d86d7")
	)
	(no_connect
		(at 113.03 83.82)
		(uuid "f90ed6e3-92cb-4a12-893f-309007fe3347")
	)
	(wire
		(pts
			(xy 185.42 90.17) (xy 185.42 91.44)
		)
		(stroke
			(width 0)
			(type default)
		)
		(uuid "0e1ef85c-0b12-41cf-8e2e-573d80d4f76a")
	)
	(wire
		(pts
			(xy 255.27 96.52) (xy 255.27 100.33)
		)
		(stroke
			(width 0)
			(type default)
		)
		(uuid "172a5d76-1ac5-4e62-9dd5-705657951cdd")
	)
	(wire
		(pts
			(xy 215.392 101.6) (xy 217.932 101.6)
		)
		(stroke
			(width 0)
			(type default)
		)
		(uuid "242e01e3-88eb-4823-9d98-4f14aeb56e90")
	)
	(wire
		(pts
			(xy 64.77 63.5) (xy 64.77 66.04)
		)
		(stroke
			(width 0)
			(type default)
		)
		(uuid "24c7d441-2017-4d87-85a5-986b6a3a8588")
	)
	(wire
		(pts
			(xy 153.67 91.44) (xy 153.67 90.17)
		)
		(stroke
			(width 0)
			(type default)
		)
		(uuid "304b7c17-222d-4ca9-9fc4-33afe8bf6c36")
	)
	(wire
		(pts
			(xy 219.71 76.2) (xy 222.25 76.2)
		)
		(stroke
			(width 0)
			(type default)
		)
		(uuid "3446b546-6fab-4c2e-9465-078923d6266a")
	)
	(wire
		(pts
			(xy 116.84 111.76) (xy 116.84 114.3)
		)
		(stroke
			(width 0)
			(type default)
		)
		(uuid "53f72875-7b25-411a-955d-0109d39cf633")
	)
	(wire
		(pts
			(xy 215.392 99.06) (xy 217.932 99.06)
		)
		(stroke
			(width 0)
			(type default)
		)
		(uuid "5f92fb97-aa16-4b0d-839f-39da1c1a0dd2")
	)
	(wire
		(pts
			(xy 219.71 71.12) (xy 224.79 71.12)
		)
		(stroke
			(width 0)
			(type default)
		)
		(uuid "641c519b-6cb5-4751-a255-b34f03bb9e88")
	)
	(wire
		(pts
			(xy 185.42 90.17) (xy 181.61 90.17)
		)
		(stroke
			(width 0)
			(type default)
		)
		(uuid "730d008f-47de-42ff-9453-bc19787735f2")
	)
	(wire
		(pts
			(xy 222.25 76.2) (xy 222.25 73.66)
		)
		(stroke
			(width 0)
			(type default)
		)
		(uuid "7ee3c09b-9101-4fd8-9ede-d33a13a7108d")
	)
	(wire
		(pts
			(xy 153.67 80.01) (xy 153.67 82.55)
		)
		(stroke
			(width 0)
			(type default)
		)
		(uuid "81cbf4f6-8fe4-4dbb-ad46-f5793542a6ba")
	)
	(wire
		(pts
			(xy 237.49 74.93) (xy 245.11 74.93)
		)
		(stroke
			(width 0)
			(type default)
		)
		(uuid "87dfacd4-8fe3-4ce5-af96-14daa56073a4")
	)
	(wire
		(pts
			(xy 219.71 73.66) (xy 222.25 73.66)
		)
		(stroke
			(width 0)
			(type default)
		)
		(uuid "90dfaa7d-2d0a-4042-ab79-d3fe0720abe0")
	)
	(wire
		(pts
			(xy 252.73 96.52) (xy 252.73 100.33)
		)
		(stroke
			(width 0)
			(type default)
		)
		(uuid "a819037d-e1a3-4328-bbff-898aa9d3adc1")
	)
	(wire
		(pts
			(xy 237.49 69.85) (xy 245.11 69.85)
		)
		(stroke
			(width 0)
			(type default)
		)
		(uuid "ade0fa0f-5995-461a-82d9-336effcfa80d")
	)
	(wire
		(pts
			(xy 245.11 96.52) (xy 245.11 100.33)
		)
		(stroke
			(width 0)
			(type default)
		)
		(uuid "c01123fa-cb3c-4c94-a348-768e66dc2741")
	)
	(wire
		(pts
			(xy 215.392 93.98) (xy 217.932 93.98)
		)
		(stroke
			(width 0)
			(type default)
		)
		(uuid "c659581d-62cb-47e2-a7bd-62232c286aeb")
	)
	(wire
		(pts
			(xy 222.25 73.66) (xy 224.79 73.66)
		)
		(stroke
			(width 0)
			(type default)
		)
		(uuid "c941ba0d-99f3-4c0f-869e-c8f9d2e35b4c")
	)
	(wire
		(pts
			(xy 237.49 72.39) (xy 245.11 72.39)
		)
		(stroke
			(width 0)
			(type default)
		)
		(uuid "cecb0f1b-3583-42f7-99b5-d85183d63f6e")
	)
	(wire
		(pts
			(xy 153.67 82.55) (xy 157.48 82.55)
		)
		(stroke
			(width 0)
			(type default)
		)
		(uuid "d52bcbba-49ca-427f-9b17-1b2db4b46b33")
	)
	(wire
		(pts
			(xy 185.42 82.55) (xy 181.61 82.55)
		)
		(stroke
			(width 0)
			(type default)
		)
		(uuid "db694443-6738-4ad7-85fd-a41a8cc4bc04")
	)
	(wire
		(pts
			(xy 250.19 96.52) (xy 250.19 100.33)
		)
		(stroke
			(width 0)
			(type default)
		)
		(uuid "e1498062-3876-4ba7-ac0a-a7403f8e51b2")
	)
	(wire
		(pts
			(xy 247.65 96.52) (xy 247.65 100.33)
		)
		(stroke
			(width 0)
			(type default)
		)
		(uuid "ef6e2a8a-2b4d-439c-ac56-f9b2b5d8d418")
	)
	(wire
		(pts
			(xy 185.42 80.01) (xy 185.42 82.55)
		)
		(stroke
			(width 0)
			(type default)
		)
		(uuid "f6f8a355-24ef-49e5-a30e-ce89d2fe6a9c")
	)
	(wire
		(pts
			(xy 153.67 90.17) (xy 157.48 90.17)
		)
		(stroke
			(width 0)
			(type default)
		)
		(uuid "f7d5d99e-e59e-4bd8-a6e8-237e6534805f")
	)
	(wire
		(pts
			(xy 215.392 96.52) (xy 217.932 96.52)
		)
		(stroke
			(width 0)
			(type default)
		)
		(uuid "f80acda1-86a9-4019-9046-f2ef76463f5a")
	)
	(rectangle
		(start 38.1 53.34)
		(end 120.65 120.65)
		(stroke
			(width 0)
			(type default)
		)
		(fill
			(type none)
		)
		(uuid 23799e8c-64b3-468d-99c4-c475bad09910)
	)
	(rectangle
		(start 124.46 74.93)
		(end 195.58 97.79)
		(stroke
			(width 0)
			(type default)
		)
		(fill
			(type none)
		)
		(uuid 6772341c-05a0-459e-8946-d5fee700e9fb)
	)
	(rectangle
		(start 199.39 60.96)
		(end 265.43 111.76)
		(stroke
			(width 0)
			(type default)
		)
		(fill
			(type none)
		)
		(uuid ce7721c9-196c-4596-be28-a359e131d86a)
	)
	(text "COMPONENTES"
		(exclude_from_sim no)
		(at 124.46 74.93 0)
		(effects
			(font
				(size 1.27 1.27)
			)
			(justify left bottom)
		)
		(uuid "890a2b9d-79f0-494c-80ae-07e1fcc2000c")
	)
	(text "CONECTORES"
		(exclude_from_sim no)
		(at 199.39 60.96 0)
		(effects
			(font
				(size 1.27 1.27)
			)
			(justify left bottom)
		)
		(uuid "edcf188e-c052-400e-8eb6-a1b5906d0107")
	)
	(text "INTEGRADOS"
		(exclude_from_sim no)
		(at 38.1 53.34 0)
		(effects
			(font
				(size 1.27 1.27)
			)
			(justify left bottom)
		)
		(uuid "f51b3397-7a4e-4318-9dae-d3cff8d4ff68")
	)
	(label "+5V"
		(at 64.77 63.5 0)
		(fields_autoplaced yes)
		(effects
			(font
				(size 1.27 1.27)
			)
			(justify left bottom)
		)
		(uuid "03552774-8014-41ad-8ad9-5439dba0013e")
	)
	(label "KB_ROW1"
		(at 64.77 88.9 0)
		(fields_autoplaced yes)
		(effects
			(font
				(size 1.27 1.27)
			)
			(justify left bottom)
		)
		(uuid "17ea81b2-c36f-44b3-8b10-6ca1113e27ad")
	)
	(label "KB_ROW2"
		(at 185.42 80.01 0)
		(fields_autoplaced yes)
		(effects
			(font
				(size 1.27 1.27)
			)
			(justify left bottom)
		)
		(uuid "20f04a71-ab41-4ded-a24d-3d89369339bb")
	)
	(label "KB_COL2"
		(at 250.19 100.33 270)
		(fields_autoplaced yes)
		(effects
			(font
				(size 1.27 1.27)
			)
			(justify right bottom)
		)
		(uuid "218e586a-398c-4065-b833-8cff35e9cfc8")
	)
	(label "+5V"
		(at 100.33 66.04 90)
		(fields_autoplaced yes)
		(effects
			(font
				(size 1.27 1.27)
			)
			(justify left bottom)
		)
		(uuid "2bd98349-5d20-4417-8aea-215e2aa8d1a0")
	)
	(label "GND"
		(at 64.77 68.58 0)
		(fields_autoplaced yes)
		(effects
			(font
				(size 1.27 1.27)
			)
			(justify left bottom)
		)
		(uuid "2fdcc0b6-7b7a-4392-bcca-0c2e78149554")
	)
	(label "ENABLE A"
		(at 64.77 111.76 0)
		(fields_autoplaced yes)
		(effects
			(font
				(size 1.27 1.27)
			)
			(justify left bottom)
		)
		(uuid "35f04f33-8fa0-4f38-afe2-bc8c7bda7372")
	)
	(label "KB_COL3"
		(at 64.77 106.68 0)
		(fields_autoplaced yes)
		(effects
			(font
				(size 1.27 1.27)
			)
			(justify left bottom)
		)
		(uuid "3abb680b-7c81-44db-bc67-2feea201ff04")
	)
	(label "Y1"
		(at 113.03 73.66 0)
		(fields_autoplaced yes)
		(effects
			(font
				(size 1.27 1.27)
			)
			(justify left bottom)
		)
		(uuid "3e3ad51c-5241-44b4-8615-82c3c4f18c1f")
	)
	(label "+3.3V"
		(at 217.932 93.98 0)
		(fields_autoplaced yes)
		(effects
			(font
				(size 1.27 1.27)
			)
			(justify left bottom)
		)
		(uuid "44a01d18-b361-4957-bb55-89c178af5df8")
	)
	(label "KB_COL1"
		(at 64.77 91.44 0)
		(fields_autoplaced yes)
		(effects
			(font
				(size 1.27 1.27)
			)
			(justify left bottom)
		)
		(uuid "47cc7bc0-fc38-4505-9b89-92f58db43b54")
	)
	(label "KB_ROW1"
		(at 245.11 100.33 270)
		(fields_autoplaced yes)
		(effects
			(font
				(size 1.27 1.27)
			)
			(justify right bottom)
		)
		(uuid "4e87a089-1412-48af-b9c7-20474ced8c6b")
	)
	(label "GND"
		(at 52.07 73.66 180)
		(fields_autoplaced yes)
		(effects
			(font
				(size 1.27 1.27)
			)
			(justify right bottom)
		)
		(uuid "59a02dd7-b4d6-4141-9cd1-87fb4151f045")
	)
	(label "KB_ROW2"
		(at 64.77 109.22 0)
		(fields_autoplaced yes)
		(effects
			(font
				(size 1.27 1.27)
			)
			(justify left bottom)
		)
		(uuid "5d5d5bfb-5735-4876-ba2c-aaad5b9ddbc2")
	)
	(label "GND"
		(at 64.77 104.14 0)
		(fields_autoplaced yes)
		(effects
			(font
				(size 1.27 1.27)
			)
			(justify left bottom)
		)
		(uuid "6c6a7f4a-8d2d-4947-bbcb-9f75a5ebb1a4")
	)
	(label "A1"
		(at 64.77 101.6 0)
		(fields_autoplaced yes)
		(effects
			(font
				(size 1.27 1.27)
			)
			(justify left bottom)
		)
		(uuid "6d367c14-b390-490a-98c2-747800148770")
	)
	(label "+3.3V"
		(at 52.07 63.5 180)
		(fields_autoplaced yes)
		(effects
			(font
				(size 1.27 1.27)
			)
			(justify right bottom)
		)
		(uuid "726cf965-49dd-4e3b-8f43-a24a8dde3fba")
	)
	(label "Y1"
		(at 237.49 69.85 180)
		(fields_autoplaced yes)
		(effects
			(font
				(size 1.27 1.27)
			)
			(justify right bottom)
		)
		(uuid "76ee5705-81e5-465b-8f01-04f7823f3586")
	)
	(label "ENABLE A"
		(at 87.63 96.52 180)
		(fields_autoplaced yes)
		(effects
			(font
				(size 1.27 1.27)
			)
			(justify right bottom)
		)
		(uuid "7a50a61c-248d-457b-8f4d-0f621b296248")
	)
	(label "GND"
		(at 64.77 99.06 0)
		(fields_autoplaced yes)
		(effects
			(font
				(size 1.27 1.27)
			)
			(justify left bottom)
		)
		(uuid "7a5d8ec3-ef3c-446e-bfec-c2b040eb76c7")
	)
	(label "Y1"
		(at 237.49 72.39 180)
		(fields_autoplaced yes)
		(effects
			(font
				(size 1.27 1.27)
			)
			(justify right bottom)
		)
		(uuid "7f9e26a2-7ae5-4a6a-b4c5-30b70785162e")
	)
	(label "KB_COL3"
		(at 252.73 100.33 270)
		(fields_autoplaced yes)
		(effects
			(font
				(size 1.27 1.27)
			)
			(justify right bottom)
		)
		(uuid "85513d57-036f-41b8-be34-916fc8cf64d4")
	)
	(label "GND"
		(at 64.77 86.36 0)
		(fields_autoplaced yes)
		(effects
			(font
				(size 1.27 1.27)
			)
			(justify left bottom)
		)
		(uuid "89494135-b8ad-4ee5-a513-b4c35142b8e5")
	)
	(label "GND"
		(at 116.84 111.76 90)
		(fields_autoplaced yes)
		(effects
			(font
				(size 1.27 1.27)
			)
			(justify left bottom)
		)
		(uuid "89696dac-081b-489a-9cdd-387352434ed2")
	)
	(label "SDA"
		(at 217.932 96.52 0)
		(fields_autoplaced yes)
		(effects
			(font
				(size 1.27 1.27)
			)
			(justify left bottom)
		)
		(uuid "9020092a-3d6a-4533-a4c2-14ac968dbf27")
	)
	(label "GND"
		(at 52.07 111.76 180)
		(fields_autoplaced yes)
		(effects
			(font
				(size 1.27 1.27)
			)
			(justify right bottom)
		)
		(uuid "986a995c-1e26-4989-b8fb-8a47d035b936")
	)
	(label "SCL"
		(at 52.07 68.58 180)
		(fields_autoplaced yes)
		(effects
			(font
				(size 1.27 1.27)
			)
			(justify right bottom)
		)
		(uuid "9b00f826-42eb-42d7-b889-cacbc0f5b208")
	)
	(label "SDA"
		(at 52.07 66.04 180)
		(fields_autoplaced yes)
		(effects
			(font
				(size 1.27 1.27)
			)
			(justify right bottom)
		)
		(uuid "acf0a966-4da3-4d9c-ace8-567fbe8609e3")
	)
	(label "GND"
		(at 64.77 78.74 0)
		(fields_autoplaced yes)
		(effects
			(font
				(size 1.27 1.27)
			)
			(justify left bottom)
		)
		(uuid "b34bba7d-f8ac-4638-bef6-6438e2cc3d23")
	)
	(label "KB_ROW1"
		(at 153.67 80.01 0)
		(fields_autoplaced yes)
		(effects
			(font
				(size 1.27 1.27)
			)
			(justify left bottom)
		)
		(uuid "b50af157-599c-45c8-bb9f-604c714674f2")
	)
	(label "Y1"
		(at 134.62 82.55 0)
		(fields_autoplaced yes)
		(effects
			(font
				(size 1.27 1.27)
			)
			(justify left bottom)
		)
		(uuid "b7eccfcf-49c7-4d17-87fe-2bb0e3355fcf")
	)
	(label "A1"
		(at 87.63 73.66 180)
		(fields_autoplaced yes)
		(effects
			(font
				(size 1.27 1.27)
			)
			(justify right bottom)
		)
		(uuid "d17d3400-6892-49c3-8a32-2f47a4cbe65c")
	)
	(label "+5V"
		(at 224.79 71.12 0)
		(fields_autoplaced yes)
		(effects
			(font
				(size 1.27 1.27)
			)
			(justify left bottom)
		)
		(uuid "d6eeacbf-2368-4d7e-ad29-169dfdefa46f")
	)
	(label "KB_COL1"
		(at 247.65 100.33 270)
		(fields_autoplaced yes)
		(effects
			(font
				(size 1.27 1.27)
			)
			(justify right bottom)
		)
		(uuid "eb1d16d2-e840-46ac-88d2-6fa78f16f655")
	)
	(label "KB_COL2"
		(at 64.77 93.98 0)
		(fields_autoplaced yes)
		(effects
			(font
				(size 1.27 1.27)
			)
			(justify left bottom)
		)
		(uuid "eb5bbf0c-898c-49cf-bc12-5d2008a5bb6e")
	)
	(label "SCL"
		(at 217.932 99.06 0)
		(fields_autoplaced yes)
		(effects
			(font
				(size 1.27 1.27)
			)
			(justify left bottom)
		)
		(uuid "f78ede9a-1801-4847-b123-1e639202a865")
	)
	(label "KB_ROW2"
		(at 255.27 100.33 270)
		(fields_autoplaced yes)
		(effects
			(font
				(size 1.27 1.27)
			)
			(justify right bottom)
		)
		(uuid "f9c5a948-3b16-4175-904e-5da831ddb5d4")
	)
	(label "GND"
		(at 52.07 93.98 180)
		(fields_autoplaced yes)
		(effects
			(font
				(size 1.27 1.27)
			)
			(justify right bottom)
		)
		(uuid "fb166382-0046-4cbd-b1f0-a2b55362e186")
	)
	(symbol
		(lib_id "Connector_Generic:Conn_01x05")
		(at 250.19 91.44 90)
		(unit 1)
		(exclude_from_sim no)
		(in_bom yes)
		(on_board yes)
		(dnp no)
		(uuid "1c1eed57-ecd4-4d08-b0ac-698df955c9ca")
		(property "Reference" "J4"
			(at 250.19 85.09 90)
			(effects
				(font
					(size 1.27 1.27)
				)
			)
		)
		(property "Value" "Keyboard"
			(at 250.19 87.63 90)
			(effects
				(font
					(size 1.27 1.27)
				)
			)
		)
		(property "Footprint" "Footprints:Molex_KK-254_1x05_P2.54mm_Horizontal"
			(at 250.19 91.44 0)
			(effects
				(font
					(size 1.27 1.27)
				)
				(hide yes)
			)
		)
		(property "Datasheet" "~"
			(at 250.19 91.44 0)
			(effects
				(font
					(size 1.27 1.27)
				)
				(hide yes)
			)
		)
		(property "Description" ""
			(at 250.19 91.44 0)
			(effects
				(font
					(size 1.27 1.27)
				)
				(hide yes)
			)
		)
		(pin "3"
			(uuid "290ad87c-5890-47d3-91ee-71b8c928871c")
		)
		(pin "5"
			(uuid "517185d9-3b7c-4cb4-b48d-154daadc2a7a")
		)
		(pin "4"
			(uuid "91241045-da3c-46d4-8a19-b439748e7a65")
		)
		(pin "2"
			(uuid "2f598cdd-3314-4703-8e4f-9d37108b59a8")
		)
		(pin "1"
			(uuid "c7bf192b-c1a8-4dbf-96e8-f2e8280db2ec")
		)
		(instances
			(project "HAT_V2"
				(path "/a917e773-fe08-452a-936e-0e183dd66cda"
					(reference "J4")
					(unit 1)
				)
			)
		)
	)
	(symbol
		(lib_id "Connector_Generic:Conn_01x04")
		(at 210.312 99.06 180)
		(unit 1)
		(exclude_from_sim no)
		(in_bom yes)
		(on_board yes)
		(dnp no)
		(uuid "223566f1-f652-47ed-924f-3cde4ba2fe36")
		(property "Reference" "J3"
			(at 205.232 99.06 0)
			(effects
				(font
					(size 1.27 1.27)
				)
			)
		)
		(property "Value" "I2C"
			(at 205.232 96.52 0)
			(effects
				(font
					(size 1.27 1.27)
				)
			)
		)
		(property "Footprint" "Footprints:Molex_KK-254_1x04_P2.54mm_Horizontal"
			(at 210.312 99.06 0)
			(effects
				(font
					(size 1.27 1.27)
				)
				(hide yes)
			)
		)
		(property "Datasheet" "~"
			(at 210.312 99.06 0)
			(effects
				(font
					(size 1.27 1.27)
				)
				(hide yes)
			)
		)
		(property "Description" ""
			(at 210.312 99.06 0)
			(effects
				(font
					(size 1.27 1.27)
				)
				(hide yes)
			)
		)
		(pin "1"
			(uuid "28228609-b394-4681-b807-8ce1929ce673")
		)
		(pin "2"
			(uuid "67072a39-1953-4173-93cb-1f7b3aa8b5af")
		)
		(pin "3"
			(uuid "aa87abdd-44b0-49c3-a1c5-8f577c71e450")
		)
		(pin "4"
			(uuid "acb1ce4a-23e2-4a37-850f-75804fdf5b23")
		)
		(instances
			(project "HAT_V2"
				(path "/a917e773-fe08-452a-936e-0e183dd66cda"
					(reference "J3")
					(unit 1)
				)
			)
		)
	)
	(symbol
		(lib_id "Connector_Generic:Conn_01x03")
		(at 250.19 72.39 0)
		(mirror x)
		(unit 1)
		(exclude_from_sim no)
		(in_bom yes)
		(on_board yes)
		(dnp no)
		(uuid "3667e247-3e40-4d1a-945e-7a19232a5e26")
		(property "Reference" "J5"
			(at 252.73 73.66 0)
			(effects
				(font
					(size 1.27 1.27)
				)
				(justify left)
			)
		)
		(property "Value" "LED_conn"
			(at 252.73 71.12 0)
			(effects
				(font
					(size 1.27 1.27)
				)
				(justify left)
			)
		)
		(property "Footprint" "Footprints:Molex_KK-254_1x03_P2.54mm_Horizontal"
			(at 250.19 72.39 0)
			(effects
				(font
					(size 1.27 1.27)
				)
				(hide yes)
			)
		)
		(property "Datasheet" "~"
			(at 250.19 72.39 0)
			(effects
				(font
					(size 1.27 1.27)
				)
				(hide yes)
			)
		)
		(property "Description" ""
			(at 250.19 72.39 0)
			(effects
				(font
					(size 1.27 1.27)
				)
				(hide yes)
			)
		)
		(pin "1"
			(uuid "d60b5e3f-cb44-4407-8cd0-4b339b22e1dc")
		)
		(pin "3"
			(uuid "fc8d8b37-7b58-43d9-a113-895d1c26fc2a")
		)
		(pin "2"
			(uuid "07f9b796-3be3-47cf-8602-8b0603b3e481")
		)
		(instances
			(project "HAT_V2"
				(path "/a917e773-fe08-452a-936e-0e183dd66cda"
					(reference "J5")
					(unit 1)
				)
			)
		)
	)
	(symbol
		(lib_id "power:GND")
		(at 237.49 74.93 0)
		(unit 1)
		(exclude_from_sim no)
		(in_bom yes)
		(on_board yes)
		(dnp no)
		(uuid "3c82a8ca-0800-4dd5-a0a7-4dfbfefb36bd")
		(property "Reference" "#PWR07"
			(at 237.49 81.28 0)
			(effects
				(font
					(size 1.27 1.27)
				)
				(hide yes)
			)
		)
		(property "Value" "GND"
			(at 237.617 79.3242 0)
			(effects
				(font
					(size 1.27 1.27)
				)
			)
		)
		(property "Footprint" ""
			(at 237.49 74.93 0)
			(effects
				(font
					(size 1.27 1.27)
				)
				(hide yes)
			)
		)
		(property "Datasheet" ""
			(at 237.49 74.93 0)
			(effects
				(font
					(size 1.27 1.27)
				)
				(hide yes)
			)
		)
		(property "Description" ""
			(at 237.49 74.93 0)
			(effects
				(font
					(size 1.27 1.27)
				)
				(hide yes)
			)
		)
		(pin "1"
			(uuid "a2eddd73-00c9-49f7-b250-10f78cbd64e2")
		)
		(instances
			(project "M1"
				(path "/a917e773-fe08-452a-936e-0e183dd66cda"
					(reference "#PWR07")
					(unit 1)
				)
			)
		)
	)
	(symbol
		(lib_id "Device:C")
		(at 181.61 86.36 0)
		(unit 1)
		(exclude_from_sim no)
		(in_bom yes)
		(on_board yes)
		(dnp no)
		(uuid "407428f0-36e9-486e-8d5c-8900a8645cd6")
		(property "Reference" "C2"
			(at 175.26 85.09 0)
			(effects
				(font
					(size 1.27 1.27)
				)
			)
		)
		(property "Value" "0.1u"
			(at 175.26 87.63 0)
			(effects
				(font
					(size 1.27 1.27)
				)
			)
		)
		(property "Footprint" "Capacitor_THT:C_Disc_D6.0mm_W2.5mm_P5.00mm"
			(at 182.5752 90.17 0)
			(effects
				(font
					(size 1.27 1.27)
				)
				(hide yes)
			)
		)
		(property "Datasheet" "~"
			(at 181.61 86.36 0)
			(effects
				(font
					(size 1.27 1.27)
				)
				(hide yes)
			)
		)
		(property "Description" ""
			(at 181.61 86.36 0)
			(effects
				(font
					(size 1.27 1.27)
				)
				(hide yes)
			)
		)
		(pin "1"
			(uuid "f6710712-bef6-4dd6-924d-72eb712c4cde")
		)
		(pin "2"
			(uuid "ac45bd0f-4b21-4487-844e-1f3d69eeb765")
		)
		(instances
			(project "HAT_V2"
				(path "/a917e773-fe08-452a-936e-0e183dd66cda"
					(reference "C2")
					(unit 1)
				)
			)
			(project "Boroscope_PCB"
				(path "/f94534f5-4a73-4307-b4a3-384a595b0bd6"
					(reference "C2")
					(unit 1)
				)
			)
		)
	)
	(symbol
		(lib_id "Connector:Barrel_Jack_Switch")
		(at 212.09 73.66 0)
		(unit 1)
		(exclude_from_sim no)
		(in_bom yes)
		(on_board yes)
		(dnp no)
		(uuid "641758f5-e448-4cb9-bb95-4771c88e2a96")
		(property "Reference" "J2"
			(at 212.09 64.77 0)
			(effects
				(font
					(size 1.27 1.27)
				)
			)
		)
		(property "Value" "Power_supply"
			(at 212.09 67.31 0)
			(effects
				(font
					(size 1.27 1.27)
				)
			)
		)
		(property "Footprint" "Connector_BarrelJack:BarrelJack_GCT_DCJ200-10-A_Horizontal"
			(at 213.36 74.676 0)
			(effects
				(font
					(size 1.27 1.27)
				)
				(hide yes)
			)
		)
		(property "Datasheet" "~"
			(at 213.36 74.676 0)
			(effects
				(font
					(size 1.27 1.27)
				)
				(hide yes)
			)
		)
		(property "Description" "DC Barrel Jack with an internal switch"
			(at 212.09 73.66 0)
			(effects
				(font
					(size 1.27 1.27)
				)
				(hide yes)
			)
		)
		(pin "3"
			(uuid "c017769f-4ea2-4849-90c6-2e1c06baf658")
		)
		(pin "1"
			(uuid "aafd7312-1ac9-4d31-9d90-82e1bda6da36")
		)
		(pin "2"
			(uuid "58c047ef-83b3-4d43-b697-792e97fd2b7f")
		)
		(instances
			(project "M1"
				(path "/a917e773-fe08-452a-936e-0e183dd66cda"
					(reference "J2")
					(unit 1)
				)
			)
		)
	)
	(symbol
		(lib_id "power:GND")
		(at 224.79 73.66 0)
		(unit 1)
		(exclude_from_sim no)
		(in_bom yes)
		(on_board yes)
		(dnp no)
		(uuid "67215351-eefb-4089-b7ae-4166d0c94194")
		(property "Reference" "#PWR05"
			(at 224.79 80.01 0)
			(effects
				(font
					(size 1.27 1.27)
				)
				(hide yes)
			)
		)
		(property "Value" "GND"
			(at 224.917 78.0542 0)
			(effects
				(font
					(size 1.27 1.27)
				)
			)
		)
		(property "Footprint" ""
			(at 224.79 73.66 0)
			(effects
				(font
					(size 1.27 1.27)
				)
				(hide yes)
			)
		)
		(property "Datasheet" ""
			(at 224.79 73.66 0)
			(effects
				(font
					(size 1.27 1.27)
				)
				(hide yes)
			)
		)
		(property "Description" ""
			(at 224.79 73.66 0)
			(effects
				(font
					(size 1.27 1.27)
				)
				(hide yes)
			)
		)
		(pin "1"
			(uuid "ba8873ee-00e5-494c-86a5-ef58b4cf4cb4")
		)
		(instances
			(project "M1"
				(path "/a917e773-fe08-452a-936e-0e183dd66cda"
					(reference "#PWR05")
					(unit 1)
				)
			)
		)
	)
	(symbol
		(lib_id "Device:R")
		(at 185.42 86.36 180)
		(unit 1)
		(exclude_from_sim no)
		(in_bom yes)
		(on_board yes)
		(dnp no)
		(uuid "6c86fade-bed8-435a-be7e-874673cb8b7e")
		(property "Reference" "R2"
			(at 189.738 84.5566 0)
			(effects
				(font
					(size 1.27 1.27)
				)
			)
		)
		(property "Value" "10K"
			(at 189.738 86.868 0)
			(effects
				(font
					(size 1.27 1.27)
				)
			)
		)
		(property "Footprint" "Resistor_THT:R_Axial_DIN0207_L6.3mm_D2.5mm_P10.16mm_Horizontal"
			(at 187.198 86.36 90)
			(effects
				(font
					(size 1.27 1.27)
				)
				(hide yes)
			)
		)
		(property "Datasheet" "~"
			(at 185.42 86.36 0)
			(effects
				(font
					(size 1.27 1.27)
				)
				(hide yes)
			)
		)
		(property "Description" ""
			(at 185.42 86.36 0)
			(effects
				(font
					(size 1.27 1.27)
				)
				(hide yes)
			)
		)
		(pin "1"
			(uuid "e1e7268b-8751-42a0-8e7a-b1eb8c040652")
		)
		(pin "2"
			(uuid "6c044f57-1717-4188-9053-78885677a2ab")
		)
		(instances
			(project "HAT_V2"
				(path "/a917e773-fe08-452a-936e-0e183dd66cda"
					(reference "R2")
					(unit 1)
				)
			)
			(project "Boroscope_PCB"
				(path "/f94534f5-4a73-4307-b4a3-384a595b0bd6"
					(reference "R7")
					(unit 1)
				)
			)
		)
	)
	(symbol
		(lib_id "power:GND")
		(at 153.67 91.44 0)
		(unit 1)
		(exclude_from_sim no)
		(in_bom yes)
		(on_board yes)
		(dnp no)
		(uuid "778a8efa-03b3-4b07-b5fc-fe1e981c8e9b")
		(property "Reference" "#PWR03"
			(at 153.67 97.79 0)
			(effects
				(font
					(size 1.27 1.27)
				)
				(hide yes)
			)
		)
		(property "Value" "GND"
			(at 153.797 95.8342 0)
			(effects
				(font
					(size 1.27 1.27)
				)
			)
		)
		(property "Footprint" ""
			(at 153.67 91.44 0)
			(effects
				(font
					(size 1.27 1.27)
				)
				(hide yes)
			)
		)
		(property "Datasheet" ""
			(at 153.67 91.44 0)
			(effects
				(font
					(size 1.27 1.27)
				)
				(hide yes)
			)
		)
		(property "Description" ""
			(at 153.67 91.44 0)
			(effects
				(font
					(size 1.27 1.27)
				)
				(hide yes)
			)
		)
		(pin "1"
			(uuid "0d230e49-3466-4697-ba4f-356097ac99e4")
		)
		(instances
			(project "M1"
				(path "/a917e773-fe08-452a-936e-0e183dd66cda"
					(reference "#PWR03")
					(unit 1)
				)
			)
		)
	)
	(symbol
		(lib_id "power:GND")
		(at 217.932 101.6 0)
		(mirror y)
		(unit 1)
		(exclude_from_sim no)
		(in_bom yes)
		(on_board yes)
		(dnp no)
		(uuid "8733f50f-333c-4ae7-9d20-c95b8bd7e207")
		(property "Reference" "#PWR08"
			(at 217.932 107.95 0)
			(effects
				(font
					(size 1.27 1.27)
				)
				(hide yes)
			)
		)
		(property "Value" "GND"
			(at 217.805 105.9942 0)
			(effects
				(font
					(size 1.27 1.27)
				)
			)
		)
		(property "Footprint" ""
			(at 217.932 101.6 0)
			(effects
				(font
					(size 1.27 1.27)
				)
				(hide yes)
			)
		)
		(property "Datasheet" ""
			(at 217.932 101.6 0)
			(effects
				(font
					(size 1.27 1.27)
				)
				(hide yes)
			)
		)
		(property "Description" ""
			(at 217.932 101.6 0)
			(effects
				(font
					(size 1.27 1.27)
				)
				(hide yes)
			)
		)
		(pin "1"
			(uuid "ac6f7948-9778-4d6b-8f38-ed48f080ebb2")
		)
		(instances
			(project "M1"
				(path "/a917e773-fe08-452a-936e-0e183dd66cda"
					(reference "#PWR08")
					(unit 1)
				)
			)
		)
	)
	(symbol
		(lib_id "power:GND")
		(at 185.42 91.44 0)
		(unit 1)
		(exclude_from_sim no)
		(in_bom yes)
		(on_board yes)
		(dnp no)
		(uuid "898e1ed2-fa40-4b7a-be88-07b457a69df8")
		(property "Reference" "#PWR04"
			(at 185.42 97.79 0)
			(effects
				(font
					(size 1.27 1.27)
				)
				(hide yes)
			)
		)
		(property "Value" "GND"
			(at 185.547 95.8342 0)
			(effects
				(font
					(size 1.27 1.27)
				)
			)
		)
		(property "Footprint" ""
			(at 185.42 91.44 0)
			(effects
				(font
					(size 1.27 1.27)
				)
				(hide yes)
			)
		)
		(property "Datasheet" ""
			(at 185.42 91.44 0)
			(effects
				(font
					(size 1.27 1.27)
				)
				(hide yes)
			)
		)
		(property "Description" ""
			(at 185.42 91.44 0)
			(effects
				(font
					(size 1.27 1.27)
				)
				(hide yes)
			)
		)
		(pin "1"
			(uuid "58f9d162-e04f-43d6-8880-f9eb6601cceb")
		)
		(instances
			(project "M1"
				(path "/a917e773-fe08-452a-936e-0e183dd66cda"
					(reference "#PWR04")
					(unit 1)
				)
			)
		)
	)
	(symbol
		(lib_id "Device:C")
		(at 157.48 86.36 180)
		(unit 1)
		(exclude_from_sim no)
		(in_bom yes)
		(on_board yes)
		(dnp no)
		(uuid "918a10c9-cbbb-4998-835b-92e0f15d0f1b")
		(property "Reference" "C1"
			(at 163.068 85.09 0)
			(effects
				(font
					(size 1.27 1.27)
				)
			)
		)
		(property "Value" "0.1u"
			(at 163.068 87.63 0)
			(effects
				(font
					(size 1.27 1.27)
				)
			)
		)
		(property "Footprint" "Capacitor_THT:C_Disc_D6.0mm_W2.5mm_P5.00mm"
			(at 156.5148 82.55 0)
			(effects
				(font
					(size 1.27 1.27)
				)
				(hide yes)
			)
		)
		(property "Datasheet" "~"
			(at 157.48 86.36 0)
			(effects
				(font
					(size 1.27 1.27)
				)
				(hide yes)
			)
		)
		(property "Description" ""
			(at 157.48 86.36 0)
			(effects
				(font
					(size 1.27 1.27)
				)
				(hide yes)
			)
		)
		(pin "1"
			(uuid "ff7f5cb2-c343-45e2-89b4-74b123b0d920")
		)
		(pin "2"
			(uuid "a4b3a1f0-9d6b-43ff-8fc6-31f339383c1e")
		)
		(instances
			(project "HAT_V2"
				(path "/a917e773-fe08-452a-936e-0e183dd66cda"
					(reference "C1")
					(unit 1)
				)
			)
			(project "Boroscope_PCB"
				(path "/f94534f5-4a73-4307-b4a3-384a595b0bd6"
					(reference "C1")
					(unit 1)
				)
			)
		)
	)
	(symbol
		(lib_id "power:GND")
		(at 116.84 114.3 0)
		(unit 1)
		(exclude_from_sim no)
		(in_bom yes)
		(on_board yes)
		(dnp no)
		(uuid "aade5d86-3314-4245-af82-379e8ff8eb83")
		(property "Reference" "#PWR01"
			(at 116.84 120.65 0)
			(effects
				(font
					(size 1.27 1.27)
				)
				(hide yes)
			)
		)
		(property "Value" "GND"
			(at 116.967 118.6942 0)
			(effects
				(font
					(size 1.27 1.27)
				)
			)
		)
		(property "Footprint" ""
			(at 116.84 114.3 0)
			(effects
				(font
					(size 1.27 1.27)
				)
				(hide yes)
			)
		)
		(property "Datasheet" ""
			(at 116.84 114.3 0)
			(effects
				(font
					(size 1.27 1.27)
				)
				(hide yes)
			)
		)
		(property "Description" ""
			(at 116.84 114.3 0)
			(effects
				(font
					(size 1.27 1.27)
				)
				(hide yes)
			)
		)
		(pin "1"
			(uuid "6f2fa7c3-3d61-4998-91e8-f31cdb87e092")
		)
		(instances
			(project "HAT_V2"
				(path "/a917e773-fe08-452a-936e-0e183dd66cda"
					(reference "#PWR01")
					(unit 1)
				)
			)
		)
	)
	(symbol
		(lib_id "Device:R")
		(at 153.67 86.36 0)
		(mirror x)
		(unit 1)
		(exclude_from_sim no)
		(in_bom yes)
		(on_board yes)
		(dnp no)
		(uuid "bd766f2a-1eaa-4fc8-9240-112d91b92c75")
		(property "Reference" "R1"
			(at 149.352 85.344 0)
			(effects
				(font
					(size 1.27 1.27)
				)
			)
		)
		(property "Value" "10K"
			(at 149.352 87.6554 0)
			(effects
				(font
					(size 1.27 1.27)
				)
			)
		)
		(property "Footprint" "Resistor_THT:R_Axial_DIN0207_L6.3mm_D2.5mm_P10.16mm_Horizontal"
			(at 151.892 86.36 90)
			(effects
				(font
					(size 1.27 1.27)
				)
				(hide yes)
			)
		)
		(property "Datasheet" "~"
			(at 153.67 86.36 0)
			(effects
				(font
					(size 1.27 1.27)
				)
				(hide yes)
			)
		)
		(property "Description" ""
			(at 153.67 86.36 0)
			(effects
				(font
					(size 1.27 1.27)
				)
				(hide yes)
			)
		)
		(pin "1"
			(uuid "20b0cfb8-42ff-4556-8066-6a344e55fd79")
		)
		(pin "2"
			(uuid "b044c132-5afc-4ca2-8e7d-3d9db72e2c1d")
		)
		(instances
			(project "HAT_V2"
				(path "/a917e773-fe08-452a-936e-0e183dd66cda"
					(reference "R1")
					(unit 1)
				)
			)
			(project "Boroscope_PCB"
				(path "/f94534f5-4a73-4307-b4a3-384a595b0bd6"
					(reference "R6")
					(unit 1)
				)
			)
		)
	)
	(symbol
		(lib_id "74xx:74HCT244")
		(at 100.33 86.36 0)
		(unit 1)
		(exclude_from_sim no)
		(in_bom yes)
		(on_board yes)
		(dnp no)
		(fields_autoplaced yes)
		(uuid "d6193d4c-3b8f-45c2-9d39-d4dca696341b")
		(property "Reference" "U2"
			(at 102.5241 66.04 0)
			(effects
				(font
					(size 1.27 1.27)
				)
				(justify left)
			)
		)
		(property "Value" "74HCT244"
			(at 102.5241 68.58 0)
			(effects
				(font
					(size 1.27 1.27)
				)
				(justify left)
			)
		)
		(property "Footprint" "Package_DIP:DIP-20_W7.62mm_Socket_LongPads"
			(at 100.33 86.36 0)
			(effects
				(font
					(size 1.27 1.27)
				)
				(hide yes)
			)
		)
		(property "Datasheet" "https://assets.nexperia.com/documents/data-sheet/74HC_HCT244.pdf"
			(at 100.33 86.36 0)
			(effects
				(font
					(size 1.27 1.27)
				)
				(hide yes)
			)
		)
		(property "Description" "8-bit Buffer/Line Driver 3-state"
			(at 100.33 86.36 0)
			(effects
				(font
					(size 1.27 1.27)
				)
				(hide yes)
			)
		)
		(pin "17"
			(uuid "1f463c71-d00b-44e8-ab44-a63350ff27e9")
		)
		(pin "5"
			(uuid "b59574c2-7a6a-47e1-85be-cfdc1e3116c2")
		)
		(pin "3"
			(uuid "5b11079b-6e4b-4c2b-8e6b-36078ca75ddf")
		)
		(pin "19"
			(uuid "abac9780-dc35-4e47-a0a4-7e1cae7deb6b")
		)
		(pin "11"
			(uuid "209b1ef7-7a1a-43aa-a375-2d68b8d5dbb0")
		)
		(pin "6"
			(uuid "4bb9c649-3aa9-4c55-a26c-85f56834ae8f")
		)
		(pin "2"
			(uuid "ca0ecab9-3204-4bb0-a5b6-6d918419426a")
		)
		(pin "16"
			(uuid "3a41ceae-0f98-4ba2-94a9-9d8132e46b36")
		)
		(pin "18"
			(uuid "6bef3328-7228-4a8d-8f25-7ee6fb4dce9a")
		)
		(pin "4"
			(uuid "6105ce89-e0a1-4f6c-a27d-718740de7d7a")
		)
		(pin "8"
			(uuid "d4198c66-083d-4ee4-9149-5a2ca64fdd14")
		)
		(pin "9"
			(uuid "f0d0679a-785a-4aab-a874-f0d7eded37ad")
		)
		(pin "12"
			(uuid "fab5e15e-b6a4-4e2e-bee3-aa67d169b224")
		)
		(pin "14"
			(uuid "afbb3f0f-c59d-4322-aaf6-ef83acabd1e3")
		)
		(pin "20"
			(uuid "4b3207f4-0473-4464-8a5e-e749a9307c41")
		)
		(pin "13"
			(uuid "eca4af41-4c96-4189-82c3-5da47a829f2a")
		)
		(pin "15"
			(uuid "13f6b9f5-ec62-47bd-9bd7-021d886ee944")
		)
		(pin "7"
			(uuid "cf3d548e-434c-4064-8692-7e85ecd22572")
		)
		(pin "10"
			(uuid "a74623a9-edcd-4bf6-8607-a6ba3e448196")
		)
		(pin "1"
			(uuid "9cf208c5-cf21-4654-b14e-6a4500733ef2")
		)
		(instances
			(project ""
				(path "/a917e773-fe08-452a-936e-0e183dd66cda"
					(reference "U2")
					(unit 1)
				)
			)
		)
	)
	(symbol
		(lib_id "Connector_Generic:Conn_02x20_Odd_Even")
		(at 57.15 86.36 0)
		(unit 1)
		(exclude_from_sim no)
		(in_bom yes)
		(on_board yes)
		(dnp no)
		(fields_autoplaced yes)
		(uuid "e2fb6441-f3b2-4094-b43f-ad6f9c282622")
		(property "Reference" "J1"
			(at 58.42 57.15 0)
			(effects
				(font
					(size 1.27 1.27)
				)
			)
		)
		(property "Value" "Raspberry_PI_4"
			(at 58.42 59.69 0)
			(effects
				(font
					(size 1.27 1.27)
				)
			)
		)
		(property "Footprint" "Connector_PinSocket_2.54mm:PinSocket_2x20_P2.54mm_Vertical"
			(at 57.15 86.36 0)
			(effects
				(font
					(size 1.27 1.27)
				)
				(hide yes)
			)
		)
		(property "Datasheet" "~"
			(at 57.15 86.36 0)
			(effects
				(font
					(size 1.27 1.27)
				)
				(hide yes)
			)
		)
		(property "Description" ""
			(at 57.15 86.36 0)
			(effects
				(font
					(size 1.27 1.27)
				)
				(hide yes)
			)
		)
		(pin "1"
			(uuid "2508f867-ec1b-4b3e-a1a1-964feb2bdae4")
		)
		(pin "10"
			(uuid "67c35045-13df-43b7-a231-05cd9fba392a")
		)
		(pin "11"
			(uuid "075003d9-4f58-4905-8a92-d94c17896d8d")
		)
		(pin "12"
			(uuid "bbc08246-a3a4-4c6c-bcc8-70c8be13d4fa")
		)
		(pin "13"
			(uuid "699caf24-b1d4-42e2-84df-67db88b99e72")
		)
		(pin "14"
			(uuid "859b0bc8-9c7d-4b8c-b5f5-c5403318d970")
		)
		(pin "15"
			(uuid "aea721ed-ac98-4650-9079-90d7f45c4431")
		)
		(pin "16"
			(uuid "01a55725-0a7e-47bf-a759-118155df923a")
		)
		(pin "17"
			(uuid "48e5b222-1236-4567-90a5-5901423e24b1")
		)
		(pin "18"
			(uuid "ee8b0f0b-4aa9-4139-a4b8-50725368cd17")
		)
		(pin "19"
			(uuid "d2b8226b-c090-4a0e-acc9-13570aaafa65")
		)
		(pin "2"
			(uuid "f87aa9ff-09b2-4359-af5d-747fb42fc9d4")
		)
		(pin "20"
			(uuid "49684a9c-6893-4622-820f-514877f91eda")
		)
		(pin "21"
			(uuid "ac3787f0-d100-4c4b-8a1e-89c25a409bc6")
		)
		(pin "22"
			(uuid "03f2d85f-b21d-4df1-b23b-8542eb1ca702")
		)
		(pin "23"
			(uuid "e31f0827-fc2e-45bd-b057-e0d5a8057da2")
		)
		(pin "24"
			(uuid "f7c9a0c2-6b9e-4385-83ec-aebab6a09a52")
		)
		(pin "25"
			(uuid "a31df1cf-fd04-44b5-8752-a6ee4b8aaecd")
		)
		(pin "26"
			(uuid "335fc319-2701-46f6-97b2-a1cef54968bc")
		)
		(pin "27"
			(uuid "f0e2ef07-95c7-44d2-8b6a-0b1710cd9cf6")
		)
		(pin "28"
			(uuid "8d508c35-8ad4-42f4-b615-2dfd0817640b")
		)
		(pin "29"
			(uuid "2b642a79-198e-4433-b14e-e9c3c3acd9c5")
		)
		(pin "3"
			(uuid "0c3ec5b4-c470-4684-8683-90cbc27cf884")
		)
		(pin "30"
			(uuid "dbfc08de-81f9-4acd-93b1-cc3028867d21")
		)
		(pin "31"
			(uuid "65777808-c689-4c7b-b2c3-20ae67455cd3")
		)
		(pin "32"
			(uuid "a83ca69c-942b-4ba1-811a-91b9ad72a503")
		)
		(pin "33"
			(uuid "9f8bd549-1848-43fe-b008-f2dd4f1e8820")
		)
		(pin "34"
			(uuid "dd6cdec0-c04b-4f6f-b40c-ea207c643e78")
		)
		(pin "35"
			(uuid "c9e9061d-edfe-4328-89fe-3a16cb35df7d")
		)
		(pin "36"
			(uuid "ea85cf4a-883d-47d1-94b5-f90ee9653758")
		)
		(pin "37"
			(uuid "85e4c058-e680-4493-b69a-65898dd5b7c1")
		)
		(pin "38"
			(uuid "74e869f8-4807-4911-a3a6-4bbcc126b754")
		)
		(pin "39"
			(uuid "cfb7d351-099f-495d-bc92-2fa2b8d0595b")
		)
		(pin "4"
			(uuid "c2b8ee44-9a87-49cb-aae1-ab076679df89")
		)
		(pin "40"
			(uuid "018e4675-68c5-4fca-8eb5-6303a44c0ef5")
		)
		(pin "5"
			(uuid "5844ff79-1b91-423b-9a8a-66e5f57e3b07")
		)
		(pin "6"
			(uuid "b850450c-ac6e-4074-8421-c4fc75828ad5")
		)
		(pin "7"
			(uuid "a542c8a5-5bc4-49f1-bd30-f3f9a4ac0b12")
		)
		(pin "8"
			(uuid "c75e7a20-3546-4e77-a547-e32ff171e1ad")
		)
		(pin "9"
			(uuid "ee8440ea-01ea-4e1c-a4b2-05faf12e664a")
		)
		(instances
			(project "HAT_V2"
				(path "/a917e773-fe08-452a-936e-0e183dd66cda"
					(reference "J1")
					(unit 1)
				)
			)
		)
	)
	(symbol
		(lib_id "Device:R")
		(at 134.62 86.36 180)
		(unit 1)
		(exclude_from_sim no)
		(in_bom yes)
		(on_board yes)
		(dnp no)
		(uuid "e9eb8e4e-c6e5-412f-8a50-86e9fb530960")
		(property "Reference" "R3"
			(at 128.524 85.09 0)
			(effects
				(font
					(size 1.27 1.27)
				)
				(justify right)
			)
		)
		(property "Value" "10K"
			(at 128.524 87.63 0)
			(effects
				(font
					(size 1.27 1.27)
				)
				(justify right)
			)
		)
		(property "Footprint" "Resistor_THT:R_Axial_DIN0207_L6.3mm_D2.5mm_P10.16mm_Horizontal"
			(at 136.398 86.36 90)
			(effects
				(font
					(size 1.27 1.27)
				)
				(hide yes)
			)
		)
		(property "Datasheet" "~"
			(at 134.62 86.36 0)
			(effects
				(font
					(size 1.27 1.27)
				)
				(hide yes)
			)
		)
		(property "Description" ""
			(at 134.62 86.36 0)
			(effects
				(font
					(size 1.27 1.27)
				)
				(hide yes)
			)
		)
		(pin "1"
			(uuid "6cc87580-e04e-4159-b28b-bf83fafc46f1")
		)
		(pin "2"
			(uuid "0f95c256-b1b7-4493-8b63-dd8ca812c880")
		)
		(instances
			(project "HAT_V2"
				(path "/a917e773-fe08-452a-936e-0e183dd66cda"
					(reference "R3")
					(unit 1)
				)
			)
		)
	)
	(symbol
		(lib_id "power:GND")
		(at 100.33 106.68 0)
		(unit 1)
		(exclude_from_sim no)
		(in_bom yes)
		(on_board yes)
		(dnp no)
		(uuid "f4b31b0a-9e7d-4b72-b085-624cecfcd684")
		(property "Reference" "#PWR06"
			(at 100.33 113.03 0)
			(effects
				(font
					(size 1.27 1.27)
				)
				(hide yes)
			)
		)
		(property "Value" "GND"
			(at 100.457 111.0742 0)
			(effects
				(font
					(size 1.27 1.27)
				)
			)
		)
		(property "Footprint" ""
			(at 100.33 106.68 0)
			(effects
				(font
					(size 1.27 1.27)
				)
				(hide yes)
			)
		)
		(property "Datasheet" ""
			(at 100.33 106.68 0)
			(effects
				(font
					(size 1.27 1.27)
				)
				(hide yes)
			)
		)
		(property "Description" ""
			(at 100.33 106.68 0)
			(effects
				(font
					(size 1.27 1.27)
				)
				(hide yes)
			)
		)
		(pin "1"
			(uuid "f8d8c1a2-7889-49d4-a08a-f47ecdafaffe")
		)
		(instances
			(project "M1"
				(path "/a917e773-fe08-452a-936e-0e183dd66cda"
					(reference "#PWR06")
					(unit 1)
				)
			)
		)
	)
	(symbol
		(lib_id "power:GND")
		(at 134.62 90.17 0)
		(unit 1)
		(exclude_from_sim no)
		(in_bom yes)
		(on_board yes)
		(dnp no)
		(uuid "ff723029-98f2-490c-9452-d05685e6a738")
		(property "Reference" "#PWR02"
			(at 134.62 96.52 0)
			(effects
				(font
					(size 1.27 1.27)
				)
				(hide yes)
			)
		)
		(property "Value" "GND"
			(at 134.747 94.5642 0)
			(effects
				(font
					(size 1.27 1.27)
				)
			)
		)
		(property "Footprint" ""
			(at 134.62 90.17 0)
			(effects
				(font
					(size 1.27 1.27)
				)
				(hide yes)
			)
		)
		(property "Datasheet" ""
			(at 134.62 90.17 0)
			(effects
				(font
					(size 1.27 1.27)
				)
				(hide yes)
			)
		)
		(property "Description" ""
			(at 134.62 90.17 0)
			(effects
				(font
					(size 1.27 1.27)
				)
				(hide yes)
			)
		)
		(pin "1"
			(uuid "7caa5846-d3ea-4462-b4c8-a3e4d381e524")
		)
		(instances
			(project "M1"
				(path "/a917e773-fe08-452a-936e-0e183dd66cda"
					(reference "#PWR02")
					(unit 1)
				)
			)
		)
	)
	(sheet_instances
		(path "/"
			(page "1")
		)
	)
)
