(kicad_pcb
	(version 20240108)
	(generator "pcbnew")
	(generator_version "8.0")
	(general
		(thickness 1.6)
		(legacy_teardrops no)
	)
	(paper "A4")
	(layers
		(0 "F.Cu" signal)
		(31 "B.Cu" signal)
		(32 "B.Adhes" user "B.Adhesive")
		(33 "F.Adhes" user "F.Adhesive")
		(34 "B.Paste" user)
		(35 "F.Paste" user)
		(36 "B.SilkS" user "B.Silkscreen")
		(37 "F.SilkS" user "F.Silkscreen")
		(38 "B.Mask" user)
		(39 "F.Mask" user)
		(40 "Dwgs.User" user "User.Drawings")
		(41 "Cmts.User" user "User.Comments")
		(42 "Eco1.User" user "User.Eco1")
		(43 "Eco2.User" user "User.Eco2")
		(44 "Edge.Cuts" user)
		(45 "Margin" user)
		(46 "B.CrtYd" user "B.Courtyard")
		(47 "F.CrtYd" user "F.Courtyard")
		(48 "B.Fab" user)
		(49 "F.Fab" user)
	)
	(setup
		(pad_to_mask_clearance 0)
		(allow_soldermask_bridges_in_footprints no)
		(pcbplotparams
			(layerselection 0x00010fc_ffffffff)
			(plot_on_all_layers_selection 0x0000000_00000000)
			(disableapertmacros no)
			(usegerberextensions no)
			(usegerberattributes yes)
			(usegerberadvancedattributes yes)
			(creategerberjobfile yes)
			(dashed_line_dash_ratio 12.000000)
			(dashed_line_gap_ratio 3.000000)
			(svgprecision 4)
			(plotframeref no)
			(viasonmask no)
			(mode 1)
			(useauxorigin no)
			(hpglpennumber 1)
			(hpglpenspeed 20)
			(hpglpendiameter 15.000000)
			(pdf_front_fp_property_popups yes)
			(pdf_back_fp_property_popups yes)
			(dxfpolygonmode yes)
			(dxfimperialunits yes)
			(dxfusepcbnewfont yes)
			(psnegative no)
			(psa4output no)
			(plotreference yes)
			(plotvalue yes)
			(plotfptext yes)
			(plotinvisibletext no)
			(sketchpadsonfab no)
			(subtractmaskfromsilk no)
			(outputformat 1)
			(mirror no)
			(drillshape 1)
			(scaleselection 1)
			(outputdirectory "")
		)
	)
	(net 0 "")
	(net 1 "Net-(J1-Pin_1)")
	(net 2 "Net-(J1-Pin_3)")
	(net 3 "Net-(J1-Pin_4)")
	(net 4 "Net-(J1-Pin_2)")
	(net 5 "Net-(J1-Pin_5)")
	(footprint "Connector_Molex:Molex_KK-254_AE-6410-05A_1x05_P2.54mm_Vertical"
		(layer "F.Cu")
		(uuid "1d708d83-ece9-4952-8257-13e00596c185")
		(at 120.904 64.98 180)
		(descr "Molex KK-254 Interconnect System, old/engineering part number: AE-6410-05A example for new part number: 22-27-2051, 5 Pins (http://www.molex.com/pdm_docs/sd/022272021_sd.pdf), generated with kicad-footprint-generator")
		(tags "connector Molex KK-254 vertical")
		(property "Reference" "J1"
			(at 5.08 -4.12 180)
			(layer "F.SilkS")
			(uuid "dc878d15-1751-4611-9ea5-d3824d92a429")
			(effects
				(font
					(size 1 1)
					(thickness 0.15)
				)
			)
		)
		(property "Value" "keyboard"
			(at 5.08 4.08 180)
			(layer "F.Fab")
			(uuid "69e0baa8-0187-4c56-a6a5-c8beeeafbdaa")
			(effects
				(font
					(size 1 1)
					(thickness 0.15)
				)
			)
		)
		(property "Footprint" "Connector_Molex:Molex_KK-254_AE-6410-05A_1x05_P2.54mm_Vertical"
			(at 0 0 180)
			(unlocked yes)
			(layer "F.Fab")
			(hide yes)
			(uuid "44f8eb72-2155-4164-848c-fb3239246a22")
			(effects
				(font
					(size 1.27 1.27)
					(thickness 0.15)
				)
			)
		)
		(property "Datasheet" ""
			(at 0 0 180)
			(unlocked yes)
			(layer "F.Fab")
			(hide yes)
			(uuid "c736d6bd-d170-40f3-82ba-79fe79a36918")
			(effects
				(font
					(size 1.27 1.27)
					(thickness 0.15)
				)
			)
		)
		(property "Description" ""
			(at 0 0 180)
			(unlocked yes)
			(layer "F.Fab")
			(hide yes)
			(uuid "e0b9ada3-9e9b-4b53-8745-83131104a3a8")
			(effects
				(font
					(size 1.27 1.27)
					(thickness 0.15)
				)
			)
		)
		(property ki_fp_filters "Connector*:*_1x??_*")
		(path "/00000000-0000-0000-0000-000061316ee8")
		(sheetname "Raíz")
		(sheetfile "M2.kicad_sch")
		(attr through_hole)
		(fp_line
			(start 11.54 2.99)
			(end 11.54 -3.03)
			(stroke
				(width 0.12)
				(type solid)
			)
			(layer "F.SilkS")
			(uuid "23a63af6-83ed-4fd1-9282-70755e2d159d")
		)
		(fp_line
			(start 11.54 -3.03)
			(end -1.38 -3.03)
			(stroke
				(width 0.12)
				(type solid)
			)
			(layer "F.SilkS")
			(uuid "82200142-2019-414c-ae22-e81ae5bb2401")
		)
		(fp_line
			(start 10.96 -2.43)
			(end 10.96 -3.03)
			(stroke
				(width 0.12)
				(type solid)
			)
			(layer "F.SilkS")
			(uuid "25bd237d-905a-4971-ba27-cb04cb3efc4e")
		)
		(fp_line
			(start 10.16 1.99)
			(end 10.16 2.99)
			(stroke
				(width 0.12)
				(type solid)
			)
			(layer "F.SilkS")
			(uuid "93f2f2b9-256a-43ce-865b-fc4eee6b8433")
		)
		(fp_line
			(start 9.91 2.99)
			(end 9.91 1.99)
			(stroke
				(width 0.12)
				(type solid)
			)
			(layer "F.SilkS")
			(uuid "b51955c1-b594-4060-ba00-25ea444bddf1")
		)
		(fp_line
			(start 9.91 1.46)
			(end 10.16 1.99)
			(stroke
				(width 0.12)
				(type solid)
			)
			(layer "F.SilkS")
			(uuid "d8da58db-cd74-4303-8124-70c65ce8e85e")
		)
		(fp_line
			(start 9.36 -2.43)
			(end 10.96 -2.43)
			(stroke
				(width 0.12)
				(type solid)
			)
			(layer "F.SilkS")
			(uuid "30e8c505-4334-43ac-b6d6-1ee9d2854e09")
		)
		(fp_line
			(start 9.36 -3.03)
			(end 9.36 -2.43)
			(stroke
				(width 0.12)
				(type solid)
			)
			(layer "F.SilkS")
			(uuid "f3b072e7-7a53-4e37-be85-11ca6364b40b")
		)
		(fp_line
			(start 8.42 -2.43)
			(end 8.42 -3.03)
			(stroke
				(width 0.12)
				(type solid)
			)
			(layer "F.SilkS")
			(uuid "9ee76ffa-bf92-4677-9be5-941c4fecfd3c")
		)
		(fp_line
			(start 6.82 -2.43)
			(end 8.42 -2.43)
			(stroke
				(width 0.12)
				(type solid)
			)
			(layer "F.SilkS")
			(uuid "7bd38fae-12e8-498c-99a3-795a9d7574ae")
		)
		(fp_line
			(start 6.82 -3.03)
			(end 6.82 -2.43)
			(stroke
				(width 0.12)
				(type solid)
			)
			(layer "F.SilkS")
			(uuid "88091d85-41aa-46b5-a128-993a2cf4c988")
		)
		(fp_line
			(start 5.88 -2.43)
			(end 5.88 -3.03)
			(stroke
				(width 0.12)
				(type solid)
			)
			(layer "F.SilkS")
			(uuid "da9e95dc-69b2-4a6e-8657-aca8b85179cc")
		)
		(fp_line
			(start 4.28 -2.43)
			(end 5.88 -2.43)
			(stroke
				(width 0.12)
				(type solid)
			)
			(layer "F.SilkS")
			(uuid "d4574a38-7475-4733-8960-3d0739698ab0")
		)
		(fp_line
			(start 4.28 -3.03)
			(end 4.28 -2.43)
			(stroke
				(width 0.12)
				(type solid)
			)
			(layer "F.SilkS")
			(uuid "6317e074-a979-4c50-b140-d821a0e77863")
		)
		(fp_line
			(start 3.34 -2.43)
			(end 3.34 -3.03)
			(stroke
				(width 0.12)
				(type solid)
			)
			(layer "F.SilkS")
			(uuid "73d709bd-ae9b-47c2-8349-d2ed82e174e9")
		)
		(fp_line
			(start 1.74 -2.43)
			(end 3.34 -2.43)
			(stroke
				(width 0.12)
				(type solid)
			)
			(layer "F.SilkS")
			(uuid "de8839aa-7577-4dfe-8dd3-6edc7b2b16df")
		)
		(fp_line
			(start 1.74 -3.03)
			(end 1.74 -2.43)
			(stroke
				(width 0.12)
				(type solid)
			)
			(layer "F.SilkS")
			(uuid "1e695342-550b-4e32-9694-ee404b72b498")
		)
		(fp_line
			(start 0.8 -2.43)
			(end 0.8 -3.03)
			(stroke
				(width 0.12)
				(type solid)
			)
			(layer "F.SilkS")
			(uuid "30e71598-b1ee-4169-a1cb-2dfdff5f5abf")
		)
		(fp_line
			(start 0.25 2.99)
			(end 0.25 1.99)
			(stroke
				(width 0.12)
				(type solid)
			)
			(layer "F.SilkS")
			(uuid "17ee4fbf-a9dc-4e5e-bbc9-a6cef76366b1")
		)
		(fp_line
			(start 0.25 1.46)
			(end 9.91 1.46)
			(stroke
				(width 0.12)
				(type solid)
			)
			(layer "F.SilkS")
			(uuid "e11d2f8a-494c-436d-a647-737af7b4b89f")
		)
		(fp_line
			(start 0 2.99)
			(end 0 1.99)
			(stroke
				(width 0.12)
				(type solid)
			)
			(layer "F.SilkS")
			(uuid "999d8461-3945-4766-a2c0-dc0c16b89a85")
		)
		(fp_line
			(start 0 1.99)
			(end 10.16 1.99)
			(stroke
				(width 0.12)
				(type solid)
			)
			(layer "F.SilkS")
			(uuid "d1f34a23-5cf5-4206-aa40-43490f24d131")
		)
		(fp_line
			(start 0 1.99)
			(end 0.25 1.46)
			(stroke
				(width 0.12)
				(type solid)
			)
			(layer "F.SilkS")
			(uuid "fa87d0db-2af0-4691-9ad2-a7ba317ad922")
		)
		(fp_line
			(start -0.8 -2.43)
			(end 0.8 -2.43)
			(stroke
				(width 0.12)
				(type solid)
			)
			(layer "F.SilkS")
			(uuid "83516281-8d7a-48ff-b18b-00b3f20634eb")
		)
		(fp_line
			(start -0.8 -3.03)
			(end -0.8 -2.43)
			(stroke
				(width 0.12)
				(type solid)
			)
			(layer "F.SilkS")
			(uuid "7eea179a-39c5-4896-b05d-c8f7ff206235")
		)
		(fp_line
			(start -1.38 2.99)
			(end 11.54 2.99)
			(stroke
				(width 0.12)
				(type solid)
			)
			(layer "F.SilkS")
			(uuid "7ba3c1b2-d6a2-41dc-ae2c-cf4cefc5be52")
		)
		(fp_line
			(start -1.38 -3.03)
			(end -1.38 2.99)
			(stroke
				(width 0.12)
				(type solid)
			)
			(layer "F.SilkS")
			(uuid "e213b95d-46e2-4fe3-b83a-6d65aefac17a")
		)
		(fp_line
			(start -1.67 -2)
			(end -1.67 2)
			(stroke
				(width 0.12)
				(type solid)
			)
			(layer "F.SilkS")
			(uuid "82a0b68d-7cea-424c-9c2d-a712141d21f7")
		)
		(fp_line
			(start 11.93 3.38)
			(end 11.93 -3.42)
			(stroke
				(width 0.05)
				(type solid)
			)
			(layer "F.CrtYd")
			(uuid "39cb0fa0-28bb-4992-a8bf-d86f55b679cb")
		)
		(fp_line
			(start 11.93 -3.42)
			(end -1.77 -3.42)
			(stroke
				(width 0.05)
				(type solid)
			)
			(layer "F.CrtYd")
			(uuid "4b41e6f7-5216-44cd-a203-da77ea57a122")
		)
		(fp_line
			(start -1.77 3.38)
			(end 11.93 3.38)
			(stroke
				(width 0.05)
				(type solid)
			)
			(layer "F.CrtYd")
			(uuid "f0255949-42c1-4c57-8817-8e840546d1cb")
		)
		(fp_line
			(start -1.77 -3.42)
			(end -1.77 3.38)
			(stroke
				(width 0.05)
				(type solid)
			)
			(layer "F.CrtYd")
			(uuid "d2e8c72f-02d1-4463-aa02-bf9fe896705d")
		)
		(fp_line
			(start 11.43 2.88)
			(end 11.43 -2.92)
			(stroke
				(width 0.1)
				(type solid)
			)
			(layer "F.Fab")
			(uuid "615b5854-c627-49c1-8648-a2053e664a89")
		)
		(fp_line
			(start 11.43 -2.92)
			(end -1.27 -2.92)
			(stroke
				(width 0.1)
				(type solid)
			)
			(layer "F.Fab")
			(uuid "39aae114-8ad5-4fb4-aabf-ccaad187d488")
		)
		(fp_line
			(start -0.562893 0)
			(end -1.27 0.5)
			(stroke
				(width 0.1)
				(type solid)
			)
			(layer "F.Fab")
			(uuid "20bf387b-c3f6-41db-976a-dafa5f526ff5")
		)
		(fp_line
			(start -1.27 2.88)
			(end 11.43 2.88)
			(stroke
				(width 0.1)
				(type solid)
			)
			(layer "F.Fab")
			(uuid "66e9f7e6-1120-4e07-a30b-a3d838cb307f")
		)
		(fp_line
			(start -1.27 -0.5)
			(end -0.562893 0)
			(stroke
				(width 0.1)
				(type solid)
			)
			(layer "F.Fab")
			(uuid "b8aee521-7109-42e6-8f16-bcaf485dd361")
		)
		(fp_line
			(start -1.27 -2.92)
			(end -1.27 2.88)
			(stroke
				(width 0.1)
				(type solid)
			)
			(layer "F.Fab")
			(uuid "95a5cf83-829d-4582-ab0b-574eeac4fda8")
		)
		(fp_text user "${REFERENCE}"
			(at 5.08 -2.22 180)
			(layer "F.Fab")
			(uuid "52c2864f-a52c-4f01-92ba-17436e2534a6")
			(effects
				(font
					(size 1 1)
					(thickness 0.15)
				)
			)
		)
		(pad "1" thru_hole roundrect
			(at 0 0 180)
			(size 2 3)
			(drill 1.19)
			(layers "*.Cu" "*.Mask")
			(remove_unused_layers no)
			(roundrect_rratio 0.143678)
			(net 1 "Net-(J1-Pin_1)")
			(pinfunction "Pin_1")
			(pintype "passive")
			(uuid "bf95721b-968f-4b6b-9f9e-4352199b8436")
		)
		(pad "2" thru_hole oval
			(at 2.54 0 180)
			(size 2 3)
			(drill 1.19)
			(layers "*.Cu" "*.Mask")
			(remove_unused_layers no)
			(net 4 "Net-(J1-Pin_2)")
			(pinfunction "Pin_2")
			(pintype "passive")
			(uuid "25ad0b12-d06d-4961-a39c-def5f8002b9d")
		)
		(pad "3" thru_hole oval
			(at 5.08 0 180)
			(size 2 3)
			(drill 1.19)
			(layers "*.Cu" "*.Mask")
			(remove_unused_layers no)
			(net 2 "Net-(J1-Pin_3)")
			(pinfunction "Pin_3")
			(pintype "passive")
			(uuid "a21ecba6-51c1-43d5-a4a4-9a3b36fa1bdb")
		)
		(pad "4" thru_hole oval
			(at 7.62 0 180)
			(size 2 3)
			(drill 1.19)
			(layers "*.Cu" "*.Mask")
			(remove_unused_layers no)
			(net 3 "Net-(J1-Pin_4)")
			(pinfunction "Pin_4")
			(pintype "passive")
			(uuid "87da3871-8274-43aa-a05d-a0d550aa7b33")
		)
		(pad "5" thru_hole oval
			(at 10.16 0 180)
			(size 2 3)
			(drill 1.19)
			(layers "*.Cu" "*.Mask")
			(remove_unused_layers no)
			(net 5 "Net-(J1-Pin_5)")
			(pinfunction "Pin_5")
			(pintype "passive")
			(uuid "14d2df88-4d47-4cf4-a5b4-812799b63a94")
		)
		(model "${KIPRJMOD}/../../modules/3dmodels/Connector_Molex.3dshapes/Molex_KK-254_1x05_P2.54mm_Vertical.step"
			(offset
				(xyz 0 0 0)
			)
			(scale
				(xyz 1 1 1)
			)
			(rotate
				(xyz 0 0 0)
			)
		)
	)
	(footprint "Button_Switch_THT:SW_PUSH_6mm_H4.3mm"
		(layer "B.Cu")
		(uuid "247d58a8-07b0-4367-bfa7-20c678152179")
		(at 92.762 67.274)
		(descr "tactile push button, 6x6mm e.g. PHAP33xx series, height=4.3mm")
		(tags "tact sw push 6mm")
		(property "Reference" "UP1"
			(at 3.25 2 0)
			(layer "B.SilkS")
			(uuid "48a4d311-b0ab-42ab-80d7-1c4da69dd60c")
			(effects
				(font
					(size 1 1)
					(thickness 0.15)
				)
				(justify mirror)
			)
		)
		(property "Value" "SW_Push"
			(at 3.75 -6.7 0)
			(layer "B.Fab")
			(uuid "971d4cb9-a915-42ea-b2ca-b501586a4d6b")
			(effects
				(font
					(size 1 1)
					(thickness 0.15)
				)
				(justify mirror)
			)
		)
		(property "Footprint" "Button_Switch_THT:SW_PUSH_6mm_H4.3mm"
			(at 0 0 180)
			(unlocked yes)
			(layer "B.Fab")
			(hide yes)
			(uuid "89d28a9b-5612-4db2-9398-0179bdc8c91d")
			(effects
				(font
					(size 1.27 1.27)
					(thickness 0.15)
				)
				(justify mirror)
			)
		)
		(property "Datasheet" ""
			(at 0 0 180)
			(unlocked yes)
			(layer "B.Fab")
			(hide yes)
			(uuid "3ad9d200-8229-4894-a195-d60e511c6d0d")
			(effects
				(font
					(size 1.27 1.27)
					(thickness 0.15)
				)
				(justify mirror)
			)
		)
		(property "Description" ""
			(at 0 0 180)
			(unlocked yes)
			(layer "B.Fab")
			(hide yes)
			(uuid "87fda586-176c-4ccf-b385-d4fbc8efe736")
			(effects
				(font
					(size 1.27 1.27)
					(thickness 0.15)
				)
				(justify mirror)
			)
		)
		(path "/00000000-0000-0000-0000-000061355599")
		(sheetname "Raíz")
		(sheetfile "M2.kicad_sch")
		(attr through_hole)
		(fp_line
			(start -0.25 -3)
			(end -0.25 -1.5)
			(stroke
				(width 0.12)
				(type solid)
			)
			(layer "B.SilkS")
			(uuid "ec725041-15db-4e4f-a64e-aee203c48b60")
		)
		(fp_line
			(start 1 1)
			(end 5.5 1)
			(stroke
				(width 0.12)
				(type solid)
			)
			(layer "B.SilkS")
			(uuid "e4a20e0d-953b-4685-9bd2-d550aa403c43")
		)
		(fp_line
			(start 5.5 -5.5)
			(end 1 -5.5)
			(stroke
				(width 0.12)
				(type solid)
			)
			(layer "B.SilkS")
			(uuid "c26a9819-a658-4a31-aeef-1a2a862b5368")
		)
		(fp_line
			(start 6.75 -1.5)
			(end 6.75 -3)
			(stroke
				(width 0.12)
				(type solid)
			)
			(layer "B.SilkS")
			(uuid "ce482ade-8eec-4451-9de3-7d156509c576")
		)
		(fp_line
			(start -1.5 -6)
			(end -1.5 -5.75)
			(stroke
				(width 0.05)
				(type solid)
			)
			(layer "B.CrtYd")
			(uuid "3a56750a-0c06-479f-920b-9335506fc5da")
		)
		(fp_line
			(start -1.5 1.25)
			(end -1.5 -5.75)
			(stroke
				(width 0.05)
				(type solid)
			)
			(layer "B.CrtYd")
			(uuid "a20a204d-b676-4ba3-9b62-df96475e45c4")
		)
		(fp_line
			(start -1.5 1.5)
			(end -1.5 1.25)
			(stroke
				(width 0.05)
				(type solid)
			)
			(layer "B.CrtYd")
			(uuid "17ae0e4d-69f4-4cfe-b4ec-b20a76de880d")
		)
		(fp_line
			(start -1.25 -6)
			(end -1.5 -6)
			(stroke
				(width 0.05)
				(type solid)
			)
			(layer "B.CrtYd")
			(uuid "28cac9ae-9900-4645-a95d-02fa8d06c8be")
		)
		(fp_line
			(start -1.25 -6)
			(end 7.75 -6)
			(stroke
				(width 0.05)
				(type solid)
			)
			(layer "B.CrtYd")
			(uuid "ad6b3f62-7e26-4cbb-b332-1915f5b26855")
		)
		(fp_line
			(start -1.25 1.5)
			(end -1.5 1.5)
			(stroke
				(width 0.05)
				(type solid)
			)
			(layer "B.CrtYd")
			(uuid "0c55d003-1476-4d99-a2dc-792de9a88eb8")
		)
		(fp_line
			(start 7.75 1.5)
			(end -1.25 1.5)
			(stroke
				(width 0.05)
				(type solid)
			)
			(layer "B.CrtYd")
			(uuid "acbe7903-f9d1-4784-88a0-9b263bb6c25c")
		)
		(fp_line
			(start 8 -6)
			(end 7.75 -6)
			(stroke
				(width 0.05)
				(type solid)
			)
			(layer "B.CrtYd")
			(uuid "57295450-f122-4a48-9d2d-57d58c4b6a5c")
		)
		(fp_line
			(start 8 -5.75)
			(end 8 -6)
			(stroke
				(width 0.05)
				(type solid)
			)
			(layer "B.CrtYd")
			(uuid "f753aa52-b81c-45c0-8a59-c0ef3d4bffb1")
		)
		(fp_line
			(start 8 -5.75)
			(end 8 1.25)
			(stroke
				(width 0.05)
				(type solid)
			)
			(layer "B.CrtYd")
			(uuid "aadaca6c-886f-47e0-a344-b7512a1fbca2")
		)
		(fp_line
			(start 8 1.25)
			(end 8 1.5)
			(stroke
				(width 0.05)
				(type solid)
			)
			(layer "B.CrtYd")
			(uuid "01b82888-9bdf-4237-adc4-8a7f5da285b8")
		)
		(fp_line
			(start 8 1.5)
			(end 7.75 1.5)
			(stroke
				(width 0.05)
				(type solid)
			)
			(layer "B.CrtYd")
			(uuid "29566d8c-2cec-4bc4-ac49-27b27a0cae22")
		)
		(fp_line
			(start 0.25 -5.25)
			(end 6.25 -5.25)
			(stroke
				(width 0.1)
				(type solid)
			)
			(layer "B.Fab")
			(uuid "cd8b0461-4df4-4796-af2a-f5e1f946b20b")
		)
		(fp_line
			(start 0.25 0.75)
			(end 0.25 -5.25)
			(stroke
				(width 0.1)
				(type solid)
			)
			(layer "B.Fab")
			(uuid "4200c289-ec50-44c9-8194-c7c94a384f42")
		)
		(fp_line
			(start 3.25 0.75)
			(end 0.25 0.75)
			(stroke
				(width 0.1)
				(type solid)
			)
			(layer "B.Fab")
			(uuid "dcb01675-c8eb-41b6-853e-8cf26ca69d1d")
		)
		(fp_line
			(start 6.25 -5.25)
			(end 6.25 0.75)
			(stroke
				(width 0.1)
				(type solid)
			)
			(layer "B.Fab")
			(uuid "e364733e-4e49-4ffb-9006-0008b41fe234")
		)
		(fp_line
			(start 6.25 0.75)
			(end 3.25 0.75)
			(stroke
				(width 0.1)
				(type solid)
			)
			(layer "B.Fab")
			(uuid "03350bbc-4777-4bae-a439-e5264b861d3e")
		)
		(fp_circle
			(center 3.25 -2.25)
			(end 1.25 -2.5)
			(stroke
				(width 0.1)
				(type solid)
			)
			(fill none)
			(layer "B.Fab")
			(uuid "3af1e4c8-7c49-4064-8ebe-215732791e13")
		)
		(fp_text user "${REFERENCE}"
			(at 3.25 -2.25 0)
			(layer "B.Fab")
			(uuid "ccd4810b-8797-4ddd-906c-d9b77fc667ad")
			(effects
				(font
					(size 1 1)
					(thickness 0.15)
				)
				(justify mirror)
			)
		)
		(pad "1" thru_hole circle
			(at 0 0 270)
			(size 3 3)
			(drill 1)
			(layers "*.Cu" "*.Mask")
			(remove_unused_layers no)
			(net 1 "Net-(J1-Pin_1)")
			(pinfunction "1")
			(pintype "passive")
			(uuid "29240e9c-c964-4ca1-a1e1-2b15dd128334")
		)
		(pad "1" thru_hole circle
			(at 6.5 0 270)
			(size 3 3)
			(drill 1)
			(layers "*.Cu" "*.Mask")
			(remove_unused_layers no)
			(net 1 "Net-(J1-Pin_1)")
			(pinfunction "1")
			(pintype "passive")
			(uuid "747cbf7d-7660-4214-bc1b-2a3a05e3ee13")
		)
		(pad "2" thru_hole circle
			(at 0 -4.5 270)
			(size 3 3)
			(drill 1)
			(layers "*.Cu" "*.Mask")
			(remove_unused_layers no)
			(net 3 "Net-(J1-Pin_4)")
			(pinfunction "2")
			(pintype "passive")
			(uuid "9317479c-a0b5-4f01-a72e-4a2e17e90586")
		)
		(pad "2" thru_hole circle
			(at 6.5 -4.5 270)
			(size 3 3)
			(drill 1)
			(layers "*.Cu" "*.Mask")
			(remove_unused_layers no)
			(net 3 "Net-(J1-Pin_4)")
			(pinfunction "2")
			(pintype "passive")
			(uuid "55a145b9-e1dd-4c0d-8c9c-495c421a4cba")
		)
		(model "${KISYS3DMOD}/Button_Switch_THT.3dshapes/SW_PUSH_6mm_H4.3mm.wrl"
			(offset
				(xyz 0 0 0)
			)
			(scale
				(xyz 1 1 1)
			)
			(rotate
				(xyz 0 0 0)
			)
		)
		(model "/home/francisco/Kicad lib/kicad-packages3D/Button_Switch_THT.3dshapes/SW_PUSH_6mm_H4.3mm.wrl"
			(offset
				(xyz 0 0 0)
			)
			(scale
				(xyz 1 1 1)
			)
			(rotate
				(xyz 0 0 0)
			)
		)
	)
	(footprint "Button_Switch_THT:SW_PUSH_6mm_H4.3mm"
		(layer "B.Cu")
		(uuid "27ed199c-f87b-463e-9052-5283a54f84b4")
		(at 152.25 62.75 180)
		(descr "tactile push button, 6x6mm e.g. PHAP33xx series, height=4.3mm")
		(tags "tact sw push 6mm")
		(property "Reference" "BACK1"
			(at 3.25 2 180)
			(layer "B.SilkS")
			(uuid "aa070688-3f37-49ef-b7b0-db037543d234")
			(effects
				(font
					(size 1 1)
					(thickness 0.15)
				)
				(justify mirror)
			)
		)
		(property "Value" "SW_Push"
			(at 3.75 -6.7 180)
			(layer "B.Fab")
			(uuid "1f3bdf1e-56e4-4993-a069-c2f8c08ed5c0")
			(effects
				(font
					(size 1 1)
					(thickness 0.15)
				)
				(justify mirror)
			)
		)
		(property "Footprint" "Button_Switch_THT:SW_PUSH_6mm_H4.3mm"
			(at 0 0 0)
			(unlocked yes)
			(layer "B.Fab")
			(hide yes)
			(uuid "c3783f24-bd92-4515-b84a-779e6072166e")
			(effects
				(font
					(size 1.27 1.27)
					(thickness 0.15)
				)
				(justify mirror)
			)
		)
		(property "Datasheet" ""
			(at 0 0 0)
			(unlocked yes)
			(layer "B.Fab")
			(hide yes)
			(uuid "755ce6ce-5787-4767-a983-5611d429a0d7")
			(effects
				(font
					(size 1.27 1.27)
					(thickness 0.15)
				)
				(justify mirror)
			)
		)
		(property "Description" ""
			(at 0 0 0)
			(unlocked yes)
			(layer "B.Fab")
			(hide yes)
			(uuid "b0a5dc7a-928b-4a8f-aed6-0d313109c40a")
			(effects
				(font
					(size 1.27 1.27)
					(thickness 0.15)
				)
				(justify mirror)
			)
		)
		(path "/00000000-0000-0000-0000-00006135927b")
		(sheetname "Raíz")
		(sheetfile "M2.kicad_sch")
		(attr through_hole)
		(fp_line
			(start 6.75 -1.5)
			(end 6.75 -3)
			(stroke
				(width 0.12)
				(type solid)
			)
			(layer "B.SilkS")
			(uuid "e97d212f-d894-4099-91f6-6b342396cdca")
		)
		(fp_line
			(start 5.5 -5.5)
			(end 1 -5.5)
			(stroke
				(width 0.12)
				(type solid)
			)
			(layer "B.SilkS")
			(uuid "78200dd9-cbbe-4251-8981-8a9730f2e3a9")
		)
		(fp_line
			(start 1 1)
			(end 5.5 1)
			(stroke
				(width 0.12)
				(type solid)
			)
			(layer "B.SilkS")
			(uuid "534cf3a9-7246-4013-85cd-a66ec6583f87")
		)
		(fp_line
			(start -0.25 -3)
			(end -0.25 -1.5)
			(stroke
				(width 0.12)
				(type solid)
			)
			(layer "B.SilkS")
			(uuid "340ca60a-24f0-4159-94ff-224ac8ec980d")
		)
		(fp_line
			(start 8 1.5)
			(end 7.75 1.5)
			(stroke
				(width 0.05)
				(type solid)
			)
			(layer "B.CrtYd")
			(uuid "13375371-f184-4b79-b647-e29e0dc1e2f4")
		)
		(fp_line
			(start 8 1.25)
			(end 8 1.5)
			(stroke
				(width 0.05)
				(type solid)
			)
			(layer "B.CrtYd")
			(uuid "9dea0653-ed2d-4141-b718-b4adbcac3913")
		)
		(fp_line
			(start 8 -5.75)
			(end 8 1.25)
			(stroke
				(width 0.05)
				(type solid)
			)
			(layer "B.CrtYd")
			(uuid "ec0bf0c4-b7fc-40c5-a6e4-e8cbd0406274")
		)
		(fp_line
			(start 8 -5.75)
			(end 8 -6)
			(stroke
				(width 0.05)
				(type solid)
			)
			(layer "B.CrtYd")
			(uuid "0fa7fac1-3392-445c-8eb0-79d412d5ef8c")
		)
		(fp_line
			(start 8 -6)
			(end 7.75 -6)
			(stroke
				(width 0.05)
				(type solid)
			)
			(layer "B.CrtYd")
			(uuid "d2148082-fe36-4523-8bad-d0712ca4a63c")
		)
		(fp_line
			(start 7.75 1.5)
			(end -1.25 1.5)
			(stroke
				(width 0.05)
				(type solid)
			)
			(layer "B.CrtYd")
			(uuid "257349e4-9a7d-4fc7-bfc0-3f095e534d0e")
		)
		(fp_line
			(start -1.25 1.5)
			(end -1.5 1.5)
			(stroke
				(width 0.05)
				(type solid)
			)
			(layer "B.CrtYd")
			(uuid "b42678fe-5a87-4efa-8211-6edef2d1003c")
		)
		(fp_line
			(start -1.25 -6)
			(end 7.75 -6)
			(stroke
				(width 0.05)
				(type solid)
			)
			(layer "B.CrtYd")
			(uuid "e0999aa2-21b8-4c03-af23-af8e0ddb718c")
		)
		(fp_line
			(start -1.25 -6)
			(end -1.5 -6)
			(stroke
				(width 0.05)
				(type solid)
			)
			(layer "B.CrtYd")
			(uuid "c09a6994-b73a-4d71-96ad-16f18ef4c5cc")
		)
		(fp_line
			(start -1.5 1.5)
			(end -1.5 1.25)
			(stroke
				(width 0.05)
				(type solid)
			)
			(layer "B.CrtYd")
			(uuid "f404e40a-8e9c-4b62-a7e2-004911c1dcd8")
		)
		(fp_line
			(start -1.5 1.25)
			(end -1.5 -5.75)
			(stroke
				(width 0.05)
				(type solid)
			)
			(layer "B.CrtYd")
			(uuid "3c764429-dca2-420a-99c2-d6a30b3d9638")
		)
		(fp_line
			(start -1.5 -6)
			(end -1.5 -5.75)
			(stroke
				(width 0.05)
				(type solid)
			)
			(layer "B.CrtYd")
			(uuid "09f7d48e-c0b3-4240-8750-297d3dfdc441")
		)
		(fp_line
			(start 6.25 0.75)
			(end 3.25 0.75)
			(stroke
				(width 0.1)
				(type solid)
			)
			(layer "B.Fab")
			(uuid "572d45bb-b421-4cb9-b57b-af3133abad74")
		)
		(fp_line
			(start 6.25 -5.25)
			(end 6.25 0.75)
			(stroke
				(width 0.1)
				(type solid)
			)
			(layer "B.Fab")
			(uuid "d9900b7b-ce42-4a65-b132-9d3cd71e5aea")
		)
		(fp_line
			(start 3.25 0.75)
			(end 0.25 0.75)
			(stroke
				(width 0.1)
				(type solid)
			)
			(layer "B.Fab")
			(uuid "0af289f8-0ab0-4cd7-b856-6493131c5c99")
		)
		(fp_line
			(start 0.25 0.75)
			(end 0.25 -5.25)
			(stroke
				(width 0.1)
				(type solid)
			)
			(layer "B.Fab")
			(uuid "3b50660b-ceee-4571-b77f-074a25dcef79")
		)
		(fp_line
			(start 0.25 -5.25)
			(end 6.25 -5.25)
			(stroke
				(width 0.1)
				(type solid)
			)
			(layer "B.Fab")
			(uuid "d6e80f75-6317-493a-94b8-0054b3e6c49e")
		)
		(fp_circle
			(center 3.25 -2.25)
			(end 1.25 -2.5)
			(stroke
				(width 0.1)
				(type solid)
			)
			(fill none)
			(layer "B.Fab")
			(uuid "0ea7bb0d-4be5-4688-bf57-90913264bc19")
		)
		(fp_text user "${REFERENCE}"
			(at 3.25 -2.25 180)
			(layer "B.Fab")
			(uuid "167efba9-96ae-4a9b-a5ce-f06053d843d1")
			(effects
				(font
					(size 1 1)
					(thickness 0.15)
				)
				(justify mirror)
			)
		)
		(pad "1" thru_hole circle
			(at 0 0 90)
			(size 3 3)
			(drill 1)
			(layers "*.Cu" "*.Mask")
			(remove_unused_layers no)
			(net 1 "Net-(J1-Pin_1)")
			(pinfunction "1")
			(pintype "passive")
			(uuid "56985e68-5063-4b92-aaed-098830d2e09a")
		)
		(pad "1" thru_hole circle
			(at 6.5 0 90)
			(size 3 3)
			(drill 1)
			(layers "*.Cu" "*.Mask")
			(remove_unused_layers no)
			(net 1 "Net-(J1-Pin_1)")
			(pinfunction "1")
			(pintype "passive")
			(uuid "3b4fca33-62d4-470a-a94b-946ffee569af")
		)
		(pad "2" thru_hole circle
			(at 0 -4.5 90)
			(size 3 3)
			(drill 1)
			(layers "*.Cu" "*.Mask")
			(remove_unused_layers no)
			(net 2 "Net-(J1-Pin_3)")
			(pinfunction "2")
			(pintype "passive")
			(uuid "64baf2ad-3b82-41da-8ad5-4e7c20aff631")
		)
		(pad "2" thru_hole circle
			(at 6.5 -4.5 90)
			(size 3 3)
			(drill 1)
			(layers "*.Cu" "*.Mask")
			(remove_unused_layers no)
			(net 2 "Net-(J1-Pin_3)")
			(pinfunction "2")
			(pintype "passive")
			(uuid "e053fc50-88bc-4d79-92f7-e33dc8e9608a")
		)
		(model "${KISYS3DMOD}/Button_Switch_THT.3dshapes/SW_PUSH_6mm_H4.3mm.wrl"
			(offset
				(xyz 0 0 0)
			)
			(scale
				(xyz 1 1 1)
			)
			(rotate
				(xyz 0 0 0)
			)
		)
		(model "/home/francisco/Kicad lib/kicad-packages3D/Button_Switch_THT.3dshapes/SW_PUSH_6mm_H4.3mm.wrl"
			(offset
				(xyz 0 0 0)
			)
			(scale
				(xyz 1 1 1)
			)
			(rotate
				(xyz 0 0 0)
			)
		)
	)
	(footprint "Button_Switch_THT:SW_PUSH_6mm_H4.3mm"
		(layer "B.Cu")
		(uuid "4188dc2d-7050-458b-b23a-3fda7e111e59")
		(at 68.5 67.25)
		(descr "tactile push button, 6x6mm e.g. PHAP33xx series, height=4.3mm")
		(tags "tact sw push 6mm")
		(property "Reference" "RIGHT1"
			(at 3.25 2 0)
			(layer "B.SilkS")
			(uuid "324e6cb7-e537-4201-97ba-30107b78d9d9")
			(effects
				(font
					(size 1 1)
					(thickness 0.15)
				)
				(justify mirror)
			)
		)
		(property "Value" "SW_Push"
			(at 3.75 -6.7 0)
			(layer "B.Fab")
			(uuid "e1d49338-c14d-4107-9e6b-02290293ff57")
			(effects
				(font
					(size 1 1)
					(thickness 0.15)
				)
				(justify mirror)
			)
		)
		(property "Footprint" "Button_Switch_THT:SW_PUSH_6mm_H4.3mm"
			(at 0 0 180)
			(unlocked yes)
			(layer "B.Fab")
			(hide yes)
			(uuid "108bc3c8-5d46-466c-9686-57d1b062f9fe")
			(effects
				(font
					(size 1.27 1.27)
					(thickness 0.15)
				)
				(justify mirror)
			)
		)
		(property "Datasheet" ""
			(at 0 0 180)
			(unlocked yes)
			(layer "B.Fab")
			(hide yes)
			(uuid "9729e092-86ba-4973-ac1d-4c88df273d72")
			(effects
				(font
					(size 1.27 1.27)
					(thickness 0.15)
				)
				(justify mirror)
			)
		)
		(property "Description" ""
			(at 0 0 180)
			(unlocked yes)
			(layer "B.Fab")
			(hide yes)
			(uuid "2bdc5e6e-8648-4022-8f61-4195460a5371")
			(effects
				(font
					(size 1.27 1.27)
					(thickness 0.15)
				)
				(justify mirror)
			)
		)
		(path "/00000000-0000-0000-0000-00006135ac5b")
		(sheetname "Raíz")
		(sheetfile "M2.kicad_sch")
		(attr through_hole)
		(fp_line
			(start -0.25 -3)
			(end -0.25 -1.5)
			(stroke
				(width 0.12)
				(type solid)
			)
			(layer "B.SilkS")
			(uuid "0fe77194-04d7-4893-9499-121b8c918b85")
		)
		(fp_line
			(start 1 1)
			(end 5.5 1)
			(stroke
				(width 0.12)
				(type solid)
			)
			(layer "B.SilkS")
			(uuid "d127b0d4-b33a-4ecb-bfc2-7e59cda6915a")
		)
		(fp_line
			(start 5.5 -5.5)
			(end 1 -5.5)
			(stroke
				(width 0.12)
				(type solid)
			)
			(layer "B.SilkS")
			(uuid "6bfb5934-cb5a-484d-9d18-76952456e7d4")
		)
		(fp_line
			(start 6.75 -1.5)
			(end 6.75 -3)
			(stroke
				(width 0.12)
				(type solid)
			)
			(layer "B.SilkS")
			(uuid "86373eb2-7e35-4a47-9ea6-63782b177fba")
		)
		(fp_line
			(start -1.5 -6)
			(end -1.5 -5.75)
			(stroke
				(width 0.05)
				(type solid)
			)
			(layer "B.CrtYd")
			(uuid "6149bc3d-018e-4fd2-b21c-df043315ad77")
		)
		(fp_line
			(start -1.5 1.25)
			(end -1.5 -5.75)
			(stroke
				(width 0.05)
				(type solid)
			)
			(layer "B.CrtYd")
			(uuid "abfa4697-653e-41ec-9c26-59e07fd8707d")
		)
		(fp_line
			(start -1.5 1.5)
			(end -1.5 1.25)
			(stroke
				(width 0.05)
				(type solid)
			)
			(layer "B.CrtYd")
			(uuid "ce5aa61e-cfa9-43db-89bb-60edef04c74d")
		)
		(fp_line
			(start -1.25 -6)
			(end -1.5 -6)
			(stroke
				(width 0.05)
				(type solid)
			)
			(layer "B.CrtYd")
			(uuid "40b6cd80-258b-4403-88d9-ae23209b87e1")
		)
		(fp_line
			(start -1.25 -6)
			(end 7.75 -6)
			(stroke
				(width 0.05)
				(type solid)
			)
			(layer "B.CrtYd")
			(uuid "db09ab46-7725-49be-9ca4-e9c26b7e2501")
		)
		(fp_line
			(start -1.25 1.5)
			(end -1.5 1.5)
			(stroke
				(width 0.05)
				(type solid)
			)
			(layer "B.CrtYd")
			(uuid "e9145aff-8f2f-4e51-ad7b-563e28c13e5e")
		)
		(fp_line
			(start 7.75 1.5)
			(end -1.25 1.5)
			(stroke
				(width 0.05)
				(type solid)
			)
			(layer "B.CrtYd")
			(uuid "8a63c738-9b95-4afe-937c-87695c64a12a")
		)
		(fp_line
			(start 8 -6)
			(end 7.75 -6)
			(stroke
				(width 0.05)
				(type solid)
			)
			(layer "B.CrtYd")
			(uuid "bc6c68d7-58c4-4a9b-8116-498a533c200e")
		)
		(fp_line
			(start 8 -5.75)
			(end 8 -6)
			(stroke
				(width 0.05)
				(type solid)
			)
			(layer "B.CrtYd")
			(uuid "24e55412-fb75-46d8-9cea-5dccd68336bd")
		)
		(fp_line
			(start 8 -5.75)
			(end 8 1.25)
			(stroke
				(width 0.05)
				(type solid)
			)
			(layer "B.CrtYd")
			(uuid "627ae8df-f980-413a-9615-aa35c947ce1d")
		)
		(fp_line
			(start 8 1.25)
			(end 8 1.5)
			(stroke
				(width 0.05)
				(type solid)
			)
			(layer "B.CrtYd")
			(uuid "b1240b37-8c3e-4f51-a074-cce024c9e8bb")
		)
		(fp_line
			(start 8 1.5)
			(end 7.75 1.5)
			(stroke
				(width 0.05)
				(type solid)
			)
			(layer "B.CrtYd")
			(uuid "f9c18e3f-782c-4f88-94b6-81be60500b3b")
		)
		(fp_line
			(start 0.25 -5.25)
			(end 6.25 -5.25)
			(stroke
				(width 0.1)
				(type solid)
			)
			(layer "B.Fab")
			(uuid "86492636-06a6-41f4-ad94-4733a9b468f1")
		)
		(fp_line
			(start 0.25 0.75)
			(end 0.25 -5.25)
			(stroke
				(width 0.1)
				(type solid)
			)
			(layer "B.Fab")
			(uuid "ab52d5f2-bc1a-47e5-a63b-167a7ab5ac69")
		)
		(fp_line
			(start 3.25 0.75)
			(end 0.25 0.75)
			(stroke
				(width 0.1)
				(type solid)
			)
			(layer "B.Fab")
			(uuid "9307aac7-6ca8-40e2-b069-6a1ee29a4229")
		)
		(fp_line
			(start 6.25 -5.25)
			(end 6.25 0.75)
			(stroke
				(width 0.1)
				(type solid)
			)
			(layer "B.Fab")
			(uuid "ce850f1a-eaa9-4fec-a956-823dd884015f")
		)
		(fp_line
			(start 6.25 0.75)
			(end 3.25 0.75)
			(stroke
				(width 0.1)
				(type solid)
			)
			(layer "B.Fab")
			(uuid "c3107771-fa21-4669-8923-1e76fce05aee")
		)
		(fp_circle
			(center 3.25 -2.25)
			(end 1.25 -2.5)
			(stroke
				(width 0.1)
				(type solid)
			)
			(fill none)
			(layer "B.Fab")
			(uuid "43cec218-5b56-484a-a38a-7fc53fd342bb")
		)
		(fp_text user "${REFERENCE}"
			(at 3.25 -2.25 0)
			(layer "B.Fab")
			(uuid "9ab4e43d-beba-45f2-8957-d0436c911a55")
			(effects
				(font
					(size 1 1)
					(thickness 0.15)
				)
				(justify mirror)
			)
		)
		(pad "1" thru_hole circle
			(at 0 0 270)
			(size 3 3)
			(drill 1)
			(layers "*.Cu" "*.Mask")
			(remove_unused_layers no)
			(net 4 "Net-(J1-Pin_2)")
			(pinfunction "1")
			(pintype "passive")
			(uuid "15490133-b975-4433-9d20-c53dc1548a0c")
		)
		(pad "1" thru_hole circle
			(at 6.5 0 270)
			(size 3 3)
			(drill 1)
			(layers "*.Cu" "*.Mask")
			(remove_unused_layers no)
			(net 4 "Net-(J1-Pin_2)")
			(pinfunction "1")
			(pintype "passive")
			(uuid "d1d5a58a-c4ba-4a9a-bb13-96de0ccc5fcc")
		)
		(pad "2" thru_hole circle
			(at 0 -4.5 270)
			(size 3 3)
			(drill 1)
			(layers "*.Cu" "*.Mask")
			(remove_unused_layers no)
			(net 5 "Net-(J1-Pin_5)")
			(pinfunction "2")
			(pintype "passive")
			(uuid "954f438a-e089-47a9-9462-b23b9b0e61fe")
		)
		(pad "2" thru_hole circle
			(at 6.5 -4.5 270)
			(size 3 3)
			(drill 1)
			(layers "*.Cu" "*.Mask")
			(remove_unused_layers no)
			(net 5 "Net-(J1-Pin_5)")
			(pinfunction "2")
			(pintype "passive")
			(uuid "362fd800-13e3-4576-940d-172f31b7ec0c")
		)
		(model "${KISYS3DMOD}/Button_Switch_THT.3dshapes/SW_PUSH_6mm_H4.3mm.wrl"
			(offset
				(xyz 0 0 0)
			)
			(scale
				(xyz 1 1 1)
			)
			(rotate
				(xyz 0 0 0)
			)
		)
		(model "/home/francisco/Kicad lib/kicad-packages3D/Button_Switch_THT.3dshapes/SW_PUSH_6mm_H4.3mm.wrl"
			(offset
				(xyz 0 0 0)
			)
			(scale
				(xyz 1 1 1)
			)
			(rotate
				(xyz 0 0 0)
			)
		)
	)
	(footprint "Button_Switch_THT:SW_PUSH_6mm_H4.3mm"
		(layer "B.Cu")
		(uuid "4332a775-e930-4cb8-aaed-338d29b32c01")
		(at 132.75 67.25)
		(descr "tactile push button, 6x6mm e.g. PHAP33xx series, height=4.3mm")
		(tags "tact sw push 6mm")
		(property "Reference" "DOWN1"
			(at 3.25 2 0)
			(layer "B.SilkS")
			(uuid "166b2791-4d80-497a-a8ad-e252b1809b88")
			(effects
				(font
					(size 1 1)
					(thickness 0.15)
				)
				(justify mirror)
			)
		)
		(property "Value" "SW_Push"
			(at 3.75 -6.7 0)
			(layer "B.Fab")
			(uuid "1e2fe0aa-fdcc-4aee-8348-7e1e5acf3437")
			(effects
				(font
					(size 1 1)
					(thickness 0.15)
				)
				(justify mirror)
			)
		)
		(property "Footprint" "Button_Switch_THT:SW_PUSH_6mm_H4.3mm"
			(at 0 0 180)
			(unlocked yes)
			(layer "B.Fab")
			(hide yes)
			(uuid "d738a3bb-596a-4d16-a959-cdfd3b34b5ed")
			(effects
				(font
					(size 1.27 1.27)
					(thickness 0.15)
				)
				(justify mirror)
			)
		)
		(property "Datasheet" ""
			(at 0 0 180)
			(unlocked yes)
			(layer "B.Fab")
			(hide yes)
			(uuid "52738f69-c31d-4c81-84d6-368f5d3ba268")
			(effects
				(font
					(size 1.27 1.27)
					(thickness 0.15)
				)
				(justify mirror)
			)
		)
		(property "Description" ""
			(at 0 0 180)
			(unlocked yes)
			(layer "B.Fab")
			(hide yes)
			(uuid "a383f162-31a4-40a7-b515-e4ea05d7163a")
			(effects
				(font
					(size 1.27 1.27)
					(thickness 0.15)
				)
				(justify mirror)
			)
		)
		(path "/00000000-0000-0000-0000-00006135a671")
		(sheetname "Raíz")
		(sheetfile "M2.kicad_sch")
		(attr through_hole)
		(fp_line
			(start -0.25 -3)
			(end -0.25 -1.5)
			(stroke
				(width 0.12)
				(type solid)
			)
			(layer "B.SilkS")
			(uuid "9aac08ae-b7b8-429f-81d9-2cea839cfb6c")
		)
		(fp_line
			(start 1 1)
			(end 5.5 1)
			(stroke
				(width 0.12)
				(type solid)
			)
			(layer "B.SilkS")
			(uuid "14ba7979-8071-43eb-ab59-81ab35d3fa59")
		)
		(fp_line
			(start 5.5 -5.5)
			(end 1 -5.5)
			(stroke
				(width 0.12)
				(type solid)
			)
			(layer "B.SilkS")
			(uuid "c1540331-bd8b-4225-bb87-fa3617769836")
		)
		(fp_line
			(start 6.75 -1.5)
			(end 6.75 -3)
			(stroke
				(width 0.12)
				(type solid)
			)
			(layer "B.SilkS")
			(uuid "c500c64b-18f1-470d-a424-c0b9b0201378")
		)
		(fp_line
			(start -1.5 -6)
			(end -1.5 -5.75)
			(stroke
				(width 0.05)
				(type solid)
			)
			(layer "B.CrtYd")
			(uuid "41d124f2-6a27-4257-b48f-ad6143939605")
		)
		(fp_line
			(start -1.5 1.25)
			(end -1.5 -5.75)
			(stroke
				(width 0.05)
				(type solid)
			)
			(layer "B.CrtYd")
			(uuid "59df2425-95a3-4cb2-aa8e-ce397a22d8a3")
		)
		(fp_line
			(start -1.5 1.5)
			(end -1.5 1.25)
			(stroke
				(width 0.05)
				(type solid)
			)
			(layer "B.CrtYd")
			(uuid "4e0a90b6-0286-4e29-9799-58b48a9f40fa")
		)
		(fp_line
			(start -1.25 -6)
			(end -1.5 -6)
			(stroke
				(width 0.05)
				(type solid)
			)
			(layer "B.CrtYd")
			(uuid "b8601884-0743-4494-bd5f-a8ca8d9715af")
		)
		(fp_line
			(start -1.25 -6)
			(end 7.75 -6)
			(stroke
				(width 0.05)
				(type solid)
			)
			(layer "B.CrtYd")
			(uuid "dcc1d8ba-964a-4349-89c6-b38200b58c14")
		)
		(fp_line
			(start -1.25 1.5)
			(end -1.5 1.5)
			(stroke
				(width 0.05)
				(type solid)
			)
			(layer "B.CrtYd")
			(uuid "6426076a-0c76-4779-92ff-8f825c0a3967")
		)
		(fp_line
			(start 7.75 1.5)
			(end -1.25 1.5)
			(stroke
				(width 0.05)
				(type solid)
			)
			(layer "B.CrtYd")
			(uuid "9a26c90e-70f8-4b91-b707-a2df8e9caf2d")
		)
		(fp_line
			(start 8 -6)
			(end 7.75 -6)
			(stroke
				(width 0.05)
				(type solid)
			)
			(layer "B.CrtYd")
			(uuid "06d5669e-43d6-4cf0-8c80-21d6d96d1727")
		)
		(fp_line
			(start 8 -5.75)
			(end 8 -6)
			(stroke
				(width 0.05)
				(type solid)
			)
			(layer "B.CrtYd")
			(uuid "658ccc5c-0463-4dad-80b2-b44c17ff4ea3")
		)
		(fp_line
			(start 8 -5.75)
			(end 8 1.25)
			(stroke
				(width 0.05)
				(type solid)
			)
			(layer "B.CrtYd")
			(uuid "567f0bf3-5b87-434f-9893-fc3139b6ff92")
		)
		(fp_line
			(start 8 1.25)
			(end 8 1.5)
			(stroke
				(width 0.05)
				(type solid)
			)
			(layer "B.CrtYd")
			(uuid "c45d8e39-37d5-405d-9f51-4ed7d8a780cf")
		)
		(fp_line
			(start 8 1.5)
			(end 7.75 1.5)
			(stroke
				(width 0.05)
				(type solid)
			)
			(layer "B.CrtYd")
			(uuid "df2db640-3a9c-403c-a833-b6fe7921cc64")
		)
		(fp_line
			(start 0.25 -5.25)
			(end 6.25 -5.25)
			(stroke
				(width 0.1)
				(type solid)
			)
			(layer "B.Fab")
			(uuid "9f497819-db9d-4b3c-8595-3da206cf3d00")
		)
		(fp_line
			(start 0.25 0.75)
			(end 0.25 -5.25)
			(stroke
				(width 0.1)
				(type solid)
			)
			(layer "B.Fab")
			(uuid "f25b0355-6423-422f-937a-932a22705114")
		)
		(fp_line
			(start 3.25 0.75)
			(end 0.25 0.75)
			(stroke
				(width 0.1)
				(type solid)
			)
			(layer "B.Fab")
			(uuid "c0fd9b25-6218-4250-9166-f989c7c5e34e")
		)
		(fp_line
			(start 6.25 -5.25)
			(end 6.25 0.75)
			(stroke
				(width 0.1)
				(type solid)
			)
			(layer "B.Fab")
			(uuid "12e6dfde-3dcf-41da-877f-e7b430fb54ef")
		)
		(fp_line
			(start 6.25 0.75)
			(end 3.25 0.75)
			(stroke
				(width 0.1)
				(type solid)
			)
			(layer "B.Fab")
			(uuid "03d27823-e8ae-4e0a-8d06-3c8a667eb6e7")
		)
		(fp_circle
			(center 3.25 -2.25)
			(end 1.25 -2.5)
			(stroke
				(width 0.1)
				(type solid)
			)
			(fill none)
			(layer "B.Fab")
			(uuid "7478c980-348f-450e-a2f0-bf828c8f546e")
		)
		(fp_text user "${REFERENCE}"
			(at 3.25 -2.25 0)
			(layer "B.Fab")
			(uuid "87f0d20d-2512-48df-80a7-40fb982d6a5a")
			(effects
				(font
					(size 1 1)
					(thickness 0.15)
				)
				(justify mirror)
			)
		)
		(pad "1" thru_hole circle
			(at 0 0 270)
			(size 3 3)
			(drill 1)
			(layers "*.Cu" "*.Mask")
			(remove_unused_layers no)
			(net 4 "Net-(J1-Pin_2)")
			(pinfunction "1")
			(pintype "passive")
			(uuid "e76178ef-edaf-49a8-b0ca-48d9faee800d")
		)
		(pad "1" thru_hole circle
			(at 6.5 0 270)
			(size 3 3)
			(drill 1)
			(layers "*.Cu" "*.Mask")
			(remove_unused_layers no)
			(net 4 "Net-(J1-Pin_2)")
			(pinfunction "1")
			(pintype "passive")
			(uuid "9579e3ec-62b9-40dd-9b1e-27c66587073a")
		)
		(pad "2" thru_hole circle
			(at 0 -4.5 270)
			(size 3 3)
			(drill 1)
			(layers "*.Cu" "*.Mask")
			(remove_unused_layers no)
			(net 3 "Net-(J1-Pin_4)")
			(pinfunction "2")
			(pintype "passive")
			(uuid "5b682d0f-6654-4b31-aa83-2174f4e418b2")
		)
		(pad "2" thru_hole circle
			(at 6.5 -4.5 270)
			(size 3 3)
			(drill 1)
			(layers "*.Cu" "*.Mask")
			(remove_unused_layers no)
			(net 3 "Net-(J1-Pin_4)")
			(pinfunction "2")
			(pintype "passive")
			(uuid "de2145d8-47af-4a3c-96d9-104ed51047cc")
		)
		(model "${KISYS3DMOD}/Button_Switch_THT.3dshapes/SW_PUSH_6mm_H4.3mm.wrl"
			(offset
				(xyz 0 0 0)
			)
			(scale
				(xyz 1 1 1)
			)
			(rotate
				(xyz 0 0 0)
			)
		)
		(model "/home/francisco/Kicad lib/kicad-packages3D/Button_Switch_THT.3dshapes/SW_PUSH_6mm_H4.3mm.wrl"
			(offset
				(xyz 0 0 0)
			)
			(scale
				(xyz 1 1 1)
			)
			(rotate
				(xyz 0 0 0)
			)
		)
	)
	(footprint "Button_Switch_THT:SW_PUSH_6mm_H4.3mm"
		(layer "B.Cu")
		(uuid "ac06d142-a6bb-4d5e-aa3e-40b7c09417f6")
		(at 163.25 62.75 180)
		(descr "tactile push button, 6x6mm e.g. PHAP33xx series, height=4.3mm")
		(tags "tact sw push 6mm")
		(property "Reference" "LEFT1"
			(at 3.25 2 180)
			(layer "B.SilkS")
			(uuid "e7f92db8-81bd-4b9c-9fcf-60a9f61ccf7b")
			(effects
				(font
					(size 1 1)
					(thickness 0.15)
				)
				(justify mirror)
			)
		)
		(property "Value" "SW_Push"
			(at 3.75 -6.7 180)
			(layer "B.Fab")
			(uuid "32d2dae4-0973-42ea-a0ac-ca0345f301e2")
			(effects
				(font
					(size 1 1)
					(thickness 0.15)
				)
				(justify mirror)
			)
		)
		(property "Footprint" "Button_Switch_THT:SW_PUSH_6mm_H4.3mm"
			(at 0 0 0)
			(unlocked yes)
			(layer "B.Fab")
			(hide yes)
			(uuid "6efc4c4a-ff90-42e8-8d51-36ee3597000f")
			(effects
				(font
					(size 1.27 1.27)
					(thickness 0.15)
				)
				(justify mirror)
			)
		)
		(property "Datasheet" ""
			(at 0 0 0)
			(unlocked yes)
			(layer "B.Fab")
			(hide yes)
			(uuid "90b935d4-63a8-4917-992c-560e6ba6dfbc")
			(effects
				(font
					(size 1.27 1.27)
					(thickness 0.15)
				)
				(justify mirror)
			)
		)
		(property "Description" ""
			(at 0 0 0)
			(unlocked yes)
			(layer "B.Fab")
			(hide yes)
			(uuid "bbcdcaf2-12e0-48a8-880c-a90c0e52c92b")
			(effects
				(font
					(size 1.27 1.27)
					(thickness 0.15)
				)
				(justify mirror)
			)
		)
		(path "/00000000-0000-0000-0000-00006135a06b")
		(sheetname "Raíz")
		(sheetfile "M2.kicad_sch")
		(attr through_hole)
		(fp_line
			(start 6.75 -1.5)
			(end 6.75 -3)
			(stroke
				(width 0.12)
				(type solid)
			)
			(layer "B.SilkS")
			(uuid "171ba2dd-d31b-4252-9072-c85322237302")
		)
		(fp_line
			(start 5.5 -5.5)
			(end 1 -5.5)
			(stroke
				(width 0.12)
				(type solid)
			)
			(layer "B.SilkS")
			(uuid "e30865fd-1017-46c1-a162-29f82718250f")
		)
		(fp_line
			(start 1 1)
			(end 5.5 1)
			(stroke
				(width 0.12)
				(type solid)
			)
			(layer "B.SilkS")
			(uuid "2dfdb75d-5057-4b84-bd9d-356808d39948")
		)
		(fp_line
			(start -0.25 -3)
			(end -0.25 -1.5)
			(stroke
				(width 0.12)
				(type solid)
			)
			(layer "B.SilkS")
			(uuid "84b05b0d-faa0-476e-801e-872ff7a36d73")
		)
		(fp_line
			(start 8 1.5)
			(end 7.75 1.5)
			(stroke
				(width 0.05)
				(type solid)
			)
			(layer "B.CrtYd")
			(uuid "177d2dee-10c1-46a2-84e5-cbfb1e522be5")
		)
		(fp_line
			(start 8 1.25)
			(end 8 1.5)
			(stroke
				(width 0.05)
				(type solid)
			)
			(layer "B.CrtYd")
			(uuid "9295f9a7-7ce5-4182-a2bf-1f11d88eda11")
		)
		(fp_line
			(start 8 -5.75)
			(end 8 1.25)
			(stroke
				(width 0.05)
				(type solid)
			)
			(layer "B.CrtYd")
			(uuid "267b635e-5eda-4dfa-8f1c-e0185d37baf7")
		)
		(fp_line
			(start 8 -5.75)
			(end 8 -6)
			(stroke
				(width 0.05)
				(type solid)
			)
			(layer "B.CrtYd")
			(uuid "de6c7121-aa06-48d0-a414-c25500f02a3c")
		)
		(fp_line
			(start 8 -6)
			(end 7.75 -6)
			(stroke
				(width 0.05)
				(type solid)
			)
			(layer "B.CrtYd")
			(uuid "bd13fad8-788f-47b1-99eb-4da7b98e3e73")
		)
		(fp_line
			(start 7.75 1.5)
			(end -1.25 1.5)
			(stroke
				(width 0.05)
				(type solid)
			)
			(layer "B.CrtYd")
			(uuid "f34c261d-d1ad-4469-a485-8fbdb29f72da")
		)
		(fp_line
			(start -1.25 1.5)
			(end -1.5 1.5)
			(stroke
				(width 0.05)
				(type solid)
			)
			(layer "B.CrtYd")
			(uuid "f4d4d1f8-68ea-4d47-b658-fc1dacb64753")
		)
		(fp_line
			(start -1.25 -6)
			(end 7.75 -6)
			(stroke
				(width 0.05)
				(type solid)
			)
			(layer "B.CrtYd")
			(uuid "d6a1b710-6209-463a-a6ae-593178000314")
		)
		(fp_line
			(start -1.25 -6)
			(end -1.5 -6)
			(stroke
				(width 0.05)
				(type solid)
			)
			(layer "B.CrtYd")
			(uuid "364e9ed4-4c05-4ebe-bd7f-03f842578d31")
		)
		(fp_line
			(start -1.5 1.5)
			(end -1.5 1.25)
			(stroke
				(width 0.05)
				(type solid)
			)
			(layer "B.CrtYd")
			(uuid "3a9256b2-87dc-441e-959f-d6703bdaae58")
		)
		(fp_line
			(start -1.5 1.25)
			(end -1.5 -5.75)
			(stroke
				(width 0.05)
				(type solid)
			)
			(layer "B.CrtYd")
			(uuid "c2564d59-71a7-4053-9116-646115f6a001")
		)
		(fp_line
			(start -1.5 -6)
			(end -1.5 -5.75)
			(stroke
				(width 0.05)
				(type solid)
			)
			(layer "B.CrtYd")
			(uuid "563d0a94-d9b2-4052-8260-e3f2d7234d92")
		)
		(fp_line
			(start 6.25 0.75)
			(end 3.25 0.75)
			(stroke
				(width 0.1)
				(type solid)
			)
			(layer "B.Fab")
			(uuid "a86bdff9-c6b9-4c0b-b28d-b036a72d058d")
		)
		(fp_line
			(start 6.25 -5.25)
			(end 6.25 0.75)
			(stroke
				(width 0.1)
				(type solid)
			)
			(layer "B.Fab")
			(uuid "b3bcfb81-02a2-459e-8a8e-f88e66069463")
		)
		(fp_line
			(start 3.25 0.75)
			(end 0.25 0.75)
			(stroke
				(width 0.1)
				(type solid)
			)
			(layer "B.Fab")
			(uuid "5ea17b8f-2568-4fe1-bea0-ecb0a44b0faa")
		)
		(fp_line
			(start 0.25 0.75)
			(end 0.25 -5.25)
			(stroke
				(width 0.1)
				(type solid)
			)
			(layer "B.Fab")
			(uuid "5d600665-096e-4435-8553-7b673ae45a2c")
		)
		(fp_line
			(start 0.25 -5.25)
			(end 6.25 -5.25)
			(stroke
				(width 0.1)
				(type solid)
			)
			(layer "B.Fab")
			(uuid "06457190-fa5b-4c0c-8248-4d780d04f747")
		)
		(fp_circle
			(center 3.25 -2.25)
			(end 1.25 -2.5)
			(stroke
				(width 0.1)
				(type solid)
			)
			(fill none)
			(layer "B.Fab")
			(uuid "95b00328-cc98-4103-af3c-21aa118f0ac4")
		)
		(fp_text user "${REFERENCE}"
			(at 3.25 -2.25 180)
			(layer "B.Fab")
			(uuid "873aad0d-83f9-4c16-83a8-bfd8dcc0ffc3")
			(effects
				(font
					(size 1 1)
					(thickness 0.15)
				)
				(justify mirror)
			)
		)
		(pad "1" thru_hole circle
			(at 0 0 90)
			(size 3 3)
			(drill 1)
			(layers "*.Cu" "*.Mask")
			(remove_unused_layers no)
			(net 4 "Net-(J1-Pin_2)")
			(pinfunction "1")
			(pintype "passive")
			(uuid "ac1df646-af79-401f-a85b-c444d43be8ea")
		)
		(pad "1" thru_hole circle
			(at 6.5 0 90)
			(size 3 3)
			(drill 1)
			(layers "*.Cu" "*.Mask")
			(remove_unused_layers no)
			(net 4 "Net-(J1-Pin_2)")
			(pinfunction "1")
			(pintype "passive")
			(uuid "1cdfec9e-e2c4-4f71-9162-22b644659e9c")
		)
		(pad "2" thru_hole circle
			(at 0 -4.5 90)
			(size 3 3)
			(drill 1)
			(layers "*.Cu" "*.Mask")
			(remove_unused_layers no)
			(net 2 "Net-(J1-Pin_3)")
			(pinfunction "2")
			(pintype "passive")
			(uuid "36a53eaf-409c-4022-8501-72d4218a40f3")
		)
		(pad "2" thru_hole circle
			(at 6.5 -4.5 90)
			(size 3 3)
			(drill 1)
			(layers "*.Cu" "*.Mask")
			(remove_unused_layers no)
			(net 2 "Net-(J1-Pin_3)")
			(pinfunction "2")
			(pintype "passive")
			(uuid "be660569-e42c-4721-addd-bc35e092a9a8")
		)
		(model "${KISYS3DMOD}/Button_Switch_THT.3dshapes/SW_PUSH_6mm_H4.3mm.wrl"
			(offset
				(xyz 0 0 0)
			)
			(scale
				(xyz 1 1 1)
			)
			(rotate
				(xyz 0 0 0)
			)
		)
		(model "/home/francisco/Kicad lib/kicad-packages3D/Button_Switch_THT.3dshapes/SW_PUSH_6mm_H4.3mm.wrl"
			(offset
				(xyz 0 0 0)
			)
			(scale
				(xyz 1 1 1)
			)
			(rotate
				(xyz 0 0 0)
			)
		)
	)
	(footprint "Button_Switch_THT:SW_PUSH_6mm_H4.3mm"
		(layer "B.Cu")
		(uuid "ba77eda4-0410-4e55-bf90-d469dbf96184")
		(at 79.75 67.25)
		(descr "tactile push button, 6x6mm e.g. PHAP33xx series, height=4.3mm")
		(tags "tact sw push 6mm")
		(property "Reference" "HOME1"
			(at 3.25 2 0)
			(layer "B.SilkS")
			(uuid "6dfefa50-9edd-44fa-8392-8fa323270c92")
			(effects
				(font
					(size 1 1)
					(thickness 0.15)
				)
				(justify mirror)
			)
		)
		(property "Value" "SW_Push"
			(at 3.75 -6.7 0)
			(layer "B.Fab")
			(uuid "7b3931be-5e69-4e55-91bc-5fac8cda8d16")
			(effects
				(font
					(size 1 1)
					(thickness 0.15)
				)
				(justify mirror)
			)
		)
		(property "Footprint" "Button_Switch_THT:SW_PUSH_6mm_H4.3mm"
			(at 0 0 180)
			(unlocked yes)
			(layer "B.Fab")
			(hide yes)
			(uuid "521f7662-b625-44d5-8da9-3a6de0629686")
			(effects
				(font
					(size 1.27 1.27)
					(thickness 0.15)
				)
				(justify mirror)
			)
		)
		(property "Datasheet" ""
			(at 0 0 180)
			(unlocked yes)
			(layer "B.Fab")
			(hide yes)
			(uuid "a5dc3573-8f4b-424b-8a43-ae78c2ff02f1")
			(effects
				(font
					(size 1.27 1.27)
					(thickness 0.15)
				)
				(justify mirror)
			)
		)
		(property "Description" ""
			(at 0 0 180)
			(unlocked yes)
			(layer "B.Fab")
			(hide yes)
			(uuid "6d6c049c-78e2-4fd1-90d6-57931a839549")
			(effects
				(font
					(size 1.27 1.27)
					(thickness 0.15)
				)
				(justify mirror)
			)
		)
		(path "/00000000-0000-0000-0000-0000613599cc")
		(sheetname "Raíz")
		(sheetfile "M2.kicad_sch")
		(attr through_hole)
		(fp_line
			(start -0.25 -3)
			(end -0.25 -1.5)
			(stroke
				(width 0.12)
				(type solid)
			)
			(layer "B.SilkS")
			(uuid "d59be4b7-318e-49a6-8b8f-e6b8d81f4a78")
		)
		(fp_line
			(start 1 1)
			(end 5.5 1)
			(stroke
				(width 0.12)
				(type solid)
			)
			(layer "B.SilkS")
			(uuid "8e295632-647e-481c-81d9-aebacd615936")
		)
		(fp_line
			(start 5.5 -5.5)
			(end 1 -5.5)
			(stroke
				(width 0.12)
				(type solid)
			)
			(layer "B.SilkS")
			(uuid "f0dc2f77-b01f-4179-91b5-9da74ea14f8d")
		)
		(fp_line
			(start 6.75 -1.5)
			(end 6.75 -3)
			(stroke
				(width 0.12)
				(type solid)
			)
			(layer "B.SilkS")
			(uuid "710fdeb2-bef7-4e18-b7d1-be73115a5a4c")
		)
		(fp_line
			(start -1.5 -6)
			(end -1.5 -5.75)
			(stroke
				(width 0.05)
				(type solid)
			)
			(layer "B.CrtYd")
			(uuid "33f69e9d-6fb1-4204-8871-3fd66c28857e")
		)
		(fp_line
			(start -1.5 1.25)
			(end -1.5 -5.75)
			(stroke
				(width 0.05)
				(type solid)
			)
			(layer "B.CrtYd")
			(uuid "ee9468c0-501e-4340-99b5-e40c88e3f73f")
		)
		(fp_line
			(start -1.5 1.5)
			(end -1.5 1.25)
			(stroke
				(width 0.05)
				(type solid)
			)
			(layer "B.CrtYd")
			(uuid "58e222de-44a8-4b0d-812c-af5abc9a61bf")
		)
		(fp_line
			(start -1.25 -6)
			(end -1.5 -6)
			(stroke
				(width 0.05)
				(type solid)
			)
			(layer "B.CrtYd")
			(uuid "057d0a00-5aab-488e-9e1a-4611e22b4629")
		)
		(fp_line
			(start -1.25 -6)
			(end 7.75 -6)
			(stroke
				(width 0.05)
				(type solid)
			)
			(layer "B.CrtYd")
			(uuid "a66e7a20-a3f1-4d56-ad41-5ccebb5a015e")
		)
		(fp_line
			(start -1.25 1.5)
			(end -1.5 1.5)
			(stroke
				(width 0.05)
				(type solid)
			)
			(layer "B.CrtYd")
			(uuid "3aa0422a-0ca3-4a50-838c-c077e9a22f51")
		)
		(fp_line
			(start 7.75 1.5)
			(end -1.25 1.5)
			(stroke
				(width 0.05)
				(type solid)
			)
			(layer "B.CrtYd")
			(uuid "f6977a95-343f-495d-b6aa-eba5b915c593")
		)
		(fp_line
			(start 8 -6)
			(end 7.75 -6)
			(stroke
				(width 0.05)
				(type solid)
			)
			(layer "B.CrtYd")
			(uuid "1b6916e4-7064-41b9-933f-704e2a788557")
		)
		(fp_line
			(start 8 -5.75)
			(end 8 -6)
			(stroke
				(width 0.05)
				(type solid)
			)
			(layer "B.CrtYd")
			(uuid "7cb48644-87cc-4d97-a2b3-c0958b69d321")
		)
		(fp_line
			(start 8 -5.75)
			(end 8 1.25)
			(stroke
				(width 0.05)
				(type solid)
			)
			(layer "B.CrtYd")
			(uuid "a459a46f-9be7-47ed-8f93-dbab416c7eec")
		)
		(fp_line
			(start 8 1.25)
			(end 8 1.5)
			(stroke
				(width 0.05)
				(type solid)
			)
			(layer "B.CrtYd")
			(uuid "5ffd6fb5-1ba9-41a1-a711-09aef585be08")
		)
		(fp_line
			(start 8 1.5)
			(end 7.75 1.5)
			(stroke
				(width 0.05)
				(type solid)
			)
			(layer "B.CrtYd")
			(uuid "0caf8c08-a9f6-4234-b672-d65c2d11572a")
		)
		(fp_line
			(start 0.25 -5.25)
			(end 6.25 -5.25)
			(stroke
				(width 0.1)
				(type solid)
			)
			(layer "B.Fab")
			(uuid "acfa0ab6-be1e-479e-a11b-84c879f035f8")
		)
		(fp_line
			(start 0.25 0.75)
			(end 0.25 -5.25)
			(stroke
				(width 0.1)
				(type solid)
			)
			(layer "B.Fab")
			(uuid "011c82e2-4d73-450a-a6af-b2636564c121")
		)
		(fp_line
			(start 3.25 0.75)
			(end 0.25 0.75)
			(stroke
				(width 0.1)
				(type solid)
			)
			(layer "B.Fab")
			(uuid "4e8db8d0-5d10-4f7c-817e-ea8a8856beae")
		)
		(fp_line
			(start 6.25 -5.25)
			(end 6.25 0.75)
			(stroke
				(width 0.1)
				(type solid)
			)
			(layer "B.Fab")
			(uuid "dba20b5c-4173-452f-98b1-04a51c65ae40")
		)
		(fp_line
			(start 6.25 0.75)
			(end 3.25 0.75)
			(stroke
				(width 0.1)
				(type solid)
			)
			(layer "B.Fab")
			(uuid "4899abd2-7364-4537-8829-7165d9c90a8f")
		)
		(fp_circle
			(center 3.25 -2.25)
			(end 1.25 -2.5)
			(stroke
				(width 0.1)
				(type solid)
			)
			(fill none)
			(layer "B.Fab")
			(uuid "6457013a-089b-4fa1-9463-4a6ca7bfb9ca")
		)
		(fp_text user "${REFERENCE}"
			(at 3.25 -2.25 0)
			(layer "B.Fab")
			(uuid "495b0c07-b44b-4139-9af2-8c4554e0bbea")
			(effects
				(font
					(size 1 1)
					(thickness 0.15)
				)
				(justify mirror)
			)
		)
		(pad "1" thru_hole circle
			(at 0 0 270)
			(size 3 3)
			(drill 1)
			(layers "*.Cu" "*.Mask")
			(remove_unused_layers no)
			(net 1 "Net-(J1-Pin_1)")
			(pinfunction "1")
			(pintype "passive")
			(uuid "d0030d3b-3c8c-462b-992f-713565a5c34b")
		)
		(pad "1" thru_hole circle
			(at 6.5 0 270)
			(size 3 3)
			(drill 1)
			(layers "*.Cu" "*.Mask")
			(remove_unused_layers no)
			(net 1 "Net-(J1-Pin_1)")
			(pinfunction "1")
			(pintype "passive")
			(uuid "66132527-a14b-4f56-80d8-24eb284c9d6b")
		)
		(pad "2" thru_hole circle
			(at 0 -4.5 270)
			(size 3 3)
			(drill 1)
			(layers "*.Cu" "*.Mask")
			(remove_unused_layers no)
			(net 5 "Net-(J1-Pin_5)")
			(pinfunction "2")
			(pintype "passive")
			(uuid "061faedf-eade-45c7-bb0c-7ba9dc25dc0b")
		)
		(pad "2" thru_hole circle
			(at 6.5 -4.5 270)
			(size 3 3)
			(drill 1)
			(layers "*.Cu" "*.Mask")
			(remove_unused_layers no)
			(net 5 "Net-(J1-Pin_5)")
			(pinfunction "2")
			(pintype "passive")
			(uuid "e612673f-020d-4248-9c62-44a07dec34c2")
		)
		(model "${KISYS3DMOD}/Button_Switch_THT.3dshapes/SW_PUSH_6mm_H4.3mm.wrl"
			(offset
				(xyz 0 0 0)
			)
			(scale
				(xyz 1 1 1)
			)
			(rotate
				(xyz 0 0 0)
			)
		)
		(model "/home/francisco/Kicad lib/kicad-packages3D/Button_Switch_THT.3dshapes/SW_PUSH_6mm_H4.3mm.wrl"
			(offset
				(xyz 0 0 0)
			)
			(scale
				(xyz 1 1 1)
			)
			(rotate
				(xyz 0 0 0)
			)
		)
	)
	(gr_rect
		(start 65.824 60)
		(end 165.824 70)
		(stroke
			(width 0.05)
			(type default)
		)
		(fill none)
		(layer "Edge.Cuts")
		(uuid "beec757e-bbc3-45b5-9895-6f3e08782ad2")
	)
	(segment
		(start 124.714 67.31)
		(end 127 65.024)
		(width 0.4)
		(layer "F.Cu")
		(net 1)
		(uuid "dddfc25e-a721-4a7f-9d49-f7638c6d9b89")
	)
	(segment
		(start 105.156 67.31)
		(end 124.714 67.31)
		(width 0.4)
		(layer "F.Cu")
		(net 1)
		(uuid "e48ab5d5-1655-4b49-ac9c-63282cb661e3")
	)
	(via
		(at 105.156 67.31)
		(size 3)
		(drill 0.75)
		(layers "F.Cu" "B.Cu")
		(net 1)
		(uuid "2f4a2233-0742-425e-9f5f-3c0df064b424")
	)
	(via
		(at 127 65.024)
		(size 3)
		(drill 0.75)
		(layers "F.Cu" "B.Cu")
		(net 1)
		(uuid "b16a9156-e861-4440-91c9-8d63f3a2af2b")
	)
	(segment
		(start 141.02 64.98)
		(end 127.044 64.98)
		(width 0.4)
		(layer "B.Cu")
		(net 1)
		(uuid "1d802d97-5847-47d3-84ad-0987a1967b53")
	)
	(segment
		(start 145.75 62.75)
		(end 143.25 62.75)
		(width 0.4)
		(layer "B.Cu")
		(net 1)
		(uuid "2c115084-6291-4d64-bab3-83be173615ea")
	)
	(segment
		(start 92.762 67.274)
		(end 99.262 67.274)
		(width 0.4)
		(layer "B.Cu")
		(net 1)
		(uuid "36296b6d-e1e1-4e57-b36e-cc703e2b77ac")
	)
	(segment
		(start 86.25 67.25)
		(end 92.738 67.25)
		(width 0.4)
		(layer "B.Cu")
		(net 1)
		(uuid "4b3b684e-5ee5-4ca5-b12f-9f86f0c70634")
	)
	(segment
		(start 126.956 64.98)
		(end 120.904 64.98)
		(width 0.4)
		(layer "B.Cu")
		(net 1)
		(uuid "63cc998e-b699-4a8d-9800-9c35a02d06aa")
	)
	(segment
		(start 99.262 67.274)
		(end 105.12 67.274)
		(width 0.4)
		(layer "B.Cu")
		(net 1)
		(uuid "89154469-c2a6-481b-9f64-b8da7396341c")
	)
	(segment
		(start 152.25 62.75)
		(end 145.75 62.75)
		(width 0.4)
		(layer "B.Cu")
		(net 1)
		(uuid "8e3f9c10-5ffe-42e4-ae74-37489092bc1a")
	)
	(segment
		(start 127.044 64.98)
		(end 127 65.024)
		(width 0.4)
		(layer "B.Cu")
		(net 1)
		(uuid "9ced7c40-7297-4c25-84fb-f3bf3375185d")
	)
	(segment
		(start 127 65.024)
		(end 126.956 64.98)
		(width 0.4)
		(layer "B.Cu")
		(net 1)
		(uuid "a8e9771a-8869-48d2-93a3-fd18fd9025cb")
	)
	(segment
		(start 79.75 67.25)
		(end 86.25 67.25)
		(width 0.4)
		(layer "B.Cu")
		(net 1)
		(uuid "bd3c81b5-4bcc-4108-af3f-77af540b5aff")
	)
	(segment
		(start 143.25 62.75)
		(end 141.02 64.98)
		(width 0.4)
		(layer "B.Cu")
		(net 1)
		(uuid "c64ab771-20c0-442d-a9c7-4a1b0c82aecf")
	)
	(segment
		(start 92.738 67.25)
		(end 92.762 67.274)
		(width 0.4)
		(layer "B.Cu")
		(net 1)
		(uuid "cd7e0315-64e4-4adb-a042-77ed79f6ac59")
	)
	(segment
		(start 105.12 67.274)
		(end 105.156 67.31)
		(width 0.4)
		(layer "B.Cu")
		(net 1)
		(uuid "ed5b286b-0356-42df-b4b5-f1783c83abb9")
	)
	(segment
		(start 145.75 67.25)
		(end 143.6 69.4)
		(width 0.4)
		(layer "B.Cu")
		(net 2)
		(uuid "0720fb21-5214-4350-959b-8d8bd623f22e")
	)
	(segment
		(start 115.824 67.31)
		(end 115.824 64.98)
		(width 0.4)
		(layer "B.Cu")
		(net 2)
		(uuid "1bebc0a0-af28-446d-8f59-7f55a06b475d")
	)
	(segment
		(start 163.25 67.25)
		(end 156.75 67.25)
		(width 0.4)
		(layer "B.Cu")
		(net 2)
		(uuid "2b0a4e26-29ed-481c-846d-f3861285490d")
	)
	(segment
		(start 152.25 67.25)
		(end 145.75 67.25)
		(width 0.4)
		(layer "B.Cu")
		(net 2)
		(uuid "44f84ece-8894-4d74-a5dc-3134105fe95d")
	)
	(segment
		(start 156.75 67.25)
		(end 152.25 67.25)
		(width 0.4)
		(layer "B.Cu")
		(net 2)
		(uuid "5bef190a-b752-46e0-ae1b-163a5febf8c6")
	)
	(segment
		(start 117.914 69.4)
		(end 115.824 67.31)
		(width 0.4)
		(layer "B.Cu")
		(net 2)
		(uuid "708e6313-1ba5-4668-a59c-7b9d0117d298")
	)
	(segment
		(start 143.6 69.4)
		(end 117.914 69.4)
		(width 0.4)
		(layer "B.Cu")
		(net 2)
		(uuid "db016853-a872-4bb1-bd19-0aef305a0475")
	)
	(segment
		(start 92.762 62.774)
		(end 99.262 62.774)
		(width 0.4)
		(layer "B.Cu")
		(net 3)
		(uuid "14e226ae-81e3-429b-b951-899d6adbd312")
	)
	(segment
		(start 113.284 63.246)
		(end 113.284 64.98)
		(width 0.4)
		(layer "B.Cu")
		(net 3)
		(uuid "49d7b1c0-44b6-4b24-a715-918cf60d4a81")
	)
	(segment
		(start 132.75 62.75)
		(end 113.78 62.75)
		(width 0.4)
		(layer "B.Cu")
		(net 3)
		(uuid "628f1f3a-33a6-4f9d-8a43-432ad63da20a")
	)
	(segment
		(start 113.78 62.75)
		(end 113.284 63.246)
		(width 0.4)
		(layer "B.Cu")
		(net 3)
		(uuid "9d53548b-a675-42d2-8805-df4d91c21af8")
	)
	(segment
		(start 112.812 62.774)
		(end 113.284 63.246)
		(width 0.4)
		(layer "B.Cu")
		(net 3)
		(uuid "afd5919f-607e-4ad8-942e-7c80c3993894")
	)
	(segment
		(start 139.25 62.75)
		(end 132.75 62.75)
		(width 0.4)
		(layer "B.Cu")
		(net 3)
		(uuid "b2c819af-ea59-4fd0-a199-e8081fbfd77a")
	)
	(segment
		(start 99.262 62.774)
		(end 112.812 62.774)
		(width 0.4)
		(layer "B.Cu")
		(net 3)
		(uuid "b8240212-ecb0-4940-bbd1-13e6dedbde63")
	)
	(segment
		(start 66.424 65.174)
		(end 66.424 61.738497)
		(width 0.4)
		(layer "B.Cu")
		(net 4)
		(uuid "3100aa23-7280-4733-b08d-7092a6037e2b")
	)
	(segment
		(start 132.75 67.25)
		(end 119.012 67.25)
		(width 0.4)
		(layer "B.Cu")
		(net 4)
		(uuid "375573c5-4893-4281-8e8f-06d37bc89d53")
	)
	(segment
		(start 119.012 67.25)
		(end 118.952 67.31)
		(width 0.4)
		(layer "B.Cu")
		(net 4)
		(uuid "44a5e87a-d306-4ddd-ac37-9e461f06a3de")
	)
	(segment
		(start 66.424 61.738497)
		(end 67.562497 60.6)
		(width 0.4)
		(layer "B.Cu")
		(net 4)
		(uuid "4aeea524-e876-467b-b028-8ed5606000c1")
	)
	(segment
		(start 154.6 60.6)
		(end 156.75 62.75)
		(width 0.4)
		(layer "B.Cu")
		(net 4)
		(uuid "5aac6496-d8e7-481e-83c5-8fc96a27bdca")
	)
	(segment
		(start 141.538 67.25)
		(end 139.25 67.25)
		(width 0.4)
		(layer "B.Cu")
		(net 4)
		(uuid "77fca932-84f2-4c6b-8939-cf126691bc4b")
	)
	(segment
		(start 154.5 65)
		(end 143.788 65)
		(width 0.4)
		(layer "B.Cu")
		(net 4)
		(uuid "8b1ccaa6-5801-4885-ae05-67c87d33a190")
	)
	(segment
		(start 118.364 66.722)
		(end 118.364 64.98)
		(width 0.4)
		(layer "B.Cu")
		(net 4)
		(uuid "acb4d60f-c831-4cc9-8249-d30aab8e10d5")
	)
	(segment
		(start 156.75 62.75)
		(end 154.5 65)
		(width 0.4)
		(layer "B.Cu")
		(net 4)
		(uuid "b5c63bd5-84cd-4cd5-831e-b2a848b105cb")
	)
	(segment
		(start 68.5 67.25)
		(end 66.424 65.174)
		(width 0.4)
		(layer "B.Cu")
		(net 4)
		(uuid "ba828843-4112-441c-8361-13668b1ed760")
	)
	(segment
		(start 143.788 65)
		(end 141.538 67.25)
		(width 0.4)
		(layer "B.Cu")
		(net 4)
		(uuid "bc3a9f2e-b6ce-4811-a032-f7bcbd1886f1")
	)
	(segment
		(start 163.25 62.75)
		(end 156.75 62.75)
		(width 0.4)
		(layer "B.Cu")
		(net 4)
		(uuid "bf1a63bd-2c2b-439f-a97e-613b916ed874")
	)
	(segment
		(start 139.25 67.25)
		(end 132.75 67.25)
		(width 0.4)
		(layer "B.Cu")
		(net 4)
		(uuid "d7668a73-c8cb-4d54-9a7b-cd4f667659e9")
	)
	(segment
		(start 67.562497 60.6)
		(end 154.6 60.6)
		(width 0.4)
		(layer "B.Cu")
		(net 4)
		(uuid "daa22dec-e9d6-4e7d-8edd-b3952cd726b3")
	)
	(segment
		(start 68.5 67.25)
		(end 75 67.25)
		(width 0.4)
		(layer "B.Cu")
		(net 4)
		(uuid "df1c0f86-7797-43b9-aea2-a601ccefdbf8")
	)
	(segment
		(start 118.952 67.31)
		(end 118.364 66.722)
		(width 0.4)
		(layer "B.Cu")
		(net 4)
		(uuid "fb34fbbd-f690-45f5-8e74-d0de7a508067")
	)
	(segment
		(start 110.744 64.98)
		(end 88.48 64.98)
		(width 0.4)
		(layer "B.Cu")
		(net 5)
		(uuid "3de4824b-ede7-4b79-a863-977eaa89ec0d")
	)
	(segment
		(start 68.5 62.75)
		(end 75 62.75)
		(width 0.4)
		(layer "B.Cu")
		(net 5)
		(uuid "60ac49e3-7a5b-4561-92ec-bb04eae1f255")
	)
	(segment
		(start 88.48 64.98)
		(end 86.25 62.75)
		(width 0.4)
		(layer "B.Cu")
		(net 5)
		(uuid "6fa56fa7-c456-45ab-8654-d6b2e287638d")
	)
	(segment
		(start 79.75 62.75)
		(end 86.25 62.75)
		(width 0.4)
		(layer "B.Cu")
		(net 5)
		(uuid "9b741789-3e15-4cb8-af42-bd134ec87bba")
	)
	(segment
		(start 75 62.75)
		(end 79.75 62.75)
		(width 0.4)
		(layer "B.Cu")
		(net 5)
		(uuid "a0f71ebb-32fd-4b21-96ee-7b5323f3d300")
	)
)
