(kicad_sch
	(version 20231120)
	(generator "eeschema")
	(generator_version "8.0")
	(uuid "623604b6-261d-4e06-a51e-7d58ea33721b")
	(paper "A4")
	(lib_symbols
		(symbol "M2-rescue:Conn_01x05_Female-Connector"
			(pin_names
				(offset 1.016) hide)
			(exclude_from_sim no)
			(in_bom yes)
			(on_board yes)
			(property "Reference" "J"
				(at 0 7.62 0)
				(effects
					(font
						(size 1.27 1.27)
					)
				)
			)
			(property "Value" "Connector_Conn_01x05_Female"
				(at 0 -7.62 0)
				(effects
					(font
						(size 1.27 1.27)
					)
				)
			)
			(property "Footprint" ""
				(at 0 0 0)
				(effects
					(font
						(size 1.27 1.27)
					)
					(hide yes)
				)
			)
			(property "Datasheet" ""
				(at 0 0 0)
				(effects
					(font
						(size 1.27 1.27)
					)
					(hide yes)
				)
			)
			(property "Description" ""
				(at 0 0 0)
				(effects
					(font
						(size 1.27 1.27)
					)
					(hide yes)
				)
			)
			(property "ki_fp_filters" "Connector*:*_1x??_*"
				(at 0 0 0)
				(effects
					(font
						(size 1.27 1.27)
					)
					(hide yes)
				)
			)
			(symbol "Conn_01x05_Female-Connector_1_1"
				(arc
					(start 0 -4.572)
					(mid -0.508 -5.08)
					(end 0 -5.588)
					(stroke
						(width 0.1524)
						(type solid)
					)
					(fill
						(type none)
					)
				)
				(arc
					(start 0 -2.032)
					(mid -0.508 -2.54)
					(end 0 -3.048)
					(stroke
						(width 0.1524)
						(type solid)
					)
					(fill
						(type none)
					)
				)
				(polyline
					(pts
						(xy -1.27 -5.08) (xy -0.508 -5.08)
					)
					(stroke
						(width 0.1524)
						(type solid)
					)
					(fill
						(type none)
					)
				)
				(polyline
					(pts
						(xy -1.27 -2.54) (xy -0.508 -2.54)
					)
					(stroke
						(width 0.1524)
						(type solid)
					)
					(fill
						(type none)
					)
				)
				(polyline
					(pts
						(xy -1.27 0) (xy -0.508 0)
					)
					(stroke
						(width 0.1524)
						(type solid)
					)
					(fill
						(type none)
					)
				)
				(polyline
					(pts
						(xy -1.27 2.54) (xy -0.508 2.54)
					)
					(stroke
						(width 0.1524)
						(type solid)
					)
					(fill
						(type none)
					)
				)
				(polyline
					(pts
						(xy -1.27 5.08) (xy -0.508 5.08)
					)
					(stroke
						(width 0.1524)
						(type solid)
					)
					(fill
						(type none)
					)
				)
				(arc
					(start 0 0.508)
					(mid -0.508 0)
					(end 0 -0.508)
					(stroke
						(width 0.1524)
						(type solid)
					)
					(fill
						(type none)
					)
				)
				(arc
					(start 0 3.048)
					(mid -0.508 2.54)
					(end 0 2.032)
					(stroke
						(width 0.1524)
						(type solid)
					)
					(fill
						(type none)
					)
				)
				(arc
					(start 0 5.588)
					(mid -0.508 5.08)
					(end 0 4.572)
					(stroke
						(width 0.1524)
						(type solid)
					)
					(fill
						(type none)
					)
				)
				(pin passive line
					(at -5.08 5.08 0)
					(length 3.81)
					(name "Pin_1"
						(effects
							(font
								(size 1.27 1.27)
							)
						)
					)
					(number "1"
						(effects
							(font
								(size 1.27 1.27)
							)
						)
					)
				)
				(pin passive line
					(at -5.08 2.54 0)
					(length 3.81)
					(name "Pin_2"
						(effects
							(font
								(size 1.27 1.27)
							)
						)
					)
					(number "2"
						(effects
							(font
								(size 1.27 1.27)
							)
						)
					)
				)
				(pin passive line
					(at -5.08 0 0)
					(length 3.81)
					(name "Pin_3"
						(effects
							(font
								(size 1.27 1.27)
							)
						)
					)
					(number "3"
						(effects
							(font
								(size 1.27 1.27)
							)
						)
					)
				)
				(pin passive line
					(at -5.08 -2.54 0)
					(length 3.81)
					(name "Pin_4"
						(effects
							(font
								(size 1.27 1.27)
							)
						)
					)
					(number "4"
						(effects
							(font
								(size 1.27 1.27)
							)
						)
					)
				)
				(pin passive line
					(at -5.08 -5.08 0)
					(length 3.81)
					(name "Pin_5"
						(effects
							(font
								(size 1.27 1.27)
							)
						)
					)
					(number "5"
						(effects
							(font
								(size 1.27 1.27)
							)
						)
					)
				)
			)
		)
		(symbol "Switch:SW_Push"
			(pin_numbers hide)
			(pin_names
				(offset 1.016) hide)
			(exclude_from_sim no)
			(in_bom yes)
			(on_board yes)
			(property "Reference" "SW"
				(at 1.27 2.54 0)
				(effects
					(font
						(size 1.27 1.27)
					)
					(justify left)
				)
			)
			(property "Value" "SW_Push"
				(at 0 -1.524 0)
				(effects
					(font
						(size 1.27 1.27)
					)
				)
			)
			(property "Footprint" ""
				(at 0 5.08 0)
				(effects
					(font
						(size 1.27 1.27)
					)
					(hide yes)
				)
			)
			(property "Datasheet" "~"
				(at 0 5.08 0)
				(effects
					(font
						(size 1.27 1.27)
					)
					(hide yes)
				)
			)
			(property "Description" "Push button switch, generic, two pins"
				(at 0 0 0)
				(effects
					(font
						(size 1.27 1.27)
					)
					(hide yes)
				)
			)
			(property "ki_keywords" "switch normally-open pushbutton push-button"
				(at 0 0 0)
				(effects
					(font
						(size 1.27 1.27)
					)
					(hide yes)
				)
			)
			(symbol "SW_Push_0_1"
				(circle
					(center -2.032 0)
					(radius 0.508)
					(stroke
						(width 0)
						(type default)
					)
					(fill
						(type none)
					)
				)
				(polyline
					(pts
						(xy 0 1.27) (xy 0 3.048)
					)
					(stroke
						(width 0)
						(type default)
					)
					(fill
						(type none)
					)
				)
				(polyline
					(pts
						(xy 2.54 1.27) (xy -2.54 1.27)
					)
					(stroke
						(width 0)
						(type default)
					)
					(fill
						(type none)
					)
				)
				(circle
					(center 2.032 0)
					(radius 0.508)
					(stroke
						(width 0)
						(type default)
					)
					(fill
						(type none)
					)
				)
				(pin passive line
					(at -5.08 0 0)
					(length 2.54)
					(name "1"
						(effects
							(font
								(size 1.27 1.27)
							)
						)
					)
					(number "1"
						(effects
							(font
								(size 1.27 1.27)
							)
						)
					)
				)
				(pin passive line
					(at 5.08 0 180)
					(length 2.54)
					(name "2"
						(effects
							(font
								(size 1.27 1.27)
							)
						)
					)
					(number "2"
						(effects
							(font
								(size 1.27 1.27)
							)
						)
					)
				)
			)
		)
	)
	(junction
		(at 107.95 81.28)
		(diameter 0)
		(color 0 0 0 0)
		(uuid "000c3ddb-f380-479e-9431-c3c71299a8a8")
	)
	(junction
		(at 111.76 82.55)
		(diameter 0)
		(color 0 0 0 0)
		(uuid "01d569e5-ee52-468a-bff6-a7c6593991fe")
	)
	(junction
		(at 111.76 68.58)
		(diameter 0)
		(color 0 0 0 0)
		(uuid "1ae67d11-7d08-4201-a01d-d6f69b61b492")
	)
	(junction
		(at 121.92 81.28)
		(diameter 0)
		(color 0 0 0 0)
		(uuid "5dd38c3a-0ab7-43fc-85af-0cccfebc40ec")
	)
	(junction
		(at 125.73 68.58)
		(diameter 0)
		(color 0 0 0 0)
		(uuid "73be2b2d-3c4c-425a-9aae-271239108072")
	)
	(junction
		(at 125.73 82.55)
		(diameter 0)
		(color 0 0 0 0)
		(uuid "ee73d99a-33bf-4f15-aa94-35ad2c2ca335")
	)
	(junction
		(at 135.89 81.28)
		(diameter 0)
		(color 0 0 0 0)
		(uuid "efff9439-cfb0-4060-a021-07a15618e5b0")
	)
	(wire
		(pts
			(xy 111.76 68.58) (xy 97.79 68.58)
		)
		(stroke
			(width 0)
			(type default)
		)
		(uuid "14585e4c-6f26-4a64-9616-c6cfc2e79cac")
	)
	(wire
		(pts
			(xy 97.79 82.55) (xy 111.76 82.55)
		)
		(stroke
			(width 0)
			(type default)
		)
		(uuid "151a329c-01ca-4eb9-a0fc-7cb6cc32cb51")
	)
	(wire
		(pts
			(xy 97.79 68.58) (xy 97.79 72.39)
		)
		(stroke
			(width 0)
			(type default)
		)
		(uuid "157fa746-8f37-4f7e-a1be-ca3b1a47ceae")
	)
	(wire
		(pts
			(xy 140.97 81.28) (xy 135.89 81.28)
		)
		(stroke
			(width 0)
			(type default)
		)
		(uuid "1e0258ae-f2b2-4fc9-8582-a219696f1d91")
	)
	(wire
		(pts
			(xy 125.73 68.58) (xy 111.76 68.58)
		)
		(stroke
			(width 0)
			(type default)
		)
		(uuid "2fe60d17-10ee-4b32-bae4-cf9deeca9ac9")
	)
	(wire
		(pts
			(xy 97.79 81.28) (xy 97.79 82.55)
		)
		(stroke
			(width 0)
			(type default)
		)
		(uuid "4134accd-77cb-45b8-9a4c-1751957dd8d7")
	)
	(wire
		(pts
			(xy 111.76 82.55) (xy 125.73 82.55)
		)
		(stroke
			(width 0)
			(type default)
		)
		(uuid "4a5cf054-a154-4968-901e-493e1bf87547")
	)
	(wire
		(pts
			(xy 140.97 68.58) (xy 125.73 68.58)
		)
		(stroke
			(width 0)
			(type default)
		)
		(uuid "4f5b88a6-5e19-41fb-b567-c96bb8cf0fa6")
	)
	(wire
		(pts
			(xy 140.97 71.12) (xy 140.97 68.58)
		)
		(stroke
			(width 0)
			(type default)
		)
		(uuid "568a6119-f6f8-43a0-8836-ae1040be5388")
	)
	(wire
		(pts
			(xy 137.16 73.66) (xy 140.97 73.66)
		)
		(stroke
			(width 0)
			(type default)
		)
		(uuid "5e9f5442-a9e0-4238-8304-9f7071b1d451")
	)
	(wire
		(pts
			(xy 139.7 78.74) (xy 140.97 78.74)
		)
		(stroke
			(width 0)
			(type default)
		)
		(uuid "628264dd-7b68-4ebe-b07a-5b36de58d4ea")
	)
	(wire
		(pts
			(xy 107.95 83.82) (xy 107.95 81.28)
		)
		(stroke
			(width 0)
			(type default)
		)
		(uuid "74e808d7-8017-4529-9722-23502425965c")
	)
	(wire
		(pts
			(xy 111.76 72.39) (xy 111.76 68.58)
		)
		(stroke
			(width 0)
			(type default)
		)
		(uuid "80d4d63c-26fd-4b3d-8595-3711490f96f2")
	)
	(wire
		(pts
			(xy 121.92 72.39) (xy 121.92 81.28)
		)
		(stroke
			(width 0)
			(type default)
		)
		(uuid "827550e6-4c57-45b1-b450-41c9fd54aef2")
	)
	(wire
		(pts
			(xy 140.97 76.2) (xy 138.43 76.2)
		)
		(stroke
			(width 0)
			(type default)
		)
		(uuid "89ce3c4b-f411-42a6-9289-9980824217ff")
	)
	(wire
		(pts
			(xy 125.73 72.39) (xy 125.73 68.58)
		)
		(stroke
			(width 0)
			(type default)
		)
		(uuid "8dfe97f5-af89-41c8-8dcd-5f937ea61f05")
	)
	(wire
		(pts
			(xy 137.16 82.55) (xy 137.16 73.66)
		)
		(stroke
			(width 0)
			(type default)
		)
		(uuid "93457a17-ee04-47d8-a486-3db8341de331")
	)
	(wire
		(pts
			(xy 138.43 83.82) (xy 107.95 83.82)
		)
		(stroke
			(width 0)
			(type default)
		)
		(uuid "afa6dceb-fc59-4086-a3da-8c417dfbf358")
	)
	(wire
		(pts
			(xy 111.76 81.28) (xy 111.76 82.55)
		)
		(stroke
			(width 0)
			(type default)
		)
		(uuid "b774d895-be1c-49a6-ab70-8362002bf375")
	)
	(wire
		(pts
			(xy 125.73 81.28) (xy 125.73 82.55)
		)
		(stroke
			(width 0)
			(type default)
		)
		(uuid "c7bfa4be-2cac-43e7-a7cc-4b63046b7f0b")
	)
	(wire
		(pts
			(xy 107.95 81.28) (xy 107.95 72.39)
		)
		(stroke
			(width 0)
			(type default)
		)
		(uuid "c89b167f-dbf6-4f4d-814f-55239ee48bdd")
	)
	(wire
		(pts
			(xy 121.92 85.09) (xy 139.7 85.09)
		)
		(stroke
			(width 0)
			(type default)
		)
		(uuid "cf207da1-6b0c-4312-a160-0a749e592b01")
	)
	(wire
		(pts
			(xy 121.92 81.28) (xy 121.92 85.09)
		)
		(stroke
			(width 0)
			(type default)
		)
		(uuid "d3489115-cd31-44a2-9360-8b38872e36fc")
	)
	(wire
		(pts
			(xy 138.43 76.2) (xy 138.43 83.82)
		)
		(stroke
			(width 0)
			(type default)
		)
		(uuid "dc6463c5-9786-4f80-b9b4-7e23ab26150c")
	)
	(wire
		(pts
			(xy 125.73 82.55) (xy 137.16 82.55)
		)
		(stroke
			(width 0)
			(type default)
		)
		(uuid "e01f1df8-3964-4c92-9dc4-169eb9888b85")
	)
	(wire
		(pts
			(xy 139.7 85.09) (xy 139.7 78.74)
		)
		(stroke
			(width 0)
			(type default)
		)
		(uuid "e03e544b-3e67-4ca8-8122-5a9eaad48aa1")
	)
	(wire
		(pts
			(xy 135.89 72.39) (xy 135.89 81.28)
		)
		(stroke
			(width 0)
			(type default)
		)
		(uuid "f5b57666-5e12-438d-bcde-77321ddf87d1")
	)
	(symbol
		(lib_id "M2-rescue:Conn_01x05_Female-Connector")
		(at 146.05 76.2 0)
		(unit 1)
		(exclude_from_sim no)
		(in_bom yes)
		(on_board yes)
		(dnp no)
		(uuid "00000000-0000-0000-0000-000061316ee8")
		(property "Reference" "J1"
			(at 146.7612 75.5396 0)
			(effects
				(font
					(size 1.27 1.27)
				)
				(justify left)
			)
		)
		(property "Value" "keyboard"
			(at 146.7612 77.851 0)
			(effects
				(font
					(size 1.27 1.27)
				)
				(justify left)
			)
		)
		(property "Footprint" "Connector_Molex:Molex_KK-254_AE-6410-05A_1x05_P2.54mm_Vertical"
			(at 146.05 76.2 0)
			(effects
				(font
					(size 1.27 1.27)
				)
				(hide yes)
			)
		)
		(property "Datasheet" "~"
			(at 146.05 76.2 0)
			(effects
				(font
					(size 1.27 1.27)
				)
				(hide yes)
			)
		)
		(property "Description" ""
			(at 146.05 76.2 0)
			(effects
				(font
					(size 1.27 1.27)
				)
				(hide yes)
			)
		)
		(pin "1"
			(uuid "287236e8-fb1d-4b79-96ce-37f574ceb6dd")
		)
		(pin "5"
			(uuid "82ee7590-6fcd-4662-bfbc-323957d46a80")
		)
		(pin "3"
			(uuid "630d6775-79a0-4871-be83-761e2800942c")
		)
		(pin "2"
			(uuid "16793538-43b8-486d-ab67-9ef7b2f75c17")
		)
		(pin "4"
			(uuid "e2231e07-91be-44e6-8fbb-da0a7b41b962")
		)
		(instances
			(project "M2"
				(path "/623604b6-261d-4e06-a51e-7d58ea33721b"
					(reference "J1")
					(unit 1)
				)
			)
		)
	)
	(symbol
		(lib_id "Switch:SW_Push")
		(at 116.84 72.39 0)
		(unit 1)
		(exclude_from_sim no)
		(in_bom yes)
		(on_board yes)
		(dnp no)
		(uuid "00000000-0000-0000-0000-000061355599")
		(property "Reference" "UP1"
			(at 116.84 65.151 0)
			(effects
				(font
					(size 1.27 1.27)
				)
			)
		)
		(property "Value" "SW_Push"
			(at 116.84 67.4624 0)
			(effects
				(font
					(size 1.27 1.27)
				)
			)
		)
		(property "Footprint" "Button_Switch_THT:SW_PUSH_6mm_H4.3mm"
			(at 116.84 67.31 0)
			(effects
				(font
					(size 1.27 1.27)
				)
				(hide yes)
			)
		)
		(property "Datasheet" "~"
			(at 116.84 67.31 0)
			(effects
				(font
					(size 1.27 1.27)
				)
				(hide yes)
			)
		)
		(property "Description" ""
			(at 116.84 72.39 0)
			(effects
				(font
					(size 1.27 1.27)
				)
				(hide yes)
			)
		)
		(pin "1"
			(uuid "6e439f5f-7a21-4163-9bf2-b747b396c1f7")
		)
		(pin "2"
			(uuid "6eebe2b5-f5c1-465d-9a9b-5731cb94cc16")
		)
		(instances
			(project "M2"
				(path "/623604b6-261d-4e06-a51e-7d58ea33721b"
					(reference "UP1")
					(unit 1)
				)
			)
		)
	)
	(symbol
		(lib_id "Switch:SW_Push")
		(at 102.87 72.39 0)
		(unit 1)
		(exclude_from_sim no)
		(in_bom yes)
		(on_board yes)
		(dnp no)
		(uuid "00000000-0000-0000-0000-00006135927b")
		(property "Reference" "BACK1"
			(at 102.87 65.151 0)
			(effects
				(font
					(size 1.27 1.27)
				)
			)
		)
		(property "Value" "SW_Push"
			(at 102.87 67.4624 0)
			(effects
				(font
					(size 1.27 1.27)
				)
			)
		)
		(property "Footprint" "Button_Switch_THT:SW_PUSH_6mm_H4.3mm"
			(at 102.87 67.4878 0)
			(effects
				(font
					(size 1.27 1.27)
				)
				(hide yes)
			)
		)
		(property "Datasheet" "~"
			(at 102.87 67.31 0)
			(effects
				(font
					(size 1.27 1.27)
				)
				(hide yes)
			)
		)
		(property "Description" ""
			(at 102.87 72.39 0)
			(effects
				(font
					(size 1.27 1.27)
				)
				(hide yes)
			)
		)
		(pin "2"
			(uuid "7471fbcd-6f0a-473e-9307-75e182612e53")
		)
		(pin "1"
			(uuid "82e92a27-d31f-4fa5-a47a-0502ca81ddb1")
		)
		(instances
			(project "M2"
				(path "/623604b6-261d-4e06-a51e-7d58ea33721b"
					(reference "BACK1")
					(unit 1)
				)
			)
		)
	)
	(symbol
		(lib_id "Switch:SW_Push")
		(at 130.81 72.39 0)
		(unit 1)
		(exclude_from_sim no)
		(in_bom yes)
		(on_board yes)
		(dnp no)
		(uuid "00000000-0000-0000-0000-0000613599cc")
		(property "Reference" "HOME1"
			(at 130.81 65.151 0)
			(effects
				(font
					(size 1.27 1.27)
				)
			)
		)
		(property "Value" "SW_Push"
			(at 130.81 67.4624 0)
			(effects
				(font
					(size 1.27 1.27)
				)
			)
		)
		(property "Footprint" "Button_Switch_THT:SW_PUSH_6mm_H4.3mm"
			(at 130.81 67.31 0)
			(effects
				(font
					(size 1.27 1.27)
				)
				(hide yes)
			)
		)
		(property "Datasheet" "~"
			(at 130.81 67.31 0)
			(effects
				(font
					(size 1.27 1.27)
				)
				(hide yes)
			)
		)
		(property "Description" ""
			(at 130.81 72.39 0)
			(effects
				(font
					(size 1.27 1.27)
				)
				(hide yes)
			)
		)
		(pin "1"
			(uuid "9240fe21-7aa1-4015-94e3-52acc357a459")
		)
		(pin "2"
			(uuid "faa5a305-ad44-4c1c-a80e-6f1d9b26f212")
		)
		(instances
			(project "M2"
				(path "/623604b6-261d-4e06-a51e-7d58ea33721b"
					(reference "HOME1")
					(unit 1)
				)
			)
		)
	)
	(symbol
		(lib_id "Switch:SW_Push")
		(at 102.87 81.28 0)
		(unit 1)
		(exclude_from_sim no)
		(in_bom yes)
		(on_board yes)
		(dnp no)
		(uuid "00000000-0000-0000-0000-00006135a06b")
		(property "Reference" "LEFT1"
			(at 102.87 74.041 0)
			(effects
				(font
					(size 1.27 1.27)
				)
			)
		)
		(property "Value" "SW_Push"
			(at 102.87 76.3524 0)
			(effects
				(font
					(size 1.27 1.27)
				)
			)
		)
		(property "Footprint" "Button_Switch_THT:SW_PUSH_6mm_H4.3mm"
			(at 102.87 76.2 0)
			(effects
				(font
					(size 1.27 1.27)
				)
				(hide yes)
			)
		)
		(property "Datasheet" "~"
			(at 102.87 76.2 0)
			(effects
				(font
					(size 1.27 1.27)
				)
				(hide yes)
			)
		)
		(property "Description" ""
			(at 102.87 81.28 0)
			(effects
				(font
					(size 1.27 1.27)
				)
				(hide yes)
			)
		)
		(pin "1"
			(uuid "56c93362-387d-425d-b0d0-bd4d760a5625")
		)
		(pin "2"
			(uuid "0f7a4bb5-3d22-4291-b1b2-856f2a416e20")
		)
		(instances
			(project "M2"
				(path "/623604b6-261d-4e06-a51e-7d58ea33721b"
					(reference "LEFT1")
					(unit 1)
				)
			)
		)
	)
	(symbol
		(lib_id "Switch:SW_Push")
		(at 116.84 81.28 0)
		(unit 1)
		(exclude_from_sim no)
		(in_bom yes)
		(on_board yes)
		(dnp no)
		(uuid "00000000-0000-0000-0000-00006135a671")
		(property "Reference" "DOWN1"
			(at 116.84 74.041 0)
			(effects
				(font
					(size 1.27 1.27)
				)
			)
		)
		(property "Value" "SW_Push"
			(at 116.84 76.3524 0)
			(effects
				(font
					(size 1.27 1.27)
				)
			)
		)
		(property "Footprint" "Button_Switch_THT:SW_PUSH_6mm_H4.3mm"
			(at 116.84 76.2 0)
			(effects
				(font
					(size 1.27 1.27)
				)
				(hide yes)
			)
		)
		(property "Datasheet" "~"
			(at 116.84 76.2 0)
			(effects
				(font
					(size 1.27 1.27)
				)
				(hide yes)
			)
		)
		(property "Description" ""
			(at 116.84 81.28 0)
			(effects
				(font
					(size 1.27 1.27)
				)
				(hide yes)
			)
		)
		(pin "1"
			(uuid "c408fc37-6dba-4bc7-aab7-52f31f2e61ed")
		)
		(pin "2"
			(uuid "8afed4b5-a02b-4bd8-ab6f-87368ab72d9c")
		)
		(instances
			(project "M2"
				(path "/623604b6-261d-4e06-a51e-7d58ea33721b"
					(reference "DOWN1")
					(unit 1)
				)
			)
		)
	)
	(symbol
		(lib_id "Switch:SW_Push")
		(at 130.81 81.28 0)
		(unit 1)
		(exclude_from_sim no)
		(in_bom yes)
		(on_board yes)
		(dnp no)
		(uuid "00000000-0000-0000-0000-00006135ac5b")
		(property "Reference" "RIGHT1"
			(at 130.81 74.041 0)
			(effects
				(font
					(size 1.27 1.27)
				)
			)
		)
		(property "Value" "SW_Push"
			(at 130.81 76.3524 0)
			(effects
				(font
					(size 1.27 1.27)
				)
			)
		)
		(property "Footprint" "Button_Switch_THT:SW_PUSH_6mm_H4.3mm"
			(at 130.81 76.2 0)
			(effects
				(font
					(size 1.27 1.27)
				)
				(hide yes)
			)
		)
		(property "Datasheet" "~"
			(at 130.81 76.2 0)
			(effects
				(font
					(size 1.27 1.27)
				)
				(hide yes)
			)
		)
		(property "Description" ""
			(at 130.81 81.28 0)
			(effects
				(font
					(size 1.27 1.27)
				)
				(hide yes)
			)
		)
		(pin "1"
			(uuid "f7222370-84bf-4690-a92d-b15ddb68db95")
		)
		(pin "2"
			(uuid "dabcac23-5175-4c25-bf90-1db1729607ef")
		)
		(instances
			(project "M2"
				(path "/623604b6-261d-4e06-a51e-7d58ea33721b"
					(reference "RIGHT1")
					(unit 1)
				)
			)
		)
	)
	(sheet_instances
		(path "/"
			(page "1")
		)
	)
)
