(module INA219 (layer F.Cu) (tedit 62080B3A)
  (fp_text reference REF** (at 0.127 -12.192) (layer F.SilkS)
    (effects (font (size 1 1) (thickness 0.15)))
  )
  (fp_text value INA219 (at 0 12.192) (layer F.Fab)
    (effects (font (size 1 1) (thickness 0.15)))
  )
  (fp_line (start -12.5 -11.2) (end 12.5 -11.2) (layer F.SilkS) (width 0.12))
  (fp_line (start 12.5 -11.2) (end 12.5 11.2) (layer F.SilkS) (width 0.12))
  (fp_line (start 12.5 11.2) (end -12.5 11.2) (layer F.SilkS) (width 0.12))
  (fp_line (start -12.5 11.2) (end -12.5 -11.2) (layer F.SilkS) (width 0.12))
  (fp_line (start -7.5 7.2) (end 7.5 7.2) (layer F.SilkS) (width 0.12))
  (fp_line (start 7.62 7.2) (end 7.62 9.7) (layer F.SilkS) (width 0.12))
  (fp_line (start 7.5 9.7) (end -7.5 9.7) (layer F.SilkS) (width 0.12))
  (fp_line (start -7.62 9.7) (end -7.62 7.2) (layer F.SilkS) (width 0.12))
  (fp_line (start 5.08 7.2) (end 5.08 9.7) (layer F.SilkS) (width 0.12))
  (fp_line (start 2.54 7.2) (end 2.54 9.7) (layer F.SilkS) (width 0.12))
  (fp_line (start 0 7.2) (end 0 9.7) (layer F.SilkS) (width 0.12))
  (fp_line (start -2.54 7.2) (end -2.54 9.7) (layer F.SilkS) (width 0.12))
  (fp_line (start -5.08 7.2) (end -5.08 9.7) (layer F.SilkS) (width 0.12))
  (fp_text user Vcc (at -6.25 5.5 90) (layer F.SilkS)
    (effects (font (size 1 1) (thickness 0.15)))
  )
  (fp_text user Gnd (at -3.75 5.5 90) (layer F.SilkS)
    (effects (font (size 1 1) (thickness 0.15)))
  )
  (fp_text user SCL (at -1.25 5.5 90) (layer F.SilkS)
    (effects (font (size 1 1) (thickness 0.15)))
  )
  (fp_text user SDA (at 1.25 5.5 90) (layer F.SilkS)
    (effects (font (size 1 1) (thickness 0.15)))
  )
  (fp_text user Vin- (at 3.75 5.1 90) (layer F.SilkS)
    (effects (font (size 1 1) (thickness 0.15)))
  )
  (fp_text user Vin+ (at 6.25 5.1 90) (layer F.SilkS)
    (effects (font (size 1 1) (thickness 0.15)))
  )
  (fp_text user "Current and Voltage" (at 0 -0.762) (layer F.SilkS)
    (effects (font (size 1 1) (thickness 0.15)))
  )
  (fp_text user Sensor (at 0 0.762) (layer F.SilkS)
    (effects (font (size 1 1) (thickness 0.15)))
  )
  (fp_line (start -3.81 -8.636) (end -3.81 -5.461) (layer F.SilkS) (width 0.12))
  (fp_line (start -3.81 -5.461) (end 3.81 -5.461) (layer F.SilkS) (width 0.12))
  (fp_line (start 3.81 -5.461) (end 3.81 -8.636) (layer F.SilkS) (width 0.12))
  (fp_line (start 3.81 -8.636) (end -3.81 -8.636) (layer F.SilkS) (width 0.12))
  (fp_text user "R Shunt" (at 0 -6.985) (layer F.SilkS)
    (effects (font (size 1 1) (thickness 0.15)))
  )
  (pad 1 thru_hole circle (at -6.35 8.45) (size 1.2 1.2) (drill 0.6) (layers *.Cu *.Mask))
  (pad 2 thru_hole circle (at -3.81 8.45) (size 1.2 1.2) (drill 0.6) (layers *.Cu *.Mask))
  (pad 3 thru_hole circle (at -1.27 8.45) (size 1.2 1.2) (drill 0.6) (layers *.Cu *.Mask))
  (pad 4 thru_hole circle (at 1.27 8.45) (size 1.2 1.2) (drill 0.6) (layers *.Cu *.Mask))
  (pad 5 thru_hole circle (at 3.81 8.45) (size 1.2 1.2) (drill 0.6) (layers *.Cu *.Mask))
  (pad 6 thru_hole circle (at 6.35 8.45) (size 1.2 1.2) (drill 0.6) (layers *.Cu *.Mask))
  (model "${KIPRJMOD}/3d/ina219-dc-current-sensor-1.snapshot.3/CJMCU-219 INA219.step"
    (offset (xyz -12.5 -11 6.5))
    (scale (xyz 1 1 1))
    (rotate (xyz -90 0 0))
  )
  (model ${KISYS3DMOD}/Connector_PinHeader_2.54mm.3dshapes/PinHeader_1x06_P2.54mm_Vertical.step
    (offset (xyz -6.38 -8.449999999999999 0))
    (scale (xyz 1 1 1))
    (rotate (xyz 0 0 -90))
  )
  (model "/home/marianovat/archivos/CIII/Boroscope/hardware/PCB/3d/ina219-dc-current-sensor-1.snapshot.3/CJMCU-219 INA219 v13.iges"
    (offset (xyz -12.5 -11.5 6.5))
    (scale (xyz 1 1 1))
    (rotate (xyz -90 0 0))
  )
)
