(kicad_sch
	(version 20231120)
	(generator "eeschema")
	(generator_version "8.0")
	(uuid "0becb3bb-15b7-4841-80da-002807de404b")
	(paper "A4")
	(lib_symbols
		(symbol "Connector_Generic:Conn_02x06_Odd_Even"
			(pin_names
				(offset 1.016) hide)
			(exclude_from_sim no)
			(in_bom yes)
			(on_board yes)
			(property "Reference" "J"
				(at 1.27 7.62 0)
				(effects
					(font
						(size 1.27 1.27)
					)
				)
			)
			(property "Value" "Conn_02x06_Odd_Even"
				(at 1.27 -10.16 0)
				(effects
					(font
						(size 1.27 1.27)
					)
				)
			)
			(property "Footprint" ""
				(at 0 0 0)
				(effects
					(font
						(size 1.27 1.27)
					)
					(hide yes)
				)
			)
			(property "Datasheet" "~"
				(at 0 0 0)
				(effects
					(font
						(size 1.27 1.27)
					)
					(hide yes)
				)
			)
			(property "Description" "Generic connector, double row, 02x06, odd/even pin numbering scheme (row 1 odd numbers, row 2 even numbers), script generated (kicad-library-utils/schlib/autogen/connector/)"
				(at 0 0 0)
				(effects
					(font
						(size 1.27 1.27)
					)
					(hide yes)
				)
			)
			(property "ki_keywords" "connector"
				(at 0 0 0)
				(effects
					(font
						(size 1.27 1.27)
					)
					(hide yes)
				)
			)
			(property "ki_fp_filters" "Connector*:*_2x??_*"
				(at 0 0 0)
				(effects
					(font
						(size 1.27 1.27)
					)
					(hide yes)
				)
			)
			(symbol "Conn_02x06_Odd_Even_1_1"
				(rectangle
					(start -1.27 -7.493)
					(end 0 -7.747)
					(stroke
						(width 0.1524)
						(type default)
					)
					(fill
						(type none)
					)
				)
				(rectangle
					(start -1.27 -4.953)
					(end 0 -5.207)
					(stroke
						(width 0.1524)
						(type default)
					)
					(fill
						(type none)
					)
				)
				(rectangle
					(start -1.27 -2.413)
					(end 0 -2.667)
					(stroke
						(width 0.1524)
						(type default)
					)
					(fill
						(type none)
					)
				)
				(rectangle
					(start -1.27 0.127)
					(end 0 -0.127)
					(stroke
						(width 0.1524)
						(type default)
					)
					(fill
						(type none)
					)
				)
				(rectangle
					(start -1.27 2.667)
					(end 0 2.413)
					(stroke
						(width 0.1524)
						(type default)
					)
					(fill
						(type none)
					)
				)
				(rectangle
					(start -1.27 5.207)
					(end 0 4.953)
					(stroke
						(width 0.1524)
						(type default)
					)
					(fill
						(type none)
					)
				)
				(rectangle
					(start -1.27 6.35)
					(end 3.81 -8.89)
					(stroke
						(width 0.254)
						(type default)
					)
					(fill
						(type background)
					)
				)
				(rectangle
					(start 3.81 -7.493)
					(end 2.54 -7.747)
					(stroke
						(width 0.1524)
						(type default)
					)
					(fill
						(type none)
					)
				)
				(rectangle
					(start 3.81 -4.953)
					(end 2.54 -5.207)
					(stroke
						(width 0.1524)
						(type default)
					)
					(fill
						(type none)
					)
				)
				(rectangle
					(start 3.81 -2.413)
					(end 2.54 -2.667)
					(stroke
						(width 0.1524)
						(type default)
					)
					(fill
						(type none)
					)
				)
				(rectangle
					(start 3.81 0.127)
					(end 2.54 -0.127)
					(stroke
						(width 0.1524)
						(type default)
					)
					(fill
						(type none)
					)
				)
				(rectangle
					(start 3.81 2.667)
					(end 2.54 2.413)
					(stroke
						(width 0.1524)
						(type default)
					)
					(fill
						(type none)
					)
				)
				(rectangle
					(start 3.81 5.207)
					(end 2.54 4.953)
					(stroke
						(width 0.1524)
						(type default)
					)
					(fill
						(type none)
					)
				)
				(pin passive line
					(at -5.08 5.08 0)
					(length 3.81)
					(name "Pin_1"
						(effects
							(font
								(size 1.27 1.27)
							)
						)
					)
					(number "1"
						(effects
							(font
								(size 1.27 1.27)
							)
						)
					)
				)
				(pin passive line
					(at 7.62 -5.08 180)
					(length 3.81)
					(name "Pin_10"
						(effects
							(font
								(size 1.27 1.27)
							)
						)
					)
					(number "10"
						(effects
							(font
								(size 1.27 1.27)
							)
						)
					)
				)
				(pin passive line
					(at -5.08 -7.62 0)
					(length 3.81)
					(name "Pin_11"
						(effects
							(font
								(size 1.27 1.27)
							)
						)
					)
					(number "11"
						(effects
							(font
								(size 1.27 1.27)
							)
						)
					)
				)
				(pin passive line
					(at 7.62 -7.62 180)
					(length 3.81)
					(name "Pin_12"
						(effects
							(font
								(size 1.27 1.27)
							)
						)
					)
					(number "12"
						(effects
							(font
								(size 1.27 1.27)
							)
						)
					)
				)
				(pin passive line
					(at 7.62 5.08 180)
					(length 3.81)
					(name "Pin_2"
						(effects
							(font
								(size 1.27 1.27)
							)
						)
					)
					(number "2"
						(effects
							(font
								(size 1.27 1.27)
							)
						)
					)
				)
				(pin passive line
					(at -5.08 2.54 0)
					(length 3.81)
					(name "Pin_3"
						(effects
							(font
								(size 1.27 1.27)
							)
						)
					)
					(number "3"
						(effects
							(font
								(size 1.27 1.27)
							)
						)
					)
				)
				(pin passive line
					(at 7.62 2.54 180)
					(length 3.81)
					(name "Pin_4"
						(effects
							(font
								(size 1.27 1.27)
							)
						)
					)
					(number "4"
						(effects
							(font
								(size 1.27 1.27)
							)
						)
					)
				)
				(pin passive line
					(at -5.08 0 0)
					(length 3.81)
					(name "Pin_5"
						(effects
							(font
								(size 1.27 1.27)
							)
						)
					)
					(number "5"
						(effects
							(font
								(size 1.27 1.27)
							)
						)
					)
				)
				(pin passive line
					(at 7.62 0 180)
					(length 3.81)
					(name "Pin_6"
						(effects
							(font
								(size 1.27 1.27)
							)
						)
					)
					(number "6"
						(effects
							(font
								(size 1.27 1.27)
							)
						)
					)
				)
				(pin passive line
					(at -5.08 -2.54 0)
					(length 3.81)
					(name "Pin_7"
						(effects
							(font
								(size 1.27 1.27)
							)
						)
					)
					(number "7"
						(effects
							(font
								(size 1.27 1.27)
							)
						)
					)
				)
				(pin passive line
					(at 7.62 -2.54 180)
					(length 3.81)
					(name "Pin_8"
						(effects
							(font
								(size 1.27 1.27)
							)
						)
					)
					(number "8"
						(effects
							(font
								(size 1.27 1.27)
							)
						)
					)
				)
				(pin passive line
					(at -5.08 -5.08 0)
					(length 3.81)
					(name "Pin_9"
						(effects
							(font
								(size 1.27 1.27)
							)
						)
					)
					(number "9"
						(effects
							(font
								(size 1.27 1.27)
							)
						)
					)
				)
			)
		)
		(symbol "Mechanical:MountingHole"
			(pin_names
				(offset 1.016)
			)
			(exclude_from_sim yes)
			(in_bom no)
			(on_board yes)
			(property "Reference" "H"
				(at 0 5.08 0)
				(effects
					(font
						(size 1.27 1.27)
					)
				)
			)
			(property "Value" "MountingHole"
				(at 0 3.175 0)
				(effects
					(font
						(size 1.27 1.27)
					)
				)
			)
			(property "Footprint" ""
				(at 0 0 0)
				(effects
					(font
						(size 1.27 1.27)
					)
					(hide yes)
				)
			)
			(property "Datasheet" "~"
				(at 0 0 0)
				(effects
					(font
						(size 1.27 1.27)
					)
					(hide yes)
				)
			)
			(property "Description" "Mounting Hole without connection"
				(at 0 0 0)
				(effects
					(font
						(size 1.27 1.27)
					)
					(hide yes)
				)
			)
			(property "ki_keywords" "mounting hole"
				(at 0 0 0)
				(effects
					(font
						(size 1.27 1.27)
					)
					(hide yes)
				)
			)
			(property "ki_fp_filters" "MountingHole*"
				(at 0 0 0)
				(effects
					(font
						(size 1.27 1.27)
					)
					(hide yes)
				)
			)
			(symbol "MountingHole_0_1"
				(circle
					(center 0 0)
					(radius 1.27)
					(stroke
						(width 1.27)
						(type default)
					)
					(fill
						(type none)
					)
				)
			)
		)
		(symbol "my_pretty_components:xl4005"
			(exclude_from_sim no)
			(in_bom yes)
			(on_board yes)
			(property "Reference" "U1"
				(at 0 0 0)
				(effects
					(font
						(size 1.27 1.27)
					)
				)
			)
			(property "Value" "~"
				(at 0 3.81 0)
				(effects
					(font
						(size 1.27 1.27)
					)
				)
			)
			(property "Footprint" "my_pretty_componets:XL4016"
				(at -1.27 0 0)
				(effects
					(font
						(size 1.27 1.27)
					)
					(hide yes)
				)
			)
			(property "Datasheet" ""
				(at -1.27 0 0)
				(effects
					(font
						(size 1.27 1.27)
					)
					(hide yes)
				)
			)
			(property "Description" ""
				(at -1.27 0 0)
				(effects
					(font
						(size 1.27 1.27)
					)
					(hide yes)
				)
			)
			(symbol "xl4005_0_1"
				(rectangle
					(start -16.51 6.35)
					(end 16.51 -6.35)
					(stroke
						(width 0)
						(type default)
					)
					(fill
						(type none)
					)
				)
				(rectangle
					(start 0 -1.27)
					(end 0 -1.27)
					(stroke
						(width 0)
						(type default)
					)
					(fill
						(type none)
					)
				)
			)
			(symbol "xl4005_1_1"
				(pin input line
					(at -19.05 3.81 0)
					(length 2.54)
					(name "IN+"
						(effects
							(font
								(size 1.27 1.27)
							)
						)
					)
					(number "1"
						(effects
							(font
								(size 1.27 1.27)
							)
						)
					)
				)
				(pin input line
					(at -19.05 -2.54 0)
					(length 2.54)
					(name "IN-"
						(effects
							(font
								(size 1.27 1.27)
							)
						)
					)
					(number "2"
						(effects
							(font
								(size 1.27 1.27)
							)
						)
					)
				)
				(pin output line
					(at 19.05 3.81 180)
					(length 2.54)
					(name "OUT+"
						(effects
							(font
								(size 1.27 1.27)
							)
						)
					)
					(number "3"
						(effects
							(font
								(size 1.27 1.27)
							)
						)
					)
				)
				(pin output line
					(at 19.05 -3.81 180)
					(length 2.54)
					(name "OUT-"
						(effects
							(font
								(size 1.27 1.27)
							)
						)
					)
					(number "4"
						(effects
							(font
								(size 1.27 1.27)
							)
						)
					)
				)
			)
		)
		(symbol "power:GND"
			(power)
			(pin_numbers hide)
			(pin_names
				(offset 0) hide)
			(exclude_from_sim no)
			(in_bom yes)
			(on_board yes)
			(property "Reference" "#PWR"
				(at 0 -6.35 0)
				(effects
					(font
						(size 1.27 1.27)
					)
					(hide yes)
				)
			)
			(property "Value" "GND"
				(at 0 -3.81 0)
				(effects
					(font
						(size 1.27 1.27)
					)
				)
			)
			(property "Footprint" ""
				(at 0 0 0)
				(effects
					(font
						(size 1.27 1.27)
					)
					(hide yes)
				)
			)
			(property "Datasheet" ""
				(at 0 0 0)
				(effects
					(font
						(size 1.27 1.27)
					)
					(hide yes)
				)
			)
			(property "Description" "Power symbol creates a global label with name \"GND\" , ground"
				(at 0 0 0)
				(effects
					(font
						(size 1.27 1.27)
					)
					(hide yes)
				)
			)
			(property "ki_keywords" "global power"
				(at 0 0 0)
				(effects
					(font
						(size 1.27 1.27)
					)
					(hide yes)
				)
			)
			(symbol "GND_0_1"
				(polyline
					(pts
						(xy 0 0) (xy 0 -1.27) (xy 1.27 -1.27) (xy 0 -2.54) (xy -1.27 -1.27) (xy 0 -1.27)
					)
					(stroke
						(width 0)
						(type default)
					)
					(fill
						(type none)
					)
				)
			)
			(symbol "GND_1_1"
				(pin power_in line
					(at 0 0 270)
					(length 0)
					(name "~"
						(effects
							(font
								(size 1.27 1.27)
							)
						)
					)
					(number "1"
						(effects
							(font
								(size 1.27 1.27)
							)
						)
					)
				)
			)
		)
		(symbol "power:VCC"
			(power)
			(pin_numbers hide)
			(pin_names
				(offset 0) hide)
			(exclude_from_sim no)
			(in_bom yes)
			(on_board yes)
			(property "Reference" "#PWR"
				(at 0 -3.81 0)
				(effects
					(font
						(size 1.27 1.27)
					)
					(hide yes)
				)
			)
			(property "Value" "VCC"
				(at 0 3.556 0)
				(effects
					(font
						(size 1.27 1.27)
					)
				)
			)
			(property "Footprint" ""
				(at 0 0 0)
				(effects
					(font
						(size 1.27 1.27)
					)
					(hide yes)
				)
			)
			(property "Datasheet" ""
				(at 0 0 0)
				(effects
					(font
						(size 1.27 1.27)
					)
					(hide yes)
				)
			)
			(property "Description" "Power symbol creates a global label with name \"VCC\""
				(at 0 0 0)
				(effects
					(font
						(size 1.27 1.27)
					)
					(hide yes)
				)
			)
			(property "ki_keywords" "global power"
				(at 0 0 0)
				(effects
					(font
						(size 1.27 1.27)
					)
					(hide yes)
				)
			)
			(symbol "VCC_0_1"
				(polyline
					(pts
						(xy -0.762 1.27) (xy 0 2.54)
					)
					(stroke
						(width 0)
						(type default)
					)
					(fill
						(type none)
					)
				)
				(polyline
					(pts
						(xy 0 0) (xy 0 2.54)
					)
					(stroke
						(width 0)
						(type default)
					)
					(fill
						(type none)
					)
				)
				(polyline
					(pts
						(xy 0 2.54) (xy 0.762 1.27)
					)
					(stroke
						(width 0)
						(type default)
					)
					(fill
						(type none)
					)
				)
			)
			(symbol "VCC_1_1"
				(pin power_in line
					(at 0 0 90)
					(length 0)
					(name "~"
						(effects
							(font
								(size 1.27 1.27)
							)
						)
					)
					(number "1"
						(effects
							(font
								(size 1.27 1.27)
							)
						)
					)
				)
			)
		)
	)
	(junction
		(at 78.74 139.7)
		(diameter 0)
		(color 0 0 0 0)
		(uuid "0884d10e-d5cc-40d9-af6f-2af8921bb5fe")
	)
	(junction
		(at 78.74 132.08)
		(diameter 0)
		(color 0 0 0 0)
		(uuid "092dfe6e-f442-49d1-a3a5-448d882f06dc")
	)
	(junction
		(at 201.93 139.7)
		(diameter 0)
		(color 0 0 0 0)
		(uuid "0bd85fab-3f63-493e-bcf6-4a81ad5a3d97")
	)
	(junction
		(at 181.61 139.7)
		(diameter 0)
		(color 0 0 0 0)
		(uuid "162d7ea4-18f5-4b79-ab5c-884fd3be1ac2")
	)
	(junction
		(at 201.93 132.08)
		(diameter 0)
		(color 0 0 0 0)
		(uuid "2d8c1c78-de7f-45f2-b4d8-66ce79e53698")
	)
	(junction
		(at 181.61 129.54)
		(diameter 0)
		(color 0 0 0 0)
		(uuid "4d6992b6-c880-447f-8a90-e4e1561239c5")
	)
	(junction
		(at 201.93 142.24)
		(diameter 0)
		(color 0 0 0 0)
		(uuid "4fde516d-cf3f-4d79-bd2d-51f441df9573")
	)
	(junction
		(at 181.61 142.24)
		(diameter 0)
		(color 0 0 0 0)
		(uuid "5127092d-47d9-48ae-9128-0613bf5c8bae")
	)
	(junction
		(at 78.74 142.24)
		(diameter 0)
		(color 0 0 0 0)
		(uuid "93a87a91-8495-4068-9019-5de9e3b0b89e")
	)
	(junction
		(at 58.42 142.24)
		(diameter 0)
		(color 0 0 0 0)
		(uuid "9dd9e883-c07d-4879-b4ca-259bb4d9ea5f")
	)
	(junction
		(at 201.93 129.54)
		(diameter 0)
		(color 0 0 0 0)
		(uuid "a6b207c8-66ea-4d0c-a16a-83c5bf62df0b")
	)
	(junction
		(at 58.42 132.08)
		(diameter 0)
		(color 0 0 0 0)
		(uuid "ce96c4fb-f612-47b4-b179-82551514d5ca")
	)
	(junction
		(at 58.42 129.54)
		(diameter 0)
		(color 0 0 0 0)
		(uuid "d69708c6-0c8b-480c-9d24-717986a1d44b")
	)
	(junction
		(at 78.74 129.54)
		(diameter 0)
		(color 0 0 0 0)
		(uuid "e1cdc2b9-0cd8-4153-9a7e-dda72c728bf1")
	)
	(junction
		(at 58.42 139.7)
		(diameter 0)
		(color 0 0 0 0)
		(uuid "e951639a-ca36-4352-b58a-1d789aafdc8f")
	)
	(junction
		(at 181.61 132.08)
		(diameter 0)
		(color 0 0 0 0)
		(uuid "fcce77cb-45f6-4bb0-807b-61e375ef4e4a")
	)
	(wire
		(pts
			(xy 198.12 139.7) (xy 201.93 139.7)
		)
		(stroke
			(width 0)
			(type default)
		)
		(uuid "052913e0-48a8-4587-95f9-67729867a2d0")
	)
	(wire
		(pts
			(xy 58.42 134.62) (xy 58.42 132.08)
		)
		(stroke
			(width 0)
			(type default)
		)
		(uuid "1232b331-a9f1-4a81-9163-f1ad9e3d6acc")
	)
	(wire
		(pts
			(xy 185.42 134.62) (xy 181.61 134.62)
		)
		(stroke
			(width 0)
			(type default)
		)
		(uuid "12a0c50c-51ad-4766-bea0-0df784944076")
	)
	(wire
		(pts
			(xy 78.74 128.27) (xy 78.74 129.54)
		)
		(stroke
			(width 0)
			(type default)
		)
		(uuid "17322865-fcec-4f36-8ef2-628682a1526e")
	)
	(wire
		(pts
			(xy 62.23 142.24) (xy 58.42 142.24)
		)
		(stroke
			(width 0)
			(type default)
		)
		(uuid "18ddd881-2b5f-4b70-b21c-a47adbcb4513")
	)
	(wire
		(pts
			(xy 181.61 139.7) (xy 181.61 142.24)
		)
		(stroke
			(width 0)
			(type default)
		)
		(uuid "1d2ab6c9-8950-4f91-985d-4ef65e672443")
	)
	(wire
		(pts
			(xy 78.74 139.7) (xy 78.74 142.24)
		)
		(stroke
			(width 0)
			(type default)
		)
		(uuid "21b406a1-41a2-42ef-b363-078ec10af7ae")
	)
	(wire
		(pts
			(xy 58.42 129.54) (xy 62.23 129.54)
		)
		(stroke
			(width 0)
			(type default)
		)
		(uuid "22c70642-6623-444f-82f1-7a2fa1b4d3e7")
	)
	(wire
		(pts
			(xy 62.23 132.08) (xy 58.42 132.08)
		)
		(stroke
			(width 0)
			(type default)
		)
		(uuid "264611e2-b61d-473d-bb5b-92b36a49389a")
	)
	(wire
		(pts
			(xy 181.61 134.62) (xy 181.61 132.08)
		)
		(stroke
			(width 0)
			(type default)
		)
		(uuid "29ab4bbd-a75b-4fcb-bef1-d3b77e18518c")
	)
	(wire
		(pts
			(xy 181.61 139.7) (xy 185.42 139.7)
		)
		(stroke
			(width 0)
			(type default)
		)
		(uuid "2ccbc0c9-72bd-4db9-971a-227e1a8a83f4")
	)
	(bus
		(pts
			(xy 36.83 113.03) (xy 36.83 147.32)
		)
		(stroke
			(width 0)
			(type default)
		)
		(uuid "2e3d2511-cd11-40d3-ba59-a116d865d3de")
	)
	(wire
		(pts
			(xy 58.42 142.24) (xy 58.42 143.51)
		)
		(stroke
			(width 0)
			(type default)
		)
		(uuid "32776e0e-055b-4f54-84e7-0f9314e42f02")
	)
	(wire
		(pts
			(xy 99.06 86.36) (xy 99.06 88.9)
		)
		(stroke
			(width 0)
			(type default)
		)
		(uuid "36f23cc1-6a68-4e58-8f2a-9cc920282978")
	)
	(wire
		(pts
			(xy 185.42 132.08) (xy 181.61 132.08)
		)
		(stroke
			(width 0)
			(type default)
		)
		(uuid "3b3320c9-3fbb-4bfd-9588-095bf2ff92ff")
	)
	(wire
		(pts
			(xy 198.12 129.54) (xy 201.93 129.54)
		)
		(stroke
			(width 0)
			(type default)
		)
		(uuid "3e5846f0-6621-4c86-beb0-0d5b6f12149d")
	)
	(wire
		(pts
			(xy 74.93 134.62) (xy 78.74 134.62)
		)
		(stroke
			(width 0)
			(type default)
		)
		(uuid "418e5b11-2595-44e7-aade-6ac63b504251")
	)
	(wire
		(pts
			(xy 74.93 129.54) (xy 78.74 129.54)
		)
		(stroke
			(width 0)
			(type default)
		)
		(uuid "49a66515-ec78-4b1b-a86a-60efe8bcf2c7")
	)
	(wire
		(pts
			(xy 143.51 88.9) (xy 143.51 86.36)
		)
		(stroke
			(width 0)
			(type default)
		)
		(uuid "4a5ce4e3-4ad6-4e19-902b-7665af6403c1")
	)
	(wire
		(pts
			(xy 198.12 134.62) (xy 201.93 134.62)
		)
		(stroke
			(width 0)
			(type default)
		)
		(uuid "4cb2af89-c176-4b27-994a-f3c18d6d9176")
	)
	(wire
		(pts
			(xy 99.06 88.9) (xy 102.87 88.9)
		)
		(stroke
			(width 0)
			(type default)
		)
		(uuid "4d9c8388-b512-4c4a-89ab-7681a8cc8ca5")
	)
	(wire
		(pts
			(xy 78.74 142.24) (xy 78.74 143.51)
		)
		(stroke
			(width 0)
			(type default)
		)
		(uuid "505851ae-7712-479e-92ba-acac13ccb92e")
	)
	(wire
		(pts
			(xy 143.51 99.06) (xy 143.51 96.52)
		)
		(stroke
			(width 0)
			(type default)
		)
		(uuid "548e153b-e8fe-41fb-974d-b469d243680c")
	)
	(wire
		(pts
			(xy 185.42 142.24) (xy 181.61 142.24)
		)
		(stroke
			(width 0)
			(type default)
		)
		(uuid "5b1d8f47-7064-42f1-b75f-7b02cfacf3ac")
	)
	(wire
		(pts
			(xy 58.42 132.08) (xy 58.42 129.54)
		)
		(stroke
			(width 0)
			(type default)
		)
		(uuid "669d4b95-d4c1-4c9e-913a-1579671ae5f5")
	)
	(wire
		(pts
			(xy 181.61 128.27) (xy 181.61 129.54)
		)
		(stroke
			(width 0)
			(type default)
		)
		(uuid "6d411c9b-d736-49a5-b581-3aa9ab3462cd")
	)
	(wire
		(pts
			(xy 74.93 132.08) (xy 78.74 132.08)
		)
		(stroke
			(width 0)
			(type default)
		)
		(uuid "6ecbac27-f16f-4f3e-a071-b9297a736910")
	)
	(wire
		(pts
			(xy 185.42 137.16) (xy 181.61 137.16)
		)
		(stroke
			(width 0)
			(type default)
		)
		(uuid "76591ba1-f66a-4b0b-9ba5-a1561f9e4d63")
	)
	(wire
		(pts
			(xy 198.12 137.16) (xy 201.93 137.16)
		)
		(stroke
			(width 0)
			(type default)
		)
		(uuid "7c6b74fe-6fb2-44e7-b44b-bb6e2a2ef456")
	)
	(wire
		(pts
			(xy 78.74 137.16) (xy 78.74 139.7)
		)
		(stroke
			(width 0)
			(type default)
		)
		(uuid "86a3ccae-b161-4efa-9dfe-826126cc5bfe")
	)
	(wire
		(pts
			(xy 181.61 132.08) (xy 181.61 129.54)
		)
		(stroke
			(width 0)
			(type default)
		)
		(uuid "893354d9-f1e3-432c-b477-b4664adda799")
	)
	(wire
		(pts
			(xy 74.93 139.7) (xy 78.74 139.7)
		)
		(stroke
			(width 0)
			(type default)
		)
		(uuid "89ef7228-7803-4506-b33d-40e1da9c7f9f")
	)
	(wire
		(pts
			(xy 201.93 134.62) (xy 201.93 132.08)
		)
		(stroke
			(width 0)
			(type default)
		)
		(uuid "8ecded01-ec1d-4483-ab5c-1ba57b388b92")
	)
	(wire
		(pts
			(xy 74.93 137.16) (xy 78.74 137.16)
		)
		(stroke
			(width 0)
			(type default)
		)
		(uuid "937e8df1-74d8-4b9c-a323-3063770e7b82")
	)
	(wire
		(pts
			(xy 201.93 142.24) (xy 201.93 143.51)
		)
		(stroke
			(width 0)
			(type default)
		)
		(uuid "98df94c1-fc1a-4ad6-bc7b-bd0795007caa")
	)
	(wire
		(pts
			(xy 58.42 137.16) (xy 58.42 139.7)
		)
		(stroke
			(width 0)
			(type default)
		)
		(uuid "9d2e67e0-a14f-482f-9b8a-a13cc2b55fd3")
	)
	(wire
		(pts
			(xy 181.61 137.16) (xy 181.61 139.7)
		)
		(stroke
			(width 0)
			(type default)
		)
		(uuid "9dce85ad-30fa-46fe-895d-b588bb03837e")
	)
	(wire
		(pts
			(xy 198.12 142.24) (xy 201.93 142.24)
		)
		(stroke
			(width 0)
			(type default)
		)
		(uuid "9dddc287-ae0a-4a92-93c7-8a0fff8f1278")
	)
	(wire
		(pts
			(xy 78.74 132.08) (xy 78.74 129.54)
		)
		(stroke
			(width 0)
			(type default)
		)
		(uuid "9f1e3e23-712f-4ab7-bb0a-2134b5acb941")
	)
	(wire
		(pts
			(xy 62.23 134.62) (xy 58.42 134.62)
		)
		(stroke
			(width 0)
			(type default)
		)
		(uuid "ad21c996-063a-4fb2-87b2-e95591d1e9f8")
	)
	(wire
		(pts
			(xy 140.97 96.52) (xy 143.51 96.52)
		)
		(stroke
			(width 0)
			(type default)
		)
		(uuid "b0769fc0-d7de-4d36-b4a2-dea5d842387b")
	)
	(wire
		(pts
			(xy 58.42 139.7) (xy 58.42 142.24)
		)
		(stroke
			(width 0)
			(type default)
		)
		(uuid "b12e9290-33a7-4eaf-9e00-80fd7a438eb2")
	)
	(wire
		(pts
			(xy 58.42 139.7) (xy 62.23 139.7)
		)
		(stroke
			(width 0)
			(type default)
		)
		(uuid "b283e867-4349-4f03-8fcb-4872547fb395")
	)
	(wire
		(pts
			(xy 201.93 139.7) (xy 201.93 142.24)
		)
		(stroke
			(width 0)
			(type default)
		)
		(uuid "b30dd71b-0786-4362-96be-e3223856c404")
	)
	(wire
		(pts
			(xy 140.97 88.9) (xy 143.51 88.9)
		)
		(stroke
			(width 0)
			(type default)
		)
		(uuid "ba367acc-39d7-4333-a1bc-3441ff2043f8")
	)
	(bus
		(pts
			(xy 219.71 147.32) (xy 36.83 147.32)
		)
		(stroke
			(width 0)
			(type default)
		)
		(uuid "bcec2647-e0c7-4111-9850-f5b8b00ef98f")
	)
	(bus
		(pts
			(xy 219.71 113.03) (xy 219.71 147.32)
		)
		(stroke
			(width 0)
			(type default)
		)
		(uuid "ce0d2ac2-1441-4106-a3e9-560953a83a4c")
	)
	(wire
		(pts
			(xy 74.93 142.24) (xy 78.74 142.24)
		)
		(stroke
			(width 0)
			(type default)
		)
		(uuid "cf01e335-1d7c-4185-a20f-920e8783588d")
	)
	(wire
		(pts
			(xy 62.23 137.16) (xy 58.42 137.16)
		)
		(stroke
			(width 0)
			(type default)
		)
		(uuid "d0941aaf-abaf-4ee2-9d30-110751a797a4")
	)
	(wire
		(pts
			(xy 181.61 129.54) (xy 185.42 129.54)
		)
		(stroke
			(width 0)
			(type default)
		)
		(uuid "d1c50c37-f150-44ed-b8a6-34119beebc5c")
	)
	(bus
		(pts
			(xy 36.83 113.03) (xy 219.71 113.03)
		)
		(stroke
			(width 0)
			(type default)
		)
		(uuid "d3e44dcd-9e8d-4e00-af49-0a50da93a285")
	)
	(wire
		(pts
			(xy 201.93 137.16) (xy 201.93 139.7)
		)
		(stroke
			(width 0)
			(type default)
		)
		(uuid "d4dcce50-8ec6-4645-a91f-16ad8cbf8dde")
	)
	(wire
		(pts
			(xy 198.12 132.08) (xy 201.93 132.08)
		)
		(stroke
			(width 0)
			(type default)
		)
		(uuid "d9f82d94-1f79-42db-b788-c9747be1c968")
	)
	(wire
		(pts
			(xy 78.74 134.62) (xy 78.74 132.08)
		)
		(stroke
			(width 0)
			(type default)
		)
		(uuid "de82874e-4710-40e1-896a-775107a87850")
	)
	(wire
		(pts
			(xy 181.61 142.24) (xy 181.61 143.51)
		)
		(stroke
			(width 0)
			(type default)
		)
		(uuid "e608c5b4-e9d6-4c2d-ba39-904460472af0")
	)
	(wire
		(pts
			(xy 201.93 128.27) (xy 201.93 129.54)
		)
		(stroke
			(width 0)
			(type default)
		)
		(uuid "ea65e323-c009-484f-8a68-932e8e66ce17")
	)
	(wire
		(pts
			(xy 201.93 132.08) (xy 201.93 129.54)
		)
		(stroke
			(width 0)
			(type default)
		)
		(uuid "eb5ee7d4-f78b-460c-bf68-74b151898621")
	)
	(wire
		(pts
			(xy 58.42 128.27) (xy 58.42 129.54)
		)
		(stroke
			(width 0)
			(type default)
		)
		(uuid "ef71b3b6-230a-4097-a5cb-373a1484afad")
	)
	(wire
		(pts
			(xy 99.06 97.79) (xy 99.06 95.25)
		)
		(stroke
			(width 0)
			(type default)
		)
		(uuid "fdda4d1a-7423-481b-8c1a-862731124778")
	)
	(wire
		(pts
			(xy 99.06 95.25) (xy 102.87 95.25)
		)
		(stroke
			(width 0)
			(type default)
		)
		(uuid "fe88994f-115a-44ff-9680-1d336cda0ba8")
	)
	(text "OUTPUT CONNECTORS"
		(exclude_from_sim no)
		(at 190.5 116.84 0)
		(effects
			(font
				(size 3 3)
			)
		)
		(uuid "10741336-f2d2-4e67-b889-a5aacde3be71")
	)
	(text "INPUT:\n 	-	+9V and GND pin Molex kk 396 01x02 \nOUTPUT:\n	-	+5V and GND pin Molex kk 396 01x02 (DRIVER LED power suply)\nFEEDBACK:\n	-	POWER IMPUT SWITCH"
		(exclude_from_sim no)
		(at 52.07 53.594 0)
		(effects
			(font
				(size 3 3)
			)
			(justify left)
		)
		(uuid "1865171c-d014-401f-a2d1-0e79947ffb4e")
	)
	(text "M3.1 - Step Down Module XL4016\n\n"
		(exclude_from_sim no)
		(at 125.73 34.29 0)
		(effects
			(font
				(face "KiCad Font")
				(size 5 5)
			)
		)
		(uuid "3421fdc0-dc12-4f8c-8c94-451b10e91d74")
	)
	(text "INPUT CONNECTORS"
		(exclude_from_sim no)
		(at 67.056 116.586 0)
		(effects
			(font
				(size 3 3)
			)
		)
		(uuid "4d27fee6-841f-4609-967e-343cdf10dcbe")
	)
	(symbol
		(lib_id "power:GND")
		(at 143.51 99.06 0)
		(unit 1)
		(exclude_from_sim no)
		(in_bom yes)
		(on_board yes)
		(dnp no)
		(fields_autoplaced yes)
		(uuid "257c2a8a-4315-4b92-91e5-e8c37b2b1f90")
		(property "Reference" "#PWR09"
			(at 143.51 105.41 0)
			(effects
				(font
					(size 1.27 1.27)
				)
				(hide yes)
			)
		)
		(property "Value" "GND"
			(at 143.51 104.14 0)
			(effects
				(font
					(size 1.27 1.27)
				)
			)
		)
		(property "Footprint" ""
			(at 143.51 99.06 0)
			(effects
				(font
					(size 1.27 1.27)
				)
				(hide yes)
			)
		)
		(property "Datasheet" ""
			(at 143.51 99.06 0)
			(effects
				(font
					(size 1.27 1.27)
				)
				(hide yes)
			)
		)
		(property "Description" "Power symbol creates a global label with name \"GND\" , ground"
			(at 143.51 99.06 0)
			(effects
				(font
					(size 1.27 1.27)
				)
				(hide yes)
			)
		)
		(pin "1"
			(uuid "df247c35-573c-4372-870c-ad30bab381f6")
		)
		(instances
			(project "M3.1"
				(path "/0becb3bb-15b7-4841-80da-002807de404b"
					(reference "#PWR09")
					(unit 1)
				)
			)
		)
	)
	(symbol
		(lib_id "power:VCC")
		(at 181.61 128.27 0)
		(unit 1)
		(exclude_from_sim no)
		(in_bom yes)
		(on_board yes)
		(dnp no)
		(uuid "25994de6-df6d-4101-ae26-38b7552bb32f")
		(property "Reference" "#PWR010"
			(at 181.61 132.08 0)
			(effects
				(font
					(size 1.27 1.27)
				)
				(hide yes)
			)
		)
		(property "Value" "+V_XL4016"
			(at 176.022 124.206 0)
			(effects
				(font
					(size 1.27 1.27)
				)
				(justify left)
			)
		)
		(property "Footprint" ""
			(at 181.61 128.27 0)
			(effects
				(font
					(size 1.27 1.27)
				)
				(hide yes)
			)
		)
		(property "Datasheet" ""
			(at 181.61 128.27 0)
			(effects
				(font
					(size 1.27 1.27)
				)
				(hide yes)
			)
		)
		(property "Description" "Power symbol creates a global label with name \"VCC\""
			(at 181.61 128.27 0)
			(effects
				(font
					(size 1.27 1.27)
				)
				(hide yes)
			)
		)
		(pin "1"
			(uuid "f802d292-6076-4db0-98e0-a60e749c3330")
		)
		(instances
			(project "M3.1"
				(path "/0becb3bb-15b7-4841-80da-002807de404b"
					(reference "#PWR010")
					(unit 1)
				)
			)
		)
	)
	(symbol
		(lib_id "Connector_Generic:Conn_02x06_Odd_Even")
		(at 190.5 134.62 0)
		(unit 1)
		(exclude_from_sim no)
		(in_bom yes)
		(on_board yes)
		(dnp no)
		(uuid "34757b8e-16c1-423a-a165-f67fc1ed599b")
		(property "Reference" "J3"
			(at 191.008 119.126 0)
			(effects
				(font
					(size 1.27 1.27)
				)
			)
		)
		(property "Value" "OUTPUT_POWER_TO_M3.0"
			(at 191.008 121.666 0)
			(effects
				(font
					(size 1.27 1.27)
				)
			)
		)
		(property "Footprint" "Connector_PinHeader_2.54mm:PinHeader_2x06_P2.54mm_Horizontal"
			(at 190.5 134.62 0)
			(effects
				(font
					(size 1.27 1.27)
				)
				(hide yes)
			)
		)
		(property "Datasheet" "~"
			(at 190.5 134.62 0)
			(effects
				(font
					(size 1.27 1.27)
				)
				(hide yes)
			)
		)
		(property "Description" "Generic connector, double row, 02x06, odd/even pin numbering scheme (row 1 odd numbers, row 2 even numbers), script generated (kicad-library-utils/schlib/autogen/connector/)"
			(at 190.5 134.62 0)
			(effects
				(font
					(size 1.27 1.27)
				)
				(hide yes)
			)
		)
		(pin "8"
			(uuid "7d083ae1-f18a-402d-9c50-a8f4576a116a")
		)
		(pin "6"
			(uuid "5428df64-2f44-43e1-acbb-2554df6e442f")
		)
		(pin "10"
			(uuid "641babf1-40da-49c1-97e4-366f3bab805c")
		)
		(pin "1"
			(uuid "ce911bfd-e43a-47b1-8fda-099230e8f3a9")
		)
		(pin "12"
			(uuid "9af41607-67d5-4d73-b393-1b82a729dd66")
		)
		(pin "2"
			(uuid "dda59b57-cf63-47b3-9f6f-146e043b203b")
		)
		(pin "4"
			(uuid "5a32673b-397e-4c4c-b556-ba78e1377ecb")
		)
		(pin "11"
			(uuid "4e91c94b-0d2a-4372-a638-8371b70d16ec")
		)
		(pin "7"
			(uuid "00dc7f8c-1c06-4fc1-879e-3de6a31216e7")
		)
		(pin "9"
			(uuid "489747b8-5fc1-476e-ad40-f5eecb21cb94")
		)
		(pin "5"
			(uuid "75515fda-0283-4f8e-ae50-5bae47c66d1a")
		)
		(pin "3"
			(uuid "ffa92775-9c70-4a1c-af06-c6df4d4bb1dd")
		)
		(instances
			(project "M3.1"
				(path "/0becb3bb-15b7-4841-80da-002807de404b"
					(reference "J3")
					(unit 1)
				)
			)
		)
	)
	(symbol
		(lib_id "power:VCC")
		(at 78.74 128.27 0)
		(unit 1)
		(exclude_from_sim no)
		(in_bom yes)
		(on_board yes)
		(dnp no)
		(uuid "5143436e-9422-48dd-a014-755bb86ed797")
		(property "Reference" "#PWR04"
			(at 78.74 132.08 0)
			(effects
				(font
					(size 1.27 1.27)
				)
				(hide yes)
			)
		)
		(property "Value" "V_BAT"
			(at 78.74 124.714 0)
			(effects
				(font
					(size 1.27 1.27)
				)
			)
		)
		(property "Footprint" ""
			(at 78.74 128.27 0)
			(effects
				(font
					(size 1.27 1.27)
				)
				(hide yes)
			)
		)
		(property "Datasheet" ""
			(at 78.74 128.27 0)
			(effects
				(font
					(size 1.27 1.27)
				)
				(hide yes)
			)
		)
		(property "Description" "Power symbol creates a global label with name \"VCC\""
			(at 78.74 128.27 0)
			(effects
				(font
					(size 1.27 1.27)
				)
				(hide yes)
			)
		)
		(pin "1"
			(uuid "eadf5fd6-f356-4fe7-bcfa-48c81fbd322a")
		)
		(instances
			(project "M3.1"
				(path "/0becb3bb-15b7-4841-80da-002807de404b"
					(reference "#PWR04")
					(unit 1)
				)
			)
		)
	)
	(symbol
		(lib_id "power:GND")
		(at 58.42 143.51 0)
		(unit 1)
		(exclude_from_sim no)
		(in_bom yes)
		(on_board yes)
		(dnp no)
		(uuid "5c4fc4e3-ae75-4f06-93df-14305e510bf4")
		(property "Reference" "#PWR02"
			(at 58.42 149.86 0)
			(effects
				(font
					(size 1.27 1.27)
				)
				(hide yes)
			)
		)
		(property "Value" "GND"
			(at 62.23 145.034 0)
			(effects
				(font
					(size 1.27 1.27)
				)
			)
		)
		(property "Footprint" ""
			(at 58.42 143.51 0)
			(effects
				(font
					(size 1.27 1.27)
				)
				(hide yes)
			)
		)
		(property "Datasheet" ""
			(at 58.42 143.51 0)
			(effects
				(font
					(size 1.27 1.27)
				)
				(hide yes)
			)
		)
		(property "Description" "Power symbol creates a global label with name \"GND\" , ground"
			(at 58.42 143.51 0)
			(effects
				(font
					(size 1.27 1.27)
				)
				(hide yes)
			)
		)
		(pin "1"
			(uuid "4bf4ba0f-fd78-4126-8a11-77f7d07b5d3c")
		)
		(instances
			(project "M3.1"
				(path "/0becb3bb-15b7-4841-80da-002807de404b"
					(reference "#PWR02")
					(unit 1)
				)
			)
		)
	)
	(symbol
		(lib_id "my_pretty_components:xl4005")
		(at 121.92 92.71 0)
		(unit 1)
		(exclude_from_sim no)
		(in_bom yes)
		(on_board yes)
		(dnp no)
		(fields_autoplaced yes)
		(uuid "6128f12b-74a5-433a-a882-feb0b30f51e3")
		(property "Reference" "U1"
			(at 121.92 92.71 0)
			(effects
				(font
					(size 1.27 1.27)
				)
			)
		)
		(property "Value" "XL4016"
			(at 121.92 88.9 0)
			(effects
				(font
					(size 1.27 1.27)
				)
			)
		)
		(property "Footprint" "Borescope:XL4016_borescope"
			(at 120.65 92.71 0)
			(effects
				(font
					(size 1.27 1.27)
				)
				(hide yes)
			)
		)
		(property "Datasheet" ""
			(at 120.65 92.71 0)
			(effects
				(font
					(size 1.27 1.27)
				)
				(hide yes)
			)
		)
		(property "Description" ""
			(at 120.65 92.71 0)
			(effects
				(font
					(size 1.27 1.27)
				)
				(hide yes)
			)
		)
		(pin "2"
			(uuid "7e435b13-b559-45f8-8d18-a12216d67bd8")
		)
		(pin "3"
			(uuid "e2e31cfa-a523-4a7b-9f95-04fdb2aac8bd")
		)
		(pin "1"
			(uuid "89b993d5-9ee1-424b-86e5-0ef66696171f")
		)
		(pin "4"
			(uuid "cef65564-fd94-40d0-a54a-9cea471e4149")
		)
		(instances
			(project "M3.1"
				(path "/0becb3bb-15b7-4841-80da-002807de404b"
					(reference "U1")
					(unit 1)
				)
			)
		)
	)
	(symbol
		(lib_id "power:VCC")
		(at 58.42 128.27 0)
		(unit 1)
		(exclude_from_sim no)
		(in_bom yes)
		(on_board yes)
		(dnp no)
		(uuid "65a8b953-d831-4581-9757-f184a82f82df")
		(property "Reference" "#PWR01"
			(at 58.42 132.08 0)
			(effects
				(font
					(size 1.27 1.27)
				)
				(hide yes)
			)
		)
		(property "Value" "V_BAT"
			(at 58.42 124.714 0)
			(effects
				(font
					(size 1.27 1.27)
				)
			)
		)
		(property "Footprint" ""
			(at 58.42 128.27 0)
			(effects
				(font
					(size 1.27 1.27)
				)
				(hide yes)
			)
		)
		(property "Datasheet" ""
			(at 58.42 128.27 0)
			(effects
				(font
					(size 1.27 1.27)
				)
				(hide yes)
			)
		)
		(property "Description" "Power symbol creates a global label with name \"VCC\""
			(at 58.42 128.27 0)
			(effects
				(font
					(size 1.27 1.27)
				)
				(hide yes)
			)
		)
		(pin "1"
			(uuid "37598827-56a6-4999-852a-c13679cefb50")
		)
		(instances
			(project "M3.1"
				(path "/0becb3bb-15b7-4841-80da-002807de404b"
					(reference "#PWR01")
					(unit 1)
				)
			)
		)
	)
	(symbol
		(lib_id "Mechanical:MountingHole")
		(at 161.29 86.36 0)
		(unit 1)
		(exclude_from_sim yes)
		(in_bom no)
		(on_board yes)
		(dnp no)
		(fields_autoplaced yes)
		(uuid "6c31034b-a642-4aad-84e9-006cb1e4a9fc")
		(property "Reference" "H1"
			(at 163.83 85.0899 0)
			(effects
				(font
					(size 1.27 1.27)
				)
				(justify left)
			)
		)
		(property "Value" "MountingHole"
			(at 163.83 87.6299 0)
			(effects
				(font
					(size 1.27 1.27)
				)
				(justify left)
			)
		)
		(property "Footprint" "MountingHole:MountingHole_3.2mm_M3"
			(at 161.29 86.36 0)
			(effects
				(font
					(size 1.27 1.27)
				)
				(hide yes)
			)
		)
		(property "Datasheet" "~"
			(at 161.29 86.36 0)
			(effects
				(font
					(size 1.27 1.27)
				)
				(hide yes)
			)
		)
		(property "Description" "Mounting Hole without connection"
			(at 161.29 86.36 0)
			(effects
				(font
					(size 1.27 1.27)
				)
				(hide yes)
			)
		)
		(instances
			(project "M3.1"
				(path "/0becb3bb-15b7-4841-80da-002807de404b"
					(reference "H1")
					(unit 1)
				)
			)
		)
	)
	(symbol
		(lib_id "power:VCC")
		(at 99.06 86.36 0)
		(unit 1)
		(exclude_from_sim no)
		(in_bom yes)
		(on_board yes)
		(dnp no)
		(uuid "736e2a52-57e7-482c-938b-e941319ab0ae")
		(property "Reference" "#PWR03"
			(at 99.06 90.17 0)
			(effects
				(font
					(size 1.27 1.27)
				)
				(hide yes)
			)
		)
		(property "Value" "V_BAT"
			(at 99.06 82.804 0)
			(effects
				(font
					(size 1.27 1.27)
				)
			)
		)
		(property "Footprint" ""
			(at 99.06 86.36 0)
			(effects
				(font
					(size 1.27 1.27)
				)
				(hide yes)
			)
		)
		(property "Datasheet" ""
			(at 99.06 86.36 0)
			(effects
				(font
					(size 1.27 1.27)
				)
				(hide yes)
			)
		)
		(property "Description" "Power symbol creates a global label with name \"VCC\""
			(at 99.06 86.36 0)
			(effects
				(font
					(size 1.27 1.27)
				)
				(hide yes)
			)
		)
		(pin "1"
			(uuid "ad2849d8-9893-4a3a-8be8-04d85aafe178")
		)
		(instances
			(project "M3.1"
				(path "/0becb3bb-15b7-4841-80da-002807de404b"
					(reference "#PWR03")
					(unit 1)
				)
			)
		)
	)
	(symbol
		(lib_id "power:VCC")
		(at 143.51 86.36 0)
		(unit 1)
		(exclude_from_sim no)
		(in_bom yes)
		(on_board yes)
		(dnp no)
		(uuid "8afb7fbb-cb7a-4749-ba50-e6d42a163907")
		(property "Reference" "#PWR08"
			(at 143.51 90.17 0)
			(effects
				(font
					(size 1.27 1.27)
				)
				(hide yes)
			)
		)
		(property "Value" "+V_XL4016"
			(at 137.922 82.296 0)
			(effects
				(font
					(size 1.27 1.27)
				)
				(justify left)
			)
		)
		(property "Footprint" ""
			(at 143.51 86.36 0)
			(effects
				(font
					(size 1.27 1.27)
				)
				(hide yes)
			)
		)
		(property "Datasheet" ""
			(at 143.51 86.36 0)
			(effects
				(font
					(size 1.27 1.27)
				)
				(hide yes)
			)
		)
		(property "Description" "Power symbol creates a global label with name \"VCC\""
			(at 143.51 86.36 0)
			(effects
				(font
					(size 1.27 1.27)
				)
				(hide yes)
			)
		)
		(pin "1"
			(uuid "34e70e1e-ad3d-4e53-b5ad-c1149eeab481")
		)
		(instances
			(project "M3.1"
				(path "/0becb3bb-15b7-4841-80da-002807de404b"
					(reference "#PWR08")
					(unit 1)
				)
			)
		)
	)
	(symbol
		(lib_id "power:VCC")
		(at 201.93 128.27 0)
		(unit 1)
		(exclude_from_sim no)
		(in_bom yes)
		(on_board yes)
		(dnp no)
		(uuid "9173b483-b4d1-4726-8d15-c0be231635c2")
		(property "Reference" "#PWR012"
			(at 201.93 132.08 0)
			(effects
				(font
					(size 1.27 1.27)
				)
				(hide yes)
			)
		)
		(property "Value" "+V_XL4016"
			(at 196.342 124.206 0)
			(effects
				(font
					(size 1.27 1.27)
				)
				(justify left)
			)
		)
		(property "Footprint" ""
			(at 201.93 128.27 0)
			(effects
				(font
					(size 1.27 1.27)
				)
				(hide yes)
			)
		)
		(property "Datasheet" ""
			(at 201.93 128.27 0)
			(effects
				(font
					(size 1.27 1.27)
				)
				(hide yes)
			)
		)
		(property "Description" "Power symbol creates a global label with name \"VCC\""
			(at 201.93 128.27 0)
			(effects
				(font
					(size 1.27 1.27)
				)
				(hide yes)
			)
		)
		(pin "1"
			(uuid "0a980d09-5a5e-4c4f-870a-f89b88b8978a")
		)
		(instances
			(project "M3.1"
				(path "/0becb3bb-15b7-4841-80da-002807de404b"
					(reference "#PWR012")
					(unit 1)
				)
			)
		)
	)
	(symbol
		(lib_id "Mechanical:MountingHole")
		(at 161.29 99.06 0)
		(unit 1)
		(exclude_from_sim yes)
		(in_bom no)
		(on_board yes)
		(dnp no)
		(fields_autoplaced yes)
		(uuid "ba805be6-21f9-4148-8233-00348beccd4c")
		(property "Reference" "H3"
			(at 163.83 97.7899 0)
			(effects
				(font
					(size 1.27 1.27)
				)
				(justify left)
			)
		)
		(property "Value" "MountingHole"
			(at 163.83 100.3299 0)
			(effects
				(font
					(size 1.27 1.27)
				)
				(justify left)
			)
		)
		(property "Footprint" "MountingHole:MountingHole_3.2mm_M3"
			(at 161.29 99.06 0)
			(effects
				(font
					(size 1.27 1.27)
				)
				(hide yes)
			)
		)
		(property "Datasheet" "~"
			(at 161.29 99.06 0)
			(effects
				(font
					(size 1.27 1.27)
				)
				(hide yes)
			)
		)
		(property "Description" "Mounting Hole without connection"
			(at 161.29 99.06 0)
			(effects
				(font
					(size 1.27 1.27)
				)
				(hide yes)
			)
		)
		(instances
			(project "M3.1"
				(path "/0becb3bb-15b7-4841-80da-002807de404b"
					(reference "H3")
					(unit 1)
				)
			)
		)
	)
	(symbol
		(lib_id "Connector_Generic:Conn_02x06_Odd_Even")
		(at 67.31 137.16 0)
		(mirror x)
		(unit 1)
		(exclude_from_sim no)
		(in_bom yes)
		(on_board yes)
		(dnp no)
		(uuid "c251ca10-bceb-40e4-b966-e4ce04a92e88")
		(property "Reference" "J1"
			(at 68.326 123.698 0)
			(effects
				(font
					(size 1.27 1.27)
				)
			)
		)
		(property "Value" "INPUT_POWER_TO_M3.0"
			(at 68.326 121.158 0)
			(effects
				(font
					(size 1.27 1.27)
				)
			)
		)
		(property "Footprint" "Connector_PinHeader_2.54mm:PinHeader_2x06_P2.54mm_Horizontal"
			(at 67.31 137.16 0)
			(effects
				(font
					(size 1.27 1.27)
				)
				(hide yes)
			)
		)
		(property "Datasheet" "~"
			(at 67.31 137.16 0)
			(effects
				(font
					(size 1.27 1.27)
				)
				(hide yes)
			)
		)
		(property "Description" "Generic connector, double row, 02x06, odd/even pin numbering scheme (row 1 odd numbers, row 2 even numbers), script generated (kicad-library-utils/schlib/autogen/connector/)"
			(at 67.31 137.16 0)
			(effects
				(font
					(size 1.27 1.27)
				)
				(hide yes)
			)
		)
		(pin "8"
			(uuid "51bc5c2a-d722-4e71-8d17-75e426e45818")
		)
		(pin "6"
			(uuid "e4fe18de-6745-4c26-a3cd-307e16185732")
		)
		(pin "10"
			(uuid "33aa3fc3-9425-4606-8b90-153212daa86c")
		)
		(pin "1"
			(uuid "3bc06a7f-0908-49bd-8a64-7583c1334032")
		)
		(pin "12"
			(uuid "b2845484-4f7d-4153-ae88-887dce535ac3")
		)
		(pin "2"
			(uuid "3550a8fb-d1b7-4a9a-8989-de4e46a1bdc5")
		)
		(pin "4"
			(uuid "113767cd-dc8e-4965-a481-a36dacd691a0")
		)
		(pin "11"
			(uuid "844996c6-3ba0-4b06-8688-93e4d2de0326")
		)
		(pin "7"
			(uuid "7fa465af-2d3b-46f8-a6bc-3adcc34974fd")
		)
		(pin "9"
			(uuid "a754dd06-3f0f-44c2-84ef-4044e15dea66")
		)
		(pin "5"
			(uuid "84945e31-d1a0-4af4-a3fd-443361669cc9")
		)
		(pin "3"
			(uuid "03ad6ad3-7767-4852-8423-4c49c83ebe1f")
		)
		(instances
			(project "M3.1"
				(path "/0becb3bb-15b7-4841-80da-002807de404b"
					(reference "J1")
					(unit 1)
				)
			)
		)
	)
	(symbol
		(lib_id "power:GND")
		(at 99.06 97.79 0)
		(unit 1)
		(exclude_from_sim no)
		(in_bom yes)
		(on_board yes)
		(dnp no)
		(fields_autoplaced yes)
		(uuid "c2a19117-159a-4653-8664-3d5f398a2db7")
		(property "Reference" "#PWR06"
			(at 99.06 104.14 0)
			(effects
				(font
					(size 1.27 1.27)
				)
				(hide yes)
			)
		)
		(property "Value" "GND"
			(at 99.06 102.87 0)
			(effects
				(font
					(size 1.27 1.27)
				)
			)
		)
		(property "Footprint" ""
			(at 99.06 97.79 0)
			(effects
				(font
					(size 1.27 1.27)
				)
				(hide yes)
			)
		)
		(property "Datasheet" ""
			(at 99.06 97.79 0)
			(effects
				(font
					(size 1.27 1.27)
				)
				(hide yes)
			)
		)
		(property "Description" "Power symbol creates a global label with name \"GND\" , ground"
			(at 99.06 97.79 0)
			(effects
				(font
					(size 1.27 1.27)
				)
				(hide yes)
			)
		)
		(pin "1"
			(uuid "f930d219-d84a-413a-ab64-11ee15ecbee6")
		)
		(instances
			(project "M3.1"
				(path "/0becb3bb-15b7-4841-80da-002807de404b"
					(reference "#PWR06")
					(unit 1)
				)
			)
		)
	)
	(symbol
		(lib_id "power:GND")
		(at 78.74 143.51 0)
		(unit 1)
		(exclude_from_sim no)
		(in_bom yes)
		(on_board yes)
		(dnp no)
		(uuid "c956bd6e-5c52-41f1-9102-4c9af30446ef")
		(property "Reference" "#PWR05"
			(at 78.74 149.86 0)
			(effects
				(font
					(size 1.27 1.27)
				)
				(hide yes)
			)
		)
		(property "Value" "GND"
			(at 75.184 145.288 0)
			(effects
				(font
					(size 1.27 1.27)
				)
			)
		)
		(property "Footprint" ""
			(at 78.74 143.51 0)
			(effects
				(font
					(size 1.27 1.27)
				)
				(hide yes)
			)
		)
		(property "Datasheet" ""
			(at 78.74 143.51 0)
			(effects
				(font
					(size 1.27 1.27)
				)
				(hide yes)
			)
		)
		(property "Description" "Power symbol creates a global label with name \"GND\" , ground"
			(at 78.74 143.51 0)
			(effects
				(font
					(size 1.27 1.27)
				)
				(hide yes)
			)
		)
		(pin "1"
			(uuid "25cc0977-b489-44e2-bb22-fe596153b56d")
		)
		(instances
			(project "M3.1"
				(path "/0becb3bb-15b7-4841-80da-002807de404b"
					(reference "#PWR05")
					(unit 1)
				)
			)
		)
	)
	(symbol
		(lib_id "Mechanical:MountingHole")
		(at 161.29 92.71 0)
		(unit 1)
		(exclude_from_sim yes)
		(in_bom no)
		(on_board yes)
		(dnp no)
		(fields_autoplaced yes)
		(uuid "dd69edcf-71c9-4299-be33-fcb6cace3a3c")
		(property "Reference" "H2"
			(at 163.83 91.4399 0)
			(effects
				(font
					(size 1.27 1.27)
				)
				(justify left)
			)
		)
		(property "Value" "MountingHole"
			(at 163.83 93.9799 0)
			(effects
				(font
					(size 1.27 1.27)
				)
				(justify left)
			)
		)
		(property "Footprint" "MountingHole:MountingHole_3.2mm_M3"
			(at 161.29 92.71 0)
			(effects
				(font
					(size 1.27 1.27)
				)
				(hide yes)
			)
		)
		(property "Datasheet" "~"
			(at 161.29 92.71 0)
			(effects
				(font
					(size 1.27 1.27)
				)
				(hide yes)
			)
		)
		(property "Description" "Mounting Hole without connection"
			(at 161.29 92.71 0)
			(effects
				(font
					(size 1.27 1.27)
				)
				(hide yes)
			)
		)
		(instances
			(project "M3.1"
				(path "/0becb3bb-15b7-4841-80da-002807de404b"
					(reference "H2")
					(unit 1)
				)
			)
		)
	)
	(symbol
		(lib_id "Mechanical:MountingHole")
		(at 161.29 105.41 0)
		(unit 1)
		(exclude_from_sim yes)
		(in_bom no)
		(on_board yes)
		(dnp no)
		(fields_autoplaced yes)
		(uuid "e63c9ac2-81e5-44be-bef5-9e1cc85fc4de")
		(property "Reference" "H4"
			(at 163.83 104.1399 0)
			(effects
				(font
					(size 1.27 1.27)
				)
				(justify left)
			)
		)
		(property "Value" "MountingHole"
			(at 163.83 106.6799 0)
			(effects
				(font
					(size 1.27 1.27)
				)
				(justify left)
			)
		)
		(property "Footprint" "MountingHole:MountingHole_3.2mm_M3"
			(at 161.29 105.41 0)
			(effects
				(font
					(size 1.27 1.27)
				)
				(hide yes)
			)
		)
		(property "Datasheet" "~"
			(at 161.29 105.41 0)
			(effects
				(font
					(size 1.27 1.27)
				)
				(hide yes)
			)
		)
		(property "Description" "Mounting Hole without connection"
			(at 161.29 105.41 0)
			(effects
				(font
					(size 1.27 1.27)
				)
				(hide yes)
			)
		)
		(instances
			(project "M3.1"
				(path "/0becb3bb-15b7-4841-80da-002807de404b"
					(reference "H4")
					(unit 1)
				)
			)
		)
	)
	(symbol
		(lib_id "power:GND")
		(at 201.93 143.51 0)
		(unit 1)
		(exclude_from_sim no)
		(in_bom yes)
		(on_board yes)
		(dnp no)
		(uuid "e7d817cd-3ee5-4168-af65-f912f08a52dc")
		(property "Reference" "#PWR013"
			(at 201.93 149.86 0)
			(effects
				(font
					(size 1.27 1.27)
				)
				(hide yes)
			)
		)
		(property "Value" "GND"
			(at 198.374 145.288 0)
			(effects
				(font
					(size 1.27 1.27)
				)
			)
		)
		(property "Footprint" ""
			(at 201.93 143.51 0)
			(effects
				(font
					(size 1.27 1.27)
				)
				(hide yes)
			)
		)
		(property "Datasheet" ""
			(at 201.93 143.51 0)
			(effects
				(font
					(size 1.27 1.27)
				)
				(hide yes)
			)
		)
		(property "Description" "Power symbol creates a global label with name \"GND\" , ground"
			(at 201.93 143.51 0)
			(effects
				(font
					(size 1.27 1.27)
				)
				(hide yes)
			)
		)
		(pin "1"
			(uuid "169fb729-9cf7-4e1b-9b89-566e4ff8a668")
		)
		(instances
			(project "M3.1"
				(path "/0becb3bb-15b7-4841-80da-002807de404b"
					(reference "#PWR013")
					(unit 1)
				)
			)
		)
	)
	(symbol
		(lib_id "power:GND")
		(at 181.61 143.51 0)
		(unit 1)
		(exclude_from_sim no)
		(in_bom yes)
		(on_board yes)
		(dnp no)
		(uuid "f7be5ff5-b329-4a82-9024-1f68a33440c5")
		(property "Reference" "#PWR011"
			(at 181.61 149.86 0)
			(effects
				(font
					(size 1.27 1.27)
				)
				(hide yes)
			)
		)
		(property "Value" "GND"
			(at 185.42 145.034 0)
			(effects
				(font
					(size 1.27 1.27)
				)
			)
		)
		(property "Footprint" ""
			(at 181.61 143.51 0)
			(effects
				(font
					(size 1.27 1.27)
				)
				(hide yes)
			)
		)
		(property "Datasheet" ""
			(at 181.61 143.51 0)
			(effects
				(font
					(size 1.27 1.27)
				)
				(hide yes)
			)
		)
		(property "Description" "Power symbol creates a global label with name \"GND\" , ground"
			(at 181.61 143.51 0)
			(effects
				(font
					(size 1.27 1.27)
				)
				(hide yes)
			)
		)
		(pin "1"
			(uuid "d90c81d2-950b-4050-b49e-703b2b242ece")
		)
		(instances
			(project "M3.1"
				(path "/0becb3bb-15b7-4841-80da-002807de404b"
					(reference "#PWR011")
					(unit 1)
				)
			)
		)
	)
	(sheet_instances
		(path "/"
			(page "1")
		)
	)
)
