(kicad_pcb
	(version 20240108)
	(generator "pcbnew")
	(generator_version "8.0")
	(general
		(thickness 1.6)
		(legacy_teardrops no)
	)
	(paper "A4")
	(layers
		(0 "F.Cu" signal)
		(31 "B.Cu" signal)
		(32 "B.Adhes" user "B.Adhesive")
		(33 "F.Adhes" user "F.Adhesive")
		(34 "B.Paste" user)
		(35 "F.Paste" user)
		(36 "B.SilkS" user "B.Silkscreen")
		(37 "F.SilkS" user "F.Silkscreen")
		(38 "B.Mask" user)
		(39 "F.Mask" user)
		(40 "Dwgs.User" user "User.Drawings")
		(41 "Cmts.User" user "User.Comments")
		(42 "Eco1.User" user "User.Eco1")
		(43 "Eco2.User" user "User.Eco2")
		(44 "Edge.Cuts" user)
		(45 "Margin" user)
		(46 "B.CrtYd" user "B.Courtyard")
		(47 "F.CrtYd" user "F.Courtyard")
		(48 "B.Fab" user)
		(49 "F.Fab" user)
		(50 "User.1" user)
		(51 "User.2" user)
		(52 "User.3" user)
		(53 "User.4" user)
		(54 "User.5" user)
		(55 "User.6" user)
		(56 "User.7" user)
		(57 "User.8" user)
		(58 "User.9" user)
	)
	(setup
		(pad_to_mask_clearance 0)
		(allow_soldermask_bridges_in_footprints no)
		(pcbplotparams
			(layerselection 0x00010fc_ffffffff)
			(plot_on_all_layers_selection 0x0000000_00000000)
			(disableapertmacros no)
			(usegerberextensions no)
			(usegerberattributes yes)
			(usegerberadvancedattributes yes)
			(creategerberjobfile yes)
			(dashed_line_dash_ratio 12.000000)
			(dashed_line_gap_ratio 3.000000)
			(svgprecision 4)
			(plotframeref no)
			(viasonmask no)
			(mode 1)
			(useauxorigin no)
			(hpglpennumber 1)
			(hpglpenspeed 20)
			(hpglpendiameter 15.000000)
			(pdf_front_fp_property_popups yes)
			(pdf_back_fp_property_popups yes)
			(dxfpolygonmode yes)
			(dxfimperialunits yes)
			(dxfusepcbnewfont yes)
			(psnegative no)
			(psa4output no)
			(plotreference yes)
			(plotvalue yes)
			(plotfptext yes)
			(plotinvisibletext no)
			(sketchpadsonfab no)
			(subtractmaskfromsilk no)
			(outputformat 1)
			(mirror no)
			(drillshape 1)
			(scaleselection 1)
			(outputdirectory "")
		)
	)
	(net 0 "")
	(net 1 "/switch_in")
	(net 2 "GND")
	(net 3 "/VBat+")
	(net 4 "/VBatM")
	(net 5 "/VBat-")
	(net 6 "Net-(F1-Pad1)")
	(net 7 "/switch_out")
	(footprint "Connector_Molex:Molex_KK-396_5273-03A_1x03_P3.96mm_Vertical"
		(layer "F.Cu")
		(uuid "01a1766e-8bcb-48f7-9618-14aa7373d518")
		(at 129 96.28 -90)
		(descr "Molex KK 396 Interconnect System, old/engineering part number: 5273-03A example for new part number: 09-65-2038, 3 Pins (https://www.molex.com/pdm_docs/sd/009652028_sd.pdf), generated with kicad-footprint-generator")
		(tags "connector Molex KK-396 vertical")
		(property "Reference" "J2"
			(at 3.96 -6.8 90)
			(layer "F.SilkS")
			(uuid "f8aa5385-c9fe-4f1c-a3de-ceed3962c4c6")
			(effects
				(font
					(size 1 1)
					(thickness 0.15)
				)
			)
		)
		(property "Value" "Baterry In"
			(at 3.96 6.35 90)
			(layer "F.Fab")
			(uuid "61797865-770d-4d1b-b0d3-bc148443e850")
			(effects
				(font
					(size 1 1)
					(thickness 0.15)
				)
			)
		)
		(property "Footprint" "Connector_Molex:Molex_KK-396_5273-03A_1x03_P3.96mm_Vertical"
			(at 0 0 -90)
			(unlocked yes)
			(layer "F.Fab")
			(hide yes)
			(uuid "8b1101f9-446a-445a-8a32-45f5f6609033")
			(effects
				(font
					(size 1.27 1.27)
					(thickness 0.15)
				)
			)
		)
		(property "Datasheet" ""
			(at 0 0 -90)
			(unlocked yes)
			(layer "F.Fab")
			(hide yes)
			(uuid "5fb7f0d1-9f1f-4854-85a7-12143407f90e")
			(effects
				(font
					(size 1.27 1.27)
					(thickness 0.15)
				)
			)
		)
		(property "Description" ""
			(at 0 0 -90)
			(unlocked yes)
			(layer "F.Fab")
			(hide yes)
			(uuid "629f152e-1e2a-43fc-a2b1-5d41084dddfc")
			(effects
				(font
					(size 1.27 1.27)
					(thickness 0.15)
				)
			)
		)
		(property ki_fp_filters "Connector*:*_1x??_*")
		(path "/171249f5-0c05-4816-9bfa-eeea3d2510f2")
		(sheetname "Raíz")
		(sheetfile "M5.kicad_sch")
		(attr through_hole)
		(fp_line
			(start -1.71 5.26)
			(end -1.71 4.26)
			(stroke
				(width 0.12)
				(type solid)
			)
			(layer "F.SilkS")
			(uuid "47cb2872-28b8-4aeb-b761-bc9f299c4244")
		)
		(fp_line
			(start 9.63 5.26)
			(end -1.71 5.26)
			(stroke
				(width 0.12)
				(type solid)
			)
			(layer "F.SilkS")
			(uuid "00481ba9-5e33-4400-9d4d-6008365b6ea2")
		)
		(fp_line
			(start -1.71 4.26)
			(end 9.63 4.26)
			(stroke
				(width 0.12)
				(type solid)
			)
			(layer "F.SilkS")
			(uuid "caf0aa19-395a-4450-bfa3-ca756caedbad")
		)
		(fp_line
			(start -1.71 4.26)
			(end -1.71 -5.71)
			(stroke
				(width 0.12)
				(type solid)
			)
			(layer "F.SilkS")
			(uuid "4f2702d6-e6be-450d-90b2-115ccd106cd6")
		)
		(fp_line
			(start -2 -2)
			(end -2 2)
			(stroke
				(width 0.12)
				(type solid)
			)
			(layer "F.SilkS")
			(uuid "dae65ca8-173c-49a2-8fae-935760bd0404")
		)
		(fp_line
			(start 0.57 -5.31)
			(end 3.27 -5.31)
			(stroke
				(width 0.12)
				(type solid)
			)
			(layer "F.SilkS")
			(uuid "71a6de59-ddae-4f1a-8ebd-5ee8cacbd903")
		)
		(fp_line
			(start 3.27 -5.31)
			(end 3.27 -5.71)
			(stroke
				(width 0.12)
				(type solid)
			)
			(layer "F.SilkS")
			(uuid "ba89cee4-4855-4945-bd5d-20e1d39a9fa2")
		)
		(fp_line
			(start -1.71 -5.71)
			(end 0.57 -5.71)
			(stroke
				(width 0.12)
				(type solid)
			)
			(layer "F.SilkS")
			(uuid "c6581733-c46e-450b-a5f1-e9d2a5ddbf21")
		)
		(fp_line
			(start 0.57 -5.71)
			(end 0.57 -5.31)
			(stroke
				(width 0.12)
				(type solid)
			)
			(layer "F.SilkS")
			(uuid "7de9d843-5013-4f44-a0b1-6328ba2702a8")
		)
		(fp_line
			(start 3.27 -5.71)
			(end 9.63 -5.71)
			(stroke
				(width 0.12)
				(type solid)
			)
			(layer "F.SilkS")
			(uuid "8f0cefa1-ba84-4468-a9e1-b435374c6857")
		)
		(fp_line
			(start 9.63 -5.71)
			(end 9.63 5.26)
			(stroke
				(width 0.12)
				(type solid)
			)
			(layer "F.SilkS")
			(uuid "c579cb96-adda-42d2-92e9-26fe595dcc4e")
		)
		(fp_line
			(start -2.1 5.65)
			(end 10.02 5.65)
			(stroke
				(width 0.05)
				(type solid)
			)
			(layer "F.CrtYd")
			(uuid "5e03af89-534a-4540-ae3d-88f1a4d2678e")
		)
		(fp_line
			(start 10.02 5.65)
			(end 10.02 -6.1)
			(stroke
				(width 0.05)
				(type solid)
			)
			(layer "F.CrtYd")
			(uuid "0d6bf532-901d-4724-8642-e40038ba52ee")
		)
		(fp_line
			(start -2.1 -6.1)
			(end -2.1 5.65)
			(stroke
				(width 0.05)
				(type solid)
			)
			(layer "F.CrtYd")
			(uuid "75387b12-3c0b-4860-8350-5044a2056a88")
		)
		(fp_line
			(start 10.02 -6.1)
			(end -2.1 -6.1)
			(stroke
				(width 0.05)
				(type solid)
			)
			(layer "F.CrtYd")
			(uuid "211c3d83-7189-45a7-9b5e-b1a2e27529fc")
		)
		(fp_line
			(start -1.6 5.15)
			(end -1.6 -5.6)
			(stroke
				(width 0.1)
				(type solid)
			)
			(layer "F.Fab")
			(uuid "62e9680f-fa43-44f7-937a-aa11a0d4c759")
		)
		(fp_line
			(start 9.52 5.15)
			(end -1.6 5.15)
			(stroke
				(width 0.1)
				(type solid)
			)
			(layer "F.Fab")
			(uuid "ef0dbd8d-fcaf-4ed5-bcb1-68183fc0ef74")
		)
		(fp_line
			(start -0.892893 0)
			(end -1.6 0.5)
			(stroke
				(width 0.1)
				(type solid)
			)
			(layer "F.Fab")
			(uuid "45771bec-9459-4a44-9150-6a18b1af13ad")
		)
		(fp_line
			(start -1.6 -0.5)
			(end -0.892893 0)
			(stroke
				(width 0.1)
				(type solid)
			)
			(layer "F.Fab")
			(uuid "5eb014c4-f6bd-41af-8948-9c0b24f71315")
		)
		(fp_line
			(start -1.6 -5.6)
			(end 9.52 -5.6)
			(stroke
				(width 0.1)
				(type solid)
			)
			(layer "F.Fab")
			(uuid "4ea2ab6e-6e96-4c91-b560-396f938fb06f")
		)
		(fp_line
			(start 9.52 -5.6)
			(end 9.52 5.15)
			(stroke
				(width 0.1)
				(type solid)
			)
			(layer "F.Fab")
			(uuid "5ad5b754-4302-4da0-b014-ed7b4c40752c")
		)
		(fp_text user "${REFERENCE}"
			(at 3.96 -4.9 90)
			(layer "F.Fab")
			(uuid "1e2b7f96-4fa2-4959-9706-69c61cf5c613")
			(effects
				(font
					(size 1 1)
					(thickness 0.15)
				)
			)
		)
		(pad "1" thru_hole roundrect
			(at 0 0 270)
			(size 3.5 4.5)
			(drill 1.8)
			(layers "*.Cu" "*.Mask")
			(remove_unused_layers no)
			(roundrect_rratio 0.079114)
			(net 4 "/VBatM")
			(pinfunction "Pin_1")
			(pintype "passive")
			(uuid "82222834-6a06-432c-8a29-f60bc5181d1d")
		)
		(pad "2" thru_hole oval
			(at 3.96 0 270)
			(size 3.5 4.5)
			(drill 1.8)
			(layers "*.Cu" "*.Mask")
			(remove_unused_layers no)
			(net 3 "/VBat+")
			(pinfunction "Pin_2")
			(pintype "passive")
			(uuid "a141f99b-82e1-49a9-a09a-5483dc8a8465")
		)
		(pad "3" thru_hole oval
			(at 7.92 0 270)
			(size 3.5 4.5)
			(drill 1.8)
			(layers "*.Cu" "*.Mask")
			(remove_unused_layers no)
			(net 5 "/VBat-")
			(pinfunction "Pin_3")
			(pintype "passive")
			(uuid "47a9bd6f-1fb9-4252-99b0-e234b58653ba")
		)
		(model "${KIPRJMOD}/../../modules/3dmodels/Connector_Molex.3dshapes/Molex_KK-396_1x03_P3.96mm_Vertical.step"
			(offset
				(xyz 3.95 -4.6 0)
			)
			(scale
				(xyz 1 1 1)
			)
			(rotate
				(xyz -90 0 180)
			)
		)
	)
	(footprint "Connector_BarrelJack:BarrelJack_GCT_DCJ200-10-A_Horizontal"
		(layer "F.Cu")
		(uuid "19637ac8-adad-43dc-8010-af4bb1d960cf")
		(at 80.3 105 -90)
		(descr "Barrel jack connector (5.5 mm outer diameter, 2.05 inner diameter ), https://gct.co/files/drawings/dcj200-10.pdf")
		(tags "connector barrel jack")
		(property "Reference" "J1"
			(at 0 -2.5 90)
			(layer "F.SilkS")
			(hide yes)
			(uuid "7aeaad60-9c3a-4374-a77a-a96839a96995")
			(effects
				(font
					(size 1 1)
					(thickness 0.15)
				)
			)
		)
		(property "Value" "Barrel_Jack_Switch"
			(at 0 15.5 90)
			(layer "F.Fab")
			(uuid "dca85066-0bc9-46de-aab1-f1e5990c9d9d")
			(effects
				(font
					(size 1 1)
					(thickness 0.15)
				)
			)
		)
		(property "Footprint" "Connector_BarrelJack:BarrelJack_GCT_DCJ200-10-A_Horizontal"
			(at 0 0 -90)
			(unlocked yes)
			(layer "F.Fab")
			(hide yes)
			(uuid "985779da-5c0d-4ca4-8bff-ee591025264f")
			(effects
				(font
					(size 1.27 1.27)
					(thickness 0.15)
				)
			)
		)
		(property "Datasheet" ""
			(at 0 0 -90)
			(unlocked yes)
			(layer "F.Fab")
			(hide yes)
			(uuid "b94f829b-8224-4ff1-8837-bb5bdf29e316")
			(effects
				(font
					(size 1.27 1.27)
					(thickness 0.15)
				)
			)
		)
		(property "Description" ""
			(at 0 0 -90)
			(unlocked yes)
			(layer "F.Fab")
			(hide yes)
			(uuid "bd93961e-cba9-4daf-8d9b-2ae1fe5fdc73")
			(effects
				(font
					(size 1.27 1.27)
					(thickness 0.15)
				)
			)
		)
		(property ki_fp_filters "BarrelJack*")
		(path "/29209257-4f06-4e47-ac8e-0cd3609ea7d9")
		(sheetname "Raíz")
		(sheetfile "M5.kicad_sch")
		(attr through_hole)
		(fp_line
			(start -4.6 13.8)
			(end -4.6 -0.7)
			(stroke
				(width 0.12)
				(type solid)
			)
			(layer "F.SilkS")
			(uuid "275174c5-6593-450b-95a8-ea8637014b15")
		)
		(fp_line
			(start 4.6 13.8)
			(end -4.6 13.8)
			(stroke
				(width 0.12)
				(type solid)
			)
			(layer "F.SilkS")
			(uuid "92b43a46-769f-43b9-8567-1646e43f48a9")
		)
		(fp_line
			(start 4.6 5.2)
			(end 4.6 13.8)
			(stroke
				(width 0.12)
				(type solid)
			)
			(layer "F.SilkS")
			(uuid "fdd1edc1-6e36-4683-ba96-c761460e2676")
		)
		(fp_line
			(start -4.6 -0.7)
			(end -2.6 -0.7)
			(stroke
				(width 0.12)
				(type solid)
			)
			(layer "F.SilkS")
			(uuid "421fbec3-fbcd-47b0-aa12-0ccad11e1b8f")
		)
		(fp_line
			(start 2.6 -0.7)
			(end 4.6 -0.7)
			(stroke
				(width 0.12)
				(type solid)
			)
			(layer "F.SilkS")
			(uuid "8100b523-dd1d-4ba3-bdd4-f6c7cdf149c8")
		)
		(fp_line
			(start 4.6 -0.7)
			(end 4.6 0.6)
			(stroke
				(width 0.12)
				(type solid)
			)
			(layer "F.SilkS")
			(uuid "97e4d116-bcc9-4bec-b64f-a72681b18cc5")
		)
		(fp_line
			(start -4.9 -1)
			(end -4.9 0.3)
			(stroke
				(width 0.12)
				(type solid)
			)
			(layer "F.SilkS")
			(uuid "ef3db942-47b0-4081-892c-f8180e73c4f3")
		)
		(fp_line
			(start -3.2 -1)
			(end -4.9 -1)
			(stroke
				(width 0.12)
				(type solid)
			)
			(layer "F.SilkS")
			(uuid "b190b284-e9ca-45ff-a18c-9bda8e348533")
		)
		(fp_line
			(start -5 14.2)
			(end 5 14.2)
			(stroke
				(width 0.05)
				(type solid)
			)
			(layer "F.CrtYd")
			(uuid "bb23759c-4c3d-48f5-9ac6-64d3c6542a07")
		)
		(fp_line
			(start 5 14.2)
			(end 5 5.5)
			(stroke
				(width 0.05)
				(type solid)
			)
			(layer "F.CrtYd")
			(uuid "50c8dba7-a147-4245-a44f-9cb3195f2a9d")
		)
		(fp_line
			(start 6.3 5.5)
			(end 5 5.5)
			(stroke
				(width 0.05)
				(type solid)
			)
			(layer "F.CrtYd")
			(uuid "84698499-5df6-4643-96b0-7114e11f50c2")
		)
		(fp_line
			(start 5 0.3)
			(end 5 -1.5)
			(stroke
				(width 0.05)
				(type solid)
			)
			(layer "F.CrtYd")
			(uuid "922b1053-bd14-454f-8af8-c797463d5620")
		)
		(fp_line
			(start 6.3 0.3)
			(end 6.3 5.5)
			(stroke
				(width 0.05)
				(type solid)
			)
			(layer "F.CrtYd")
			(uuid "08c419d4-a341-427f-96f8-17c622845a3b")
		)
		(fp_line
			(start 6.3 0.3)
			(end 5 0.3)
			(stroke
				(width 0.05)
				(type solid)
			)
			(layer "F.CrtYd")
			(uuid "4aa7c196-8509-4b86-adcd-d2d67f4173dd")
		)
		(fp_line
			(start -5 -1.5)
			(end -5 14.2)
			(stroke
				(width 0.05)
				(type solid)
			)
			(layer "F.CrtYd")
			(uuid "e5e5c0af-e41f-4a05-bcf0-884d9e67a584")
		)
		(fp_line
			(start 5 -1.5)
			(end -5 -1.5)
			(stroke
				(width 0.05)
				(type solid)
			)
			(layer "F.CrtYd")
			(uuid "991de0b3-f49c-41c9-aacb-65f9fd0ab877")
		)
		(fp_line
			(start -4.5 13.7)
			(end -4.5 0.4)
			(stroke
				(width 0.1)
				(type solid)
			)
			(layer "F.Fab")
			(uuid "f14d9bbc-f62b-455d-993e-79128cd8ba21")
		)
		(fp_line
			(start 4.5 13.7)
			(end -4.5 13.7)
			(stroke
				(width 0.1)
				(type solid)
			)
			(layer "F.Fab")
			(uuid "d0a80b43-7cdc-4843-b6f6-643477a8f6c0")
		)
		(fp_line
			(start -4.5 0.4)
			(end -3.5 -0.6)
			(stroke
				(width 0.1)
				(type solid)
			)
			(layer "F.Fab")
			(uuid "41a16310-e134-4f96-89c9-f3b0e5f8796f")
		)
		(fp_line
			(start 4.5 -0.6)
			(end 4.5 13.7)
			(stroke
				(width 0.1)
				(type solid)
			)
			(layer "F.Fab")
			(uuid "c6a112d0-70a2-4fa1-b48e-ec4b76319f56")
		)
		(fp_line
			(start 4.5 -0.6)
			(end -3.5 -0.6)
			(stroke
				(width 0.1)
				(type solid)
			)
			(layer "F.Fab")
			(uuid "d3af85ce-cd24-4d8c-827e-a2368d02d97d")
		)
		(fp_text user "${REFERENCE}"
			(at 0 3 90)
			(layer "F.Fab")
			(uuid "16e27388-b3ba-4939-a26f-5a3713303452")
			(effects
				(font
					(size 1 1)
					(thickness 0.15)
				)
			)
		)
		(pad "1" thru_hole rect
			(at 0 0 270)
			(size 5 4)
			(drill oval 3.6 1)
			(layers "*.Cu" "*.Mask")
			(remove_unused_layers no)
			(net 6 "Net-(F1-Pad1)")
			(pintype "passive")
			(uuid "da8c67ab-e009-4053-b6d1-99ccadb0b203")
		)
		(pad "2" thru_hole oval
			(at 0 6.3 270)
			(size 5 3)
			(drill oval 3.2 1)
			(layers "*.Cu" "*.Mask")
			(remove_unused_layers no)
			(net 2 "GND")
			(pintype "passive")
			(uuid "ed1509be-936c-439d-8ea5-8b6bacea9a48")
		)
		(pad "3" thru_hole oval
			(at 4.8 2.9 270)
			(size 3 5)
			(drill oval 1 3.2)
			(layers "*.Cu" "*.Mask")
			(remove_unused_layers no)
			(net 2 "GND")
			(pintype "passive")
			(uuid "1885bfba-5f6b-492c-99d5-9c9c0ec8396e")
		)
		(model "${KICAD7_3DMODEL_DIR}/Connector_BarrelJack.3dshapes/BarrelJack_Horizontal.step"
			(offset
				(xyz 0 0 0)
			)
			(scale
				(xyz 1 1 1)
			)
			(rotate
				(xyz 0 0 -90)
			)
		)
	)
	(footprint "Connector_Molex:Molex_KK-396_5273-02A_1x02_P3.96mm_Vertical"
		(layer "F.Cu")
		(uuid "1d7f1310-4226-4447-b025-7829b5f9cb57")
		(at 113.77 111.65)
		(descr "Molex KK 396 Interconnect System, old/engineering part number: 5273-02A example for new part number: 09-65-2028, 2 Pins (https://www.molex.com/pdm_docs/sd/009652028_sd.pdf), generated with kicad-footprint-generator")
		(tags "connector Molex KK-396 vertical")
		(property "Reference" "J4"
			(at 1.98 -6.8 360)
			(layer "F.SilkS")
			(uuid "0a8989ef-57bd-4d6a-a203-64fd352e1451")
			(effects
				(font
					(size 1 1)
					(thickness 0.15)
				)
			)
		)
		(property "Value" "switch"
			(at 1.98 6.35 360)
			(layer "F.Fab")
			(uuid "b8ade419-2b0e-412f-b51b-5b427f009d2f")
			(effects
				(font
					(size 1 1)
					(thickness 0.15)
				)
			)
		)
		(property "Footprint" "Connector_Molex:Molex_KK-396_5273-02A_1x02_P3.96mm_Vertical"
			(at 0 0 0)
			(unlocked yes)
			(layer "F.Fab")
			(hide yes)
			(uuid "9ed693eb-3ec3-41c0-bb13-6006777cda26")
			(effects
				(font
					(size 1.27 1.27)
					(thickness 0.15)
				)
			)
		)
		(property "Datasheet" ""
			(at 0 0 0)
			(unlocked yes)
			(layer "F.Fab")
			(hide yes)
			(uuid "dbcf1f80-2534-42e6-97ba-b42f42bfe165")
			(effects
				(font
					(size 1.27 1.27)
					(thickness 0.15)
				)
			)
		)
		(property "Description" ""
			(at 0 0 0)
			(unlocked yes)
			(layer "F.Fab")
			(hide yes)
			(uuid "159760c2-7fe2-4967-81f1-f0708dc3cf77")
			(effects
				(font
					(size 1.27 1.27)
					(thickness 0.15)
				)
			)
		)
		(property ki_fp_filters "Connector*:*_1x??_*")
		(path "/9be86824-ce6d-4418-8686-fd75b0e28b8d")
		(sheetname "Raíz")
		(sheetfile "M5.kicad_sch")
		(attr through_hole)
		(fp_line
			(start -2 -2)
			(end -2 2)
			(stroke
				(width 0.12)
				(type solid)
			)
			(layer "F.SilkS")
			(uuid "33184f3c-3cd2-44a9-8747-a425e91bee6b")
		)
		(fp_line
			(start -1.71 -5.71)
			(end 0.57 -5.71)
			(stroke
				(width 0.12)
				(type solid)
			)
			(layer "F.SilkS")
			(uuid "7c21586f-5611-4435-8a11-a30857b8f945")
		)
		(fp_line
			(start -1.71 4.26)
			(end -1.71 -5.71)
			(stroke
				(width 0.12)
				(type solid)
			)
			(layer "F.SilkS")
			(uuid "5fac9310-0ff6-4ba0-8e2e-d2d4aeb6c6a8")
		)
		(fp_line
			(start -1.71 4.26)
			(end 5.67 4.26)
			(stroke
				(width 0.12)
				(type solid)
			)
			(layer "F.SilkS")
			(uuid "812c778b-5948-49df-8023-78427d16c117")
		)
		(fp_line
			(start -1.71 5.26)
			(end -1.71 4.26)
			(stroke
				(width 0.12)
				(type solid)
			)
			(layer "F.SilkS")
			(uuid "7f769808-83ce-46cf-ae99-80e99ffe8e7f")
		)
		(fp_line
			(start 0.57 -5.71)
			(end 0.57 -5.31)
			(stroke
				(width 0.12)
				(type solid)
			)
			(layer "F.SilkS")
			(uuid "fd7561fa-1844-4e64-8ce3-2bc1593d0a4c")
		)
		(fp_line
			(start 0.57 -5.31)
			(end 3.27 -5.31)
			(stroke
				(width 0.12)
				(type solid)
			)
			(layer "F.SilkS")
			(uuid "09fbaf72-148f-493a-8455-62701915b8c0")
		)
		(fp_line
			(start 3.27 -5.71)
			(end 5.67 -5.71)
			(stroke
				(width 0.12)
				(type solid)
			)
			(layer "F.SilkS")
			(uuid "32796238-527c-431a-837c-3cb0feac272b")
		)
		(fp_line
			(start 3.27 -5.31)
			(end 3.27 -5.71)
			(stroke
				(width 0.12)
				(type solid)
			)
			(layer "F.SilkS")
			(uuid "11ba2340-0777-4e20-957b-027d8d0cb21d")
		)
		(fp_line
			(start 5.67 -5.71)
			(end 5.67 5.26)
			(stroke
				(width 0.12)
				(type solid)
			)
			(layer "F.SilkS")
			(uuid "48326e1f-a2fb-4b9a-aada-56fa4431763c")
		)
		(fp_line
			(start 5.67 5.26)
			(end -1.71 5.26)
			(stroke
				(width 0.12)
				(type solid)
			)
			(layer "F.SilkS")
			(uuid "b63d38f4-3d8c-4822-90d4-e7c0344f9057")
		)
		(fp_line
			(start -2.1 -6.1)
			(end -2.1 5.65)
			(stroke
				(width 0.05)
				(type solid)
			)
			(layer "F.CrtYd")
			(uuid "f889ea66-72eb-435f-8744-c3fdb1b96f33")
		)
		(fp_line
			(start -2.1 5.65)
			(end 6.06 5.65)
			(stroke
				(width 0.05)
				(type solid)
			)
			(layer "F.CrtYd")
			(uuid "3ec37c4d-465b-4e6a-a227-10a5e8ac5cc5")
		)
		(fp_line
			(start 6.06 -6.1)
			(end -2.1 -6.1)
			(stroke
				(width 0.05)
				(type solid)
			)
			(layer "F.CrtYd")
			(uuid "0c309cbb-ead7-4471-b762-40b6bd89010e")
		)
		(fp_line
			(start 6.06 5.65)
			(end 6.06 -6.1)
			(stroke
				(width 0.05)
				(type solid)
			)
			(layer "F.CrtYd")
			(uuid "7763f3ae-d35f-47a2-80d6-8c7fdb9a8f6c")
		)
		(fp_line
			(start -1.6 -5.6)
			(end 5.56 -5.6)
			(stroke
				(width 0.1)
				(type solid)
			)
			(layer "F.Fab")
			(uuid "578f29f2-a1f1-48b8-a353-05fdb10d6500")
		)
		(fp_line
			(start -1.6 -0.5)
			(end -0.892893 0)
			(stroke
				(width 0.1)
				(type solid)
			)
			(layer "F.Fab")
			(uuid "20508e6a-9f6e-47e5-8afc-46e7dfa90d74")
		)
		(fp_line
			(start -1.6 5.15)
			(end -1.6 -5.6)
			(stroke
				(width 0.1)
				(type solid)
			)
			(layer "F.Fab")
			(uuid "f1956302-4245-44e7-ae38-d6836bfb3ee9")
		)
		(fp_line
			(start -0.892893 0)
			(end -1.6 0.5)
			(stroke
				(width 0.1)
				(type solid)
			)
			(layer "F.Fab")
			(uuid "4da4f85a-5972-4c5a-abc4-6c3f92fac4af")
		)
		(fp_line
			(start 5.56 -5.6)
			(end 5.56 5.15)
			(stroke
				(width 0.1)
				(type solid)
			)
			(layer "F.Fab")
			(uuid "3df243ce-6df4-4c92-a49d-0c679b2a4052")
		)
		(fp_line
			(start 5.56 5.15)
			(end -1.6 5.15)
			(stroke
				(width 0.1)
				(type solid)
			)
			(layer "F.Fab")
			(uuid "8028fbed-59d4-4a8d-97fe-06e70e7c4c65")
		)
		(fp_text user "${REFERENCE}"
			(at 1.98 -4.9 360)
			(layer "F.Fab")
			(uuid "edb47be9-3959-4955-9754-4f8d2e3fb190")
			(effects
				(font
					(size 1 1)
					(thickness 0.15)
				)
			)
		)
		(pad "1" thru_hole roundrect
			(at 0 0)
			(size 3.16 4.2)
			(drill 1.8)
			(layers "*.Cu" "*.Mask")
			(remove_unused_layers no)
			(roundrect_rratio 0.079114)
			(net 1 "/switch_in")
			(pinfunction "Pin_1")
			(pintype "passive")
			(uuid "79cb8f4e-b44a-4acb-aae9-2514278a9f64")
		)
		(pad "2" thru_hole oval
			(at 3.96 0)
			(size 3.16 4.2)
			(drill 1.8)
			(layers "*.Cu" "*.Mask")
			(remove_unused_layers no)
			(net 7 "/switch_out")
			(pinfunction "Pin_2")
			(pintype "passive")
			(uuid "ecc99745-d307-4419-ba13-0595188e4b9d")
		)
		(model "${KIPRJMOD}/../../modules/3dmodels/Connector_Molex.3dshapes/Molex_KK-396_1x02_P3.96mm_Vertical.stp"
			(offset
				(xyz 2 -4.6 0)
			)
			(scale
				(xyz 1 1 1)
			)
			(rotate
				(xyz -90 0 180)
			)
		)
	)
	(footprint "borescope:BMS_2S"
		(layer "F.Cu")
		(uuid "22eb5c79-9dfc-414c-826e-f41a28ad819b")
		(at 102.875 95.185 180)
		(property "Reference" "U1"
			(at 0 0.5 0)
			(layer "F.SilkS")
			(uuid "afe3b8cd-894e-4037-a7b0-fd0ebaf596fa")
			(effects
				(font
					(size 1 1)
					(thickness 0.15)
				)
			)
		)
		(property "Value" "BMS 2S 8A"
			(at 0 -0.5 0)
			(layer "F.Fab")
			(uuid "eb87072a-2743-4542-9cbf-2a43e7e4c7c9")
			(effects
				(font
					(size 1 1)
					(thickness 0.15)
				)
			)
		)
		(property "Footprint" "borescope:BMS_2S"
			(at 0 0 180)
			(unlocked yes)
			(layer "F.Fab")
			(hide yes)
			(uuid "5b384028-f1e2-4845-b3f0-703855767cc5")
			(effects
				(font
					(size 1.27 1.27)
					(thickness 0.15)
				)
			)
		)
		(property "Datasheet" ""
			(at 0 0 180)
			(unlocked yes)
			(layer "F.Fab")
			(hide yes)
			(uuid "a34f4dad-2d26-41fb-b5fe-2d8773a04885")
			(effects
				(font
					(size 1.27 1.27)
					(thickness 0.15)
				)
			)
		)
		(property "Description" ""
			(at 0 0 180)
			(unlocked yes)
			(layer "F.Fab")
			(hide yes)
			(uuid "5a0c99c8-633a-4900-a4e9-4fe51524e86b")
			(effects
				(font
					(size 1.27 1.27)
					(thickness 0.15)
				)
			)
		)
		(path "/b880d570-d484-4f67-ad0f-0060db5e0976")
		(sheetname "Raíz")
		(sheetfile "M5.kicad_sch")
		(attr through_hole)
		(fp_line
			(start 21 0)
			(end 21 -8)
			(stroke
				(width 0.12)
				(type solid)
			)
			(layer "F.SilkS")
			(uuid "a5700b29-b69b-4e68-ad2b-ba0e0722cc6a")
		)
		(fp_line
			(start 21 -8)
			(end -20 -8)
			(stroke
				(width 0.12)
				(type solid)
			)
			(layer "F.SilkS")
			(uuid "b573adbf-b848-4aed-ae24-1d45e993699f")
		)
		(fp_line
			(start -20 0)
			(end 21 0)
			(stroke
				(width 0.12)
				(type solid)
			)
			(layer "F.SilkS")
			(uuid "d98b458d-32a5-46d7-a1fb-a2fea9eb00a6")
		)
		(fp_line
			(start -20 -8)
			(end -20 0)
			(stroke
				(width 0.12)
				(type solid)
			)
			(layer "F.SilkS")
			(uuid "afc567fa-dbef-4422-8603-6e9af04caf4c")
		)
		(pad "1" thru_hole rect
			(at -17.5 -2.04 180)
			(size 4 3.5)
			(drill 0.762)
			(layers "*.Cu" "*.Mask")
			(remove_unused_layers no)
			(net 3 "/VBat+")
			(pinfunction "VBAT+")
			(pintype "input")
			(uuid "7c72ae19-3067-4ff7-b64b-7fe299986ff3")
		)
		(pad "2" thru_hole rect
			(at 18.5 -4.02 180)
			(size 3.5 4)
			(drill 0.762)
			(layers "*.Cu" "*.Mask")
			(remove_unused_layers no)
			(net 4 "/VBatM")
			(pinfunction "BAT_BM")
			(pintype "input")
			(uuid "c6d74925-f072-47f6-97b8-bf49c506589e")
		)
		(pad "3" thru_hole rect
			(at -17.5 -6 180)
			(size 4 3.5)
			(drill 0.762)
			(layers "*.Cu" "*.Mask")
			(remove_unused_layers no)
			(net 5 "/VBat-")
			(pinfunction "VBAT-")
			(pintype "input")
			(uuid "09aa5446-b083-4449-ae50-04584d4d1c32")
		)
		(pad "4" thru_hole oval
			(at 13.42 -2.04 180)
			(size 4 3)
			(drill 0.762)
			(layers "*.Cu" "*.Mask")
			(remove_unused_layers no)
			(net 7 "/switch_out")
			(pinfunction "VOUT+")
			(pintype "output")
			(uuid "18542768-8518-4b78-bf5d-79abc5ef5fab")
		)
		(pad "5" thru_hole oval
			(at 13.42 -6)
			(size 4 3)
			(drill 0.762)
			(layers "*.Cu" "*.Mask")
			(remove_unused_layers no)
			(net 2 "GND")
			(pinfunction "GND")
			(pintype "output")
			(uuid "4f29f7a7-4000-43a6-8263-2dbe254cb655")
		)
		(model "${KIPRJMOD}/../../modules/3dmodels/extra.3dshapes/BMS_2S.step"
			(offset
				(xyz 0 4 1)
			)
			(scale
				(xyz 1.12 1.2 1)
			)
			(rotate
				(xyz -90 0 180)
			)
		)
	)
	(footprint "MountingHole:MountingHole_3mm"
		(layer "F.Cu")
		(uuid "2f3e3c4a-359b-426a-92b0-0c63b1ae982a")
		(at 138.475 95.575)
		(descr "Mounting Hole 3mm, no annular")
		(tags "mounting hole 3mm no annular")
		(property "Reference" "REF**"
			(at 0 -4 0)
			(layer "F.SilkS")
			(hide yes)
			(uuid "fdec62eb-f76f-48a6-a4c7-c8ea1415f59d")
			(effects
				(font
					(size 1 1)
					(thickness 0.15)
				)
			)
		)
		(property "Value" "MountingHole_3mm"
			(at 0 4 0)
			(layer "F.Fab")
			(hide yes)
			(uuid "59ba2a90-6376-44a6-95f6-185a056a1b5b")
			(effects
				(font
					(size 1 1)
					(thickness 0.15)
				)
			)
		)
		(property "Footprint" "MountingHole:MountingHole_3mm"
			(at 0 0 0)
			(unlocked yes)
			(layer "F.Fab")
			(hide yes)
			(uuid "14d205cb-4fd3-4e78-b601-b73b3588fe00")
			(effects
				(font
					(size 1.27 1.27)
					(thickness 0.15)
				)
			)
		)
		(property "Datasheet" ""
			(at 0 0 0)
			(unlocked yes)
			(layer "F.Fab")
			(hide yes)
			(uuid "697f22aa-b209-476a-92b8-49cb859806aa")
			(effects
				(font
					(size 1.27 1.27)
					(thickness 0.15)
				)
			)
		)
		(property "Description" ""
			(at 0 0 0)
			(unlocked yes)
			(layer "F.Fab")
			(hide yes)
			(uuid "e9e17e06-7aa1-438b-8290-5ae1655ddb6e")
			(effects
				(font
					(size 1.27 1.27)
					(thickness 0.15)
				)
			)
		)
		(attr exclude_from_pos_files exclude_from_bom)
		(fp_circle
			(center 0 0)
			(end 3 0)
			(stroke
				(width 0.15)
				(type solid)
			)
			(fill none)
			(layer "Cmts.User")
			(uuid "6532e765-5e06-46a3-84b6-670bb2ad5f04")
		)
		(fp_circle
			(center 0 0)
			(end 3.25 0)
			(stroke
				(width 0.05)
				(type solid)
			)
			(fill none)
			(layer "F.CrtYd")
			(uuid "1bbf3d10-b98a-41bd-94a4-7d5352a6c748")
		)
		(fp_text user "${REFERENCE}"
			(at 0 0 0)
			(layer "F.Fab")
			(hide yes)
			(uuid "d7a7eb21-d24c-46e2-ae28-691f617f968f")
			(effects
				(font
					(size 1 1)
					(thickness 0.15)
				)
			)
		)
		(pad "" np_thru_hole circle
			(at 0 0)
			(size 3 3)
			(drill 3)
			(layers "F&B.Cu" "*.Mask")
			(clearance 0.4)
			(uuid "1b3d9b3f-af62-43f0-bee3-9ee1b54bc6be")
		)
	)
	(footprint "Connector_Molex:Molex_KK-396_5273-02A_1x02_P3.96mm_Vertical"
		(layer "F.Cu")
		(uuid "4c8c279f-95cc-40f6-a338-08d22a157bc4")
		(at 128.9 109.245 -90)
		(descr "Molex KK 396 Interconnect System, old/engineering part number: 5273-02A example for new part number: 09-65-2028, 2 Pins (https://www.molex.com/pdm_docs/sd/009652028_sd.pdf), generated with kicad-footprint-generator")
		(tags "connector Molex KK-396 vertical")
		(property "Reference" "J3"
			(at 1.98 -6.8 90)
			(layer "F.SilkS")
			(uuid "c59767df-01af-41dc-8a25-292045845b04")
			(effects
				(font
					(size 1 1)
					(thickness 0.15)
				)
			)
		)
		(property "Value" "PWR OUT"
			(at 1.98 6.35 90)
			(layer "F.Fab")
			(uuid "d1887a76-8008-4f4e-80e3-5673ce4b5592")
			(effects
				(font
					(size 1 1)
					(thickness 0.15)
				)
			)
		)
		(property "Footprint" "Connector_Molex:Molex_KK-396_5273-02A_1x02_P3.96mm_Vertical"
			(at 0 0 -90)
			(unlocked yes)
			(layer "F.Fab")
			(hide yes)
			(uuid "ea2dc35d-602c-4336-9435-d15dda16eceb")
			(effects
				(font
					(size 1.27 1.27)
					(thickness 0.15)
				)
			)
		)
		(property "Datasheet" ""
			(at 0 0 -90)
			(unlocked yes)
			(layer "F.Fab")
			(hide yes)
			(uuid "2bf4f961-91b0-40b4-b412-f26da7fda8ad")
			(effects
				(font
					(size 1.27 1.27)
					(thickness 0.15)
				)
			)
		)
		(property "Description" ""
			(at 0 0 -90)
			(unlocked yes)
			(layer "F.Fab")
			(hide yes)
			(uuid "ed4b4ad4-347e-48f6-baaf-0bc4d4b59fd2")
			(effects
				(font
					(size 1.27 1.27)
					(thickness 0.15)
				)
			)
		)
		(property ki_fp_filters "Connector*:*_1x??_*")
		(path "/7b1a53bc-f99b-4351-82c3-2db3cf9ddf80")
		(sheetname "Raíz")
		(sheetfile "M5.kicad_sch")
		(attr through_hole)
		(fp_line
			(start -1.71 5.26)
			(end -1.71 4.26)
			(stroke
				(width 0.12)
				(type solid)
			)
			(layer "F.SilkS")
			(uuid "40080279-19a1-4d23-b381-4d0e8b9ed630")
		)
		(fp_line
			(start 5.67 5.26)
			(end -1.71 5.26)
			(stroke
				(width 0.12)
				(type solid)
			)
			(layer "F.SilkS")
			(uuid "4bcf0050-0cb5-429a-a2a3-1db300901fcc")
		)
		(fp_line
			(start -1.71 4.26)
			(end 5.67 4.26)
			(stroke
				(width 0.12)
				(type solid)
			)
			(layer "F.SilkS")
			(uuid "97cedcbe-7eeb-4f83-a8a6-774689cae369")
		)
		(fp_line
			(start -1.71 4.26)
			(end -1.71 -5.71)
			(stroke
				(width 0.12)
				(type solid)
			)
			(layer "F.SilkS")
			(uuid "777b789c-bbe9-4e0e-a684-4bf97e948a86")
		)
		(fp_line
			(start -2 -2)
			(end -2 2)
			(stroke
				(width 0.12)
				(type solid)
			)
			(layer "F.SilkS")
			(uuid "1a836040-a1a2-4e33-bf8b-2c1cd965d9aa")
		)
		(fp_line
			(start 0.57 -5.31)
			(end 3.27 -5.31)
			(stroke
				(width 0.12)
				(type solid)
			)
			(layer "F.SilkS")
			(uuid "448b1537-76d6-4533-9549-120f9b0baca1")
		)
		(fp_line
			(start 3.27 -5.31)
			(end 3.27 -5.71)
			(stroke
				(width 0.12)
				(type solid)
			)
			(layer "F.SilkS")
			(uuid "e3bb86e8-9f7d-45dd-98b7-82f11d720f6e")
		)
		(fp_line
			(start -1.71 -5.71)
			(end 0.57 -5.71)
			(stroke
				(width 0.12)
				(type solid)
			)
			(layer "F.SilkS")
			(uuid "b545c202-f22f-4e66-809b-e2022c750e1e")
		)
		(fp_line
			(start 0.57 -5.71)
			(end 0.57 -5.31)
			(stroke
				(width 0.12)
				(type solid)
			)
			(layer "F.SilkS")
			(uuid "e4bd7c4b-753d-4248-aad6-4fd2f2e32dc7")
		)
		(fp_line
			(start 3.27 -5.71)
			(end 5.67 -5.71)
			(stroke
				(width 0.12)
				(type solid)
			)
			(layer "F.SilkS")
			(uuid "14945d80-a3a2-4b06-b7c1-db6ca1b7027d")
		)
		(fp_line
			(start 5.67 -5.71)
			(end 5.67 5.26)
			(stroke
				(width 0.12)
				(type solid)
			)
			(layer "F.SilkS")
			(uuid "72ca23f0-39b0-40ab-8c07-37eb89b85807")
		)
		(fp_line
			(start -2.1 5.65)
			(end 6.06 5.65)
			(stroke
				(width 0.05)
				(type solid)
			)
			(layer "F.CrtYd")
			(uuid "dce17a6c-6572-4bd6-acba-2808c4532f86")
		)
		(fp_line
			(start 6.06 5.65)
			(end 6.06 -6.1)
			(stroke
				(width 0.05)
				(type solid)
			)
			(layer "F.CrtYd")
			(uuid "cc843086-b811-44fa-81de-0b4a634c6bd8")
		)
		(fp_line
			(start -2.1 -6.1)
			(end -2.1 5.65)
			(stroke
				(width 0.05)
				(type solid)
			)
			(layer "F.CrtYd")
			(uuid "630d3999-bad9-4af3-817d-63b0fc832cae")
		)
		(fp_line
			(start 6.06 -6.1)
			(end -2.1 -6.1)
			(stroke
				(width 0.05)
				(type solid)
			)
			(layer "F.CrtYd")
			(uuid "7fcb5bd8-3320-4905-a211-48bdfdde0d46")
		)
		(fp_line
			(start -1.6 5.15)
			(end -1.6 -5.6)
			(stroke
				(width 0.1)
				(type solid)
			)
			(layer "F.Fab")
			(uuid "5f9faffd-4e68-49ab-bde0-00bd3cc16288")
		)
		(fp_line
			(start 5.56 5.15)
			(end -1.6 5.15)
			(stroke
				(width 0.1)
				(type solid)
			)
			(layer "F.Fab")
			(uuid "a684e6f1-400c-40d1-bf64-be1c1eb496ac")
		)
		(fp_line
			(start -0.892893 0)
			(end -1.6 0.5)
			(stroke
				(width 0.1)
				(type solid)
			)
			(layer "F.Fab")
			(uuid "9da7d82c-a530-4bb0-b3b6-f508f7ef8c40")
		)
		(fp_line
			(start -1.6 -0.5)
			(end -0.892893 0)
			(stroke
				(width 0.1)
				(type solid)
			)
			(layer "F.Fab")
			(uuid "178b8303-0b4d-4129-9262-6940852c3416")
		)
		(fp_line
			(start -1.6 -5.6)
			(end 5.56 -5.6)
			(stroke
				(width 0.1)
				(type solid)
			)
			(layer "F.Fab")
			(uuid "03edd713-fbfa-4ede-8b01-187e572c5fad")
		)
		(fp_line
			(start 5.56 -5.6)
			(end 5.56 5.15)
			(stroke
				(width 0.1)
				(type solid)
			)
			(layer "F.Fab")
			(uuid "443e0727-27ba-48a8-9380-fbab2899ea5a")
		)
		(fp_text user "${REFERENCE}"
			(at 1.98 -4.9 90)
			(layer "F.Fab")
			(uuid "3e0e1c81-001a-4184-aa4c-7e9a92e622a0")
			(effects
				(font
					(size 1 1)
					(thickness 0.15)
				)
			)
		)
		(pad "1" thru_hole roundrect
			(at 0 0 270)
			(size 3.16 4.2)
			(drill 1.8)
			(layers "*.Cu" "*.Mask")
			(remove_unused_layers no)
			(roundrect_rratio 0.079114)
			(net 2 "GND")
			(pinfunction "Pin_1")
			(pintype "passive")
			(uuid "91295ffd-f5a9-41c9-94d2-9eb13aaca1b1")
		)
		(pad "2" thru_hole oval
			(at 3.96 0 270)
			(size 3.16 4.2)
			(drill 1.8)
			(layers "*.Cu" "*.Mask")
			(remove_unused_layers no)
			(net 7 "/switch_out")
			(pinfunction "Pin_2")
			(pintype "passive")
			(uuid "500612a7-4b29-41ee-adab-e6233075d28a")
		)
		(model "${KIPRJMOD}/../../modules/3dmodels/Connector_Molex.3dshapes/Molex_KK-396_1x02_P3.96mm_Vertical.stp"
			(offset
				(xyz 2 -4.5 0)
			)
			(scale
				(xyz 1 1 1)
			)
			(rotate
				(xyz -90 0 180)
			)
		)
	)
	(footprint "MountingHole:MountingHole_3mm"
		(layer "F.Cu")
		(uuid "a4dd955c-41c5-41a5-8c16-a6292ba3fa11")
		(at 138.425 114.5)
		(descr "Mounting Hole 3mm, no annular")
		(tags "mounting hole 3mm no annular")
		(property "Reference" "REF**"
			(at 0 -4 0)
			(layer "F.SilkS")
			(hide yes)
			(uuid "534a3b7d-a8fc-4d30-bd75-53343c419912")
			(effects
				(font
					(size 1 1)
					(thickness 0.15)
				)
			)
		)
		(property "Value" "MountingHole_3mm"
			(at 0 4 0)
			(layer "F.Fab")
			(hide yes)
			(uuid "8df14c22-79d4-40f9-a7ad-11b3d957c39c")
			(effects
				(font
					(size 1 1)
					(thickness 0.15)
				)
			)
		)
		(property "Footprint" "MountingHole:MountingHole_3mm"
			(at 0 0 0)
			(unlocked yes)
			(layer "F.Fab")
			(hide yes)
			(uuid "73718f34-c664-4b75-bed1-2d29085130eb")
			(effects
				(font
					(size 1.27 1.27)
					(thickness 0.15)
				)
			)
		)
		(property "Datasheet" ""
			(at 0 0 0)
			(unlocked yes)
			(layer "F.Fab")
			(hide yes)
			(uuid "06b72cc9-1a42-4351-b938-ad5074d5b4ff")
			(effects
				(font
					(size 1.27 1.27)
					(thickness 0.15)
				)
			)
		)
		(property "Description" ""
			(at 0 0 0)
			(unlocked yes)
			(layer "F.Fab")
			(hide yes)
			(uuid "ed48c30d-84f9-4ffe-a76a-fa8ef1732f56")
			(effects
				(font
					(size 1.27 1.27)
					(thickness 0.15)
				)
			)
		)
		(attr exclude_from_pos_files exclude_from_bom)
		(fp_circle
			(center 0 0)
			(end 3 0)
			(stroke
				(width 0.15)
				(type solid)
			)
			(fill none)
			(layer "Cmts.User")
			(uuid "f1366f95-3e36-40ac-aa65-543ca5d5aa2a")
		)
		(fp_circle
			(center 0 0)
			(end 3.25 0)
			(stroke
				(width 0.05)
				(type solid)
			)
			(fill none)
			(layer "F.CrtYd")
			(uuid "aa6598ca-f305-4da0-953a-05fd760f6a18")
		)
		(fp_text user "${REFERENCE}"
			(at 0 0 0)
			(layer "F.Fab")
			(hide yes)
			(uuid "3a3ceb5d-691e-4922-ba0b-f8e780960a0a")
			(effects
				(font
					(size 1 1)
					(thickness 0.15)
				)
			)
		)
		(pad "" np_thru_hole circle
			(at 0 0)
			(size 3 3)
			(drill 3)
			(layers "*.Cu" "*.Mask")
			(uuid "6915a028-2fe2-4e7b-9225-d451dc992a47")
		)
	)
	(footprint "MountingHole:MountingHole_3mm"
		(layer "F.Cu")
		(uuid "c5a25e33-5159-4d36-aa25-6001be38012f")
		(at 75.625 95.575)
		(descr "Mounting Hole 3mm, no annular")
		(tags "mounting hole 3mm no annular")
		(property "Reference" "REF**"
			(at 0 -4 0)
			(layer "F.SilkS")
			(hide yes)
			(uuid "cf50c439-782a-4650-ad90-633a9c075e8a")
			(effects
				(font
					(size 1 1)
					(thickness 0.15)
				)
			)
		)
		(property "Value" "MountingHole_3mm"
			(at 0 4 0)
			(layer "F.Fab")
			(hide yes)
			(uuid "f84d725f-7f21-4b86-a587-1fc3c08ece0f")
			(effects
				(font
					(size 1 1)
					(thickness 0.15)
				)
			)
		)
		(property "Footprint" "MountingHole:MountingHole_3mm"
			(at 0 0 0)
			(unlocked yes)
			(layer "F.Fab")
			(hide yes)
			(uuid "1694ab8c-aa49-48ac-8d01-bab950b9e5bc")
			(effects
				(font
					(size 1.27 1.27)
					(thickness 0.15)
				)
			)
		)
		(property "Datasheet" ""
			(at 0 0 0)
			(unlocked yes)
			(layer "F.Fab")
			(hide yes)
			(uuid "ac482914-a6ef-45ef-8cce-c419a35a550b")
			(effects
				(font
					(size 1.27 1.27)
					(thickness 0.15)
				)
			)
		)
		(property "Description" ""
			(at 0 0 0)
			(unlocked yes)
			(layer "F.Fab")
			(hide yes)
			(uuid "d1e50cd4-af43-4113-9ec6-3065d2927123")
			(effects
				(font
					(size 1.27 1.27)
					(thickness 0.15)
				)
			)
		)
		(attr exclude_from_pos_files exclude_from_bom)
		(fp_circle
			(center 0 0)
			(end 3 0)
			(stroke
				(width 0.15)
				(type solid)
			)
			(fill none)
			(layer "Cmts.User")
			(uuid "f077642d-d666-47df-b96a-bbc00414baf1")
		)
		(fp_circle
			(center 0 0)
			(end 3.25 0)
			(stroke
				(width 0.05)
				(type solid)
			)
			(fill none)
			(layer "F.CrtYd")
			(uuid "c2642681-6a7a-4d49-8a63-b1d7333e5aeb")
		)
		(fp_text user "${REFERENCE}"
			(at 0 0 0)
			(layer "F.Fab")
			(hide yes)
			(uuid "547ae1d6-7fa1-446e-b013-4289ef448591")
			(effects
				(font
					(size 1 1)
					(thickness 0.15)
				)
			)
		)
		(pad "" np_thru_hole circle
			(at 0 0)
			(size 3 3)
			(drill 3)
			(layers "F&B.Cu" "*.Mask")
			(clearance 0.4)
			(uuid "a8bde180-de81-4f01-b129-e61a1f75070f")
		)
	)
	(footprint "MountingHole:MountingHole_3mm"
		(layer "F.Cu")
		(uuid "e0e1bf5e-8a87-4ddd-87c2-b041e6f63cf5")
		(at 75.625 114.5)
		(descr "Mounting Hole 3mm, no annular")
		(tags "mounting hole 3mm no annular")
		(property "Reference" "REF**"
			(at 0 -4 0)
			(layer "F.SilkS")
			(hide yes)
			(uuid "4c19b3f9-d0cb-4909-bc1b-826ca11de761")
			(effects
				(font
					(size 1 1)
					(thickness 0.15)
				)
			)
		)
		(property "Value" "MountingHole_3mm"
			(at 0 4 0)
			(layer "F.Fab")
			(hide yes)
			(uuid "9e1436e8-f9cb-4b89-ad75-736254e19396")
			(effects
				(font
					(size 1 1)
					(thickness 0.15)
				)
			)
		)
		(property "Footprint" "MountingHole:MountingHole_3mm"
			(at 0 0 0)
			(unlocked yes)
			(layer "F.Fab")
			(hide yes)
			(uuid "cee3de3c-ee06-4057-bfca-f5030d349598")
			(effects
				(font
					(size 1.27 1.27)
					(thickness 0.15)
				)
			)
		)
		(property "Datasheet" ""
			(at 0 0 0)
			(unlocked yes)
			(layer "F.Fab")
			(hide yes)
			(uuid "536fde51-3225-44da-96a0-42c9a1c9c6c5")
			(effects
				(font
					(size 1.27 1.27)
					(thickness 0.15)
				)
			)
		)
		(property "Description" ""
			(at 0 0 0)
			(unlocked yes)
			(layer "F.Fab")
			(hide yes)
			(uuid "b87ccf87-adaa-43fd-9dd5-19a76a4fb469")
			(effects
				(font
					(size 1.27 1.27)
					(thickness 0.15)
				)
			)
		)
		(attr exclude_from_pos_files exclude_from_bom)
		(fp_circle
			(center 0 0)
			(end 3 0)
			(stroke
				(width 0.15)
				(type solid)
			)
			(fill none)
			(layer "Cmts.User")
			(uuid "a801243b-0b6f-453a-b501-fa6f87722059")
		)
		(fp_circle
			(center 0 0)
			(end 3.25 0)
			(stroke
				(width 0.05)
				(type solid)
			)
			(fill none)
			(layer "F.CrtYd")
			(uuid "b8120d40-1fb9-4773-a30f-f0f767bfd9a5")
		)
		(fp_text user "${REFERENCE}"
			(at 0 0 0)
			(layer "F.Fab")
			(hide yes)
			(uuid "4daac1b3-4761-4af2-924d-db0c96d84a94")
			(effects
				(font
					(size 1 1)
					(thickness 0.15)
				)
			)
		)
		(pad "" np_thru_hole circle
			(at 0 0)
			(size 3 3)
			(drill 3)
			(layers "F&B.Cu" "*.Mask")
			(clearance 0.4)
			(uuid "c15b6aaa-9fdc-4753-af31-f7abcd278ba9")
		)
	)
	(footprint "Fuse:Fuseholder_Cylinder-5x20mm_Schurter_0031_8201_Horizontal_Open"
		(layer "F.Cu")
		(uuid "ff45377d-6680-4b7e-a08a-ceb09baf7c41")
		(at 84.15 111.8)
		(descr "Fuseholder horizontal open, 5x20mm, 500V, 16A, Schurter 0031.8201, https://us.schurter.com/bundles/snceschurter/epim/_ProdPool_/newDS/en/typ_OGN.pdf")
		(tags "Fuseholder horizontal open 5x20 Schurter 0031.8201")
		(property "Reference" "F1"
			(at 11.25 -6 0)
			(layer "F.SilkS")
			(uuid "0fb4cf9f-ecf2-465e-be5a-d2a9728d4618")
			(effects
				(font
					(size 1 1)
					(thickness 0.15)
				)
			)
		)
		(property "Value" "Fuse"
			(at 11.25 6 0)
			(layer "F.Fab")
			(uuid "c92e3ffa-2745-486b-881a-ed5d464cc1a9")
			(effects
				(font
					(size 1 1)
					(thickness 0.15)
				)
			)
		)
		(property "Footprint" "Fuse:Fuseholder_Cylinder-5x20mm_Schurter_0031_8201_Horizontal_Open"
			(at 0 0 0)
			(unlocked yes)
			(layer "F.Fab")
			(hide yes)
			(uuid "1f35a95e-e24f-4edd-8623-6c568a3c461d")
			(effects
				(font
					(size 1.27 1.27)
					(thickness 0.15)
				)
			)
		)
		(property "Datasheet" ""
			(at 0 0 0)
			(unlocked yes)
			(layer "F.Fab")
			(hide yes)
			(uuid "881f6bfe-f138-47d9-8162-957e7451bcf6")
			(effects
				(font
					(size 1.27 1.27)
					(thickness 0.15)
				)
			)
		)
		(property "Description" "Fuse"
			(at 0 0 0)
			(unlocked yes)
			(layer "F.Fab")
			(hide yes)
			(uuid "7be26624-225a-4015-839c-6631211f29c3")
			(effects
				(font
					(size 1.27 1.27)
					(thickness 0.15)
				)
			)
		)
		(property ki_fp_filters "*Fuse*")
		(path "/c1b0e251-2b7a-44c5-9638-8f560da950e1")
		(sheetname "Raíz")
		(sheetfile "M5.kicad_sch")
		(attr through_hole)
		(fp_line
			(start -0.11 -4.91)
			(end 22.61 -4.91)
			(stroke
				(width 0.12)
				(type solid)
			)
			(layer "F.SilkS")
			(uuid "25c7179a-d244-4c4a-9672-3ee1ef5af2c4")
		)
		(fp_line
			(start -0.11 -1.75)
			(end -0.11 -4.91)
			(stroke
				(width 0.12)
				(type solid)
			)
			(layer "F.SilkS")
			(uuid "f1c3071e-44cf-40df-b8ab-3b5903943a16")
		)
		(fp_line
			(start -0.11 4.91)
			(end -0.11 1.75)
			(stroke
				(width 0.12)
				(type solid)
			)
			(layer "F.SilkS")
			(uuid "1176198e-7392-48f7-a50c-02b7734ded7d")
		)
		(fp_line
			(start -0.11 4.91)
			(end 22.61 4.91)
			(stroke
				(width 0.12)
				(type solid)
			)
			(layer "F.SilkS")
			(uuid "d838f4b0-5949-4f6c-9d27-b324ac1a55a4")
		)
		(fp_line
			(start 22.61 -1.75)
			(end 22.61 -4.91)
			(stroke
				(width 0.12)
				(type solid)
			)
			(layer "F.SilkS")
			(uuid "a6e1aa5f-0983-47c9-b8ae-a4fa89bcf4b9")
		)
		(fp_line
			(start 22.61 4.91)
			(end 22.61 1.75)
			(stroke
				(width 0.12)
				(type solid)
			)
			(layer "F.SilkS")
			(uuid "6c35426f-0f46-4526-984a-c5b30e9564f1")
		)
		(fp_line
			(start -1.75 -5.05)
			(end 24.25 -5.05)
			(stroke
				(width 0.05)
				(type solid)
			)
			(layer "F.CrtYd")
			(uuid "a4ee8167-c47f-412c-9edf-0b0f7d3cf33b")
		)
		(fp_line
			(start -1.75 5.05)
			(end -1.75 -5.05)
			(stroke
				(width 0.05)
				(type solid)
			)
			(layer "F.CrtYd")
			(uuid "3c1b2b9d-1399-41cb-92de-e205fdba857a")
		)
		(fp_line
			(start 24.25 -5.05)
			(end 24.25 5.05)
			(stroke
				(width 0.05)
				(type solid)
			)
			(layer "F.CrtYd")
			(uuid "ea03f328-e3de-4c00-b205-ca4bf5f7c1a6")
		)
		(fp_line
			(start 24.25 5.05)
			(end -1.75 5.05)
			(stroke
				(width 0.05)
				(type solid)
			)
			(layer "F.CrtYd")
			(uuid "30377e67-5256-4031-9b00-e15a001e5dac")
		)
		(fp_line
			(start 0 -4.8)
			(end 0 4.8)
			(stroke
				(width 0.1)
				(type solid)
			)
			(layer "F.Fab")
			(uuid "c3fd7eef-6256-4f9c-b29e-7a21610176eb")
		)
		(fp_line
			(start 0 4.8)
			(end 22.5 4.8)
			(stroke
				(width 0.1)
				(type solid)
			)
			(layer "F.Fab")
			(uuid "f1df4d44-0b4f-469b-9bf0-3ce684628796")
		)
		(fp_line
			(start 22.5 -4.8)
			(end 0 -4.8)
			(stroke
				(width 0.1)
				(type solid)
			)
			(layer "F.Fab")
			(uuid "091b046e-d0d2-41e6-b3c8-be3032abfc09")
		)
		(fp_line
			(start 22.5 4.8)
			(end 22.5 -4.8)
			(stroke
				(width 0.1)
				(type solid)
			)
			(layer "F.Fab")
			(uuid "e7ac0524-a2ee-464e-a0c9-299aeb7ab12b")
		)
		(fp_text user "${REFERENCE}"
			(at 11.25 4 0)
			(layer "F.Fab")
			(uuid "4152adb3-626e-4559-acc4-6590c1f4b9ba")
			(effects
				(font
					(size 1 1)
					(thickness 0.15)
				)
			)
		)
		(pad "" np_thru_hole circle
			(at 11.25 0)
			(size 2.7 2.7)
			(drill 2.7)
			(layers "*.Cu" "*.Mask")
			(uuid "9cdecc24-d1d4-4a8c-b146-6b8978b137d2")
		)
		(pad "1" thru_hole circle
			(at 0 0)
			(size 4 4)
			(drill 1.2)
			(layers "*.Cu" "*.Mask")
			(remove_unused_layers no)
			(net 6 "Net-(F1-Pad1)")
			(pintype "passive")
			(uuid "abcd6dc6-bd3d-41f2-8dff-587868315d1d")
		)
		(pad "2" thru_hole circle
			(at 22.5 0)
			(size 4 4)
			(drill 1.2)
			(layers "*.Cu" "*.Mask")
			(remove_unused_layers no)
			(net 1 "/switch_in")
			(pintype "passive")
			(uuid "5d3df42d-51e4-4980-9da2-995bd44c5037")
		)
		(model "${KICAD8_3DMODEL_DIR}/Fuse.3dshapes/Fuseholder_Cylinder-5x20mm_Schurter_0031_8201_Horizontal_Open.wrl"
			(offset
				(xyz 0 0 0)
			)
			(scale
				(xyz 1 1 1)
			)
			(rotate
				(xyz 0 0 0)
			)
		)
	)
	(gr_line
		(start 142 92)
		(end 142 118)
		(stroke
			(width 0.05)
			(type default)
		)
		(layer "Edge.Cuts")
		(uuid "60385ff0-50be-4693-b942-890fba52eeb7")
	)
	(gr_line
		(start 142 118)
		(end 72 118)
		(stroke
			(width 0.05)
			(type default)
		)
		(layer "Edge.Cuts")
		(uuid "a2688148-dcd4-4fc6-b37e-cf295dc883a7")
	)
	(gr_line
		(start 72 118)
		(end 72 92)
		(stroke
			(width 0.05)
			(type default)
		)
		(layer "Edge.Cuts")
		(uuid "b1e151a5-7992-4001-9fa3-da4acbad14c0")
	)
	(gr_line
		(start 72 92)
		(end 142 92)
		(stroke
			(width 0.05)
			(type default)
		)
		(layer "Edge.Cuts")
		(uuid "d612ae5f-ef32-4538-bf9c-280a4154e3f0")
	)
	(segment
		(start 113.62 111.8)
		(end 113.77 111.65)
		(width 2)
		(layer "B.Cu")
		(net 1)
		(uuid "21b77022-9f37-4eb0-8c80-a050403a4dec")
	)
	(segment
		(start 106.65 111.8)
		(end 113.62 111.8)
		(width 2)
		(layer "B.Cu")
		(net 1)
		(uuid "7e6e94ed-9732-4702-814c-0d1eb92b6722")
	)
	(segment
		(start 126.215 100.24)
		(end 129 100.24)
		(width 2)
		(layer "B.Cu")
		(net 3)
		(uuid "03ba75e2-ad14-4ce0-ac70-d7770a314958")
	)
	(segment
		(start 123.2 97.225)
		(end 126.215 100.24)
		(width 2)
		(layer "B.Cu")
		(net 3)
		(uuid "ddd6479d-4381-42f4-8434-e3f20be31ab2")
	)
	(segment
		(start 120.375 97.225)
		(end 123.2 97.225)
		(width 2)
		(layer "B.Cu")
		(net 3)
		(uuid "e7157568-0649-4d1b-be63-76b9a08c6814")
	)
	(segment
		(start 84.375 96.125)
		(end 87 93.5)
		(width 2)
		(layer "B.Cu")
		(net 4)
		(uuid "0902bbb4-e9cb-4977-b7e6-658a86648ef9")
	)
	(segment
		(start 84.375 99.205)
		(end 84.375 96.125)
		(width 2)
		(layer "B.Cu")
		(net 4)
		(uuid "7be16239-874f-4a28-82d4-d15462d3fcbe")
	)
	(segment
		(start 87 93.5)
		(end 126.22 93.5)
		(width 2)
		(layer "B.Cu")
		(net 4)
		(uuid "ce0ca4ea-2e7f-41cb-96a2-59245e69b304")
	)
	(segment
		(start 126.22 93.5)
		(end 129 96.28)
		(width 2)
		(layer "B.Cu")
		(net 4)
		(uuid "d39079b4-7639-4f34-acb6-a225a18256f8")
	)
	(segment
		(start 123.39 104.2)
		(end 120.375 101.185)
		(width 2)
		(layer "B.Cu")
		(net 5)
		(uuid "0128812c-dc86-43af-ba93-ed2d46c58711")
	)
	(segment
		(start 129 104.2)
		(end 123.39 104.2)
		(width 2)
		(layer "B.Cu")
		(net 5)
		(uuid "e437b5ba-fc93-4e27-910c-a4d45f9191fe")
	)
	(segment
		(start 80.3 105)
		(end 84.15 108.85)
		(width 2)
		(layer "B.Cu")
		(net 6)
		(uuid "3d52c3f2-5c90-42a2-a29a-f5c21e2cc56d")
	)
	(segment
		(start 84.15 108.85)
		(end 84.15 111.8)
		(width 2)
		(layer "B.Cu")
		(net 6)
		(uuid "b76b9a09-1816-4248-a815-5e98bae300de")
	)
	(segment
		(start 117.73 111.65)
		(end 121.875 111.65)
		(width 2)
		(layer "B.Cu")
		(net 7)
		(uuid "08ef2262-cd61-4a52-b535-9ff5176b69df")
	)
	(segment
		(start 121.875 111.65)
		(end 123.43 113.205)
		(width 2)
		(layer "B.Cu")
		(net 7)
		(uuid "338396b8-c9b1-485a-a823-aaab92ed9329")
	)
	(segment
		(start 107.55 97.225)
		(end 89.455 97.225)
		(width 2)
		(layer "B.Cu")
		(net 7)
		(uuid "abccf49a-e90b-46ef-86c8-0ec26d515c97")
	)
	(segment
		(start 117.73 107.405)
		(end 107.55 97.225)
		(width 2)
		(layer "B.Cu")
		(net 7)
		(uuid "dbf6f7ca-0f97-42eb-91c2-a0fec6b95258")
	)
	(segment
		(start 117.73 111.65)
		(end 117.73 107.405)
		(width 2)
		(layer "B.Cu")
		(net 7)
		(uuid "de94c8bb-e0b8-4c56-949b-192238181abc")
	)
	(segment
		(start 123.43 113.205)
		(end 128.9 113.205)
		(width 2)
		(layer "B.Cu")
		(net 7)
		(uuid "fc849ce5-55dd-40c3-ae28-4198b1ba38b1")
	)
	(zone
		(net 2)
		(net_name "GND")
		(layer "B.Cu")
		(uuid "c94b5f8a-2919-43be-8414-2b8d97ac63ed")
		(hatch edge 0.5)
		(connect_pads
			(clearance 0.8)
		)
		(min_thickness 0.25)
		(filled_areas_thickness no)
		(fill yes
			(thermal_gap 0.75)
			(thermal_bridge_width 1)
		)
		(polygon
			(pts
				(xy 72.25 92.25) (xy 141.775 92.3) (xy 141.775 117.8) (xy 72.25 117.75)
			)
		)
		(filled_polygon
			(layer "B.Cu")
			(pts
				(xy 141.442539 92.520185) (xy 141.488294 92.572989) (xy 141.4995 92.6245) (xy 141.4995 117.3755)
				(xy 141.479815 117.442539) (xy 141.427011 117.488294) (xy 141.3755 117.4995) (xy 72.6245 117.4995)
				(xy 72.557461 117.479815) (xy 72.511706 117.427011) (xy 72.5005 117.3755) (xy 72.5005 114.375441)
				(xy 73.7245 114.375441) (xy 73.7245 114.624558) (xy 73.724501 114.624575) (xy 73.757017 114.871561)
				(xy 73.821498 115.112207) (xy 73.91683 115.342361) (xy 73.916837 115.342376) (xy 74.0414 115.558126)
				(xy 74.19306 115.755774) (xy 74.193066 115.755781) (xy 74.369218 115.931933) (xy 74.369225 115.931939)
				(xy 74.566873 116.083599) (xy 74.782623 116.208162) (xy 74.782638 116.208169) (xy 74.881825 116.249253)
				(xy 75.012793 116.303502) (xy 75.253435 116.367982) (xy 75.500435 116.4005) (xy 75.500442 116.4005)
				(xy 75.749558 116.4005) (xy 75.749565 116.4005) (xy 75.996565 116.367982) (xy 76.237207 116.303502)
				(xy 76.467373 116.208164) (xy 76.683127 116.083599) (xy 76.880776 115.931938) (xy 77.056938 115.755776)
				(xy 77.208599 115.558127) (xy 77.333164 115.342373) (xy 77.428502 115.112207) (xy 77.492982 114.871565)
				(xy 77.5255 114.624565) (xy 77.5255 114.375435) (xy 77.492982 114.128435) (xy 77.428502 113.887793)
				(xy 77.360702 113.724109) (xy 77.333169 113.657638) (xy 77.333162 113.657623) (xy 77.208599 113.441873)
				(xy 77.056939 113.244225) (xy 77.056933 113.244218) (xy 76.880781 113.068066) (xy 76.880774 113.06806)
				(xy 76.683126 112.9164) (xy 76.467376 112.791837) (xy 76.467361 112.79183) (xy 76.237207 112.696498)
				(xy 76.022055 112.638848) (xy 75.996565 112.632018) (xy 75.996564 112.632017) (xy 75.996561 112.632017)
				(xy 75.749575 112.599501) (xy 75.74957 112.5995) (xy 75.749565 112.5995) (xy 75.500435 112.5995)
				(xy 75.500429 112.5995) (xy 75.500424 112.599501) (xy 75.253438 112.632017) (xy 75.012792 112.696498)
				(xy 74.782638 112.79183) (xy 74.782623 112.791837) (xy 74.566873 112.9164) (xy 74.369225 113.06806)
				(xy 74.369218 113.068066) (xy 74.193066 113.244218) (xy 74.19306 113.244225) (xy 74.0414 113.441873)
				(xy 73.916837 113.657623) (xy 73.91683 113.657638) (xy 73.821498 113.887792) (xy 73.757017 114.128438)
				(xy 73.724501 114.375424) (xy 73.7245 114.375441) (xy 72.5005 114.375441) (xy 72.5005 107.936903)
				(xy 72.520185 107.869864) (xy 72.572989 107.824109) (xy 72.642147 107.814165) (xy 72.699987 107.838528)
				(xy 72.747274 107.874813) (xy 72.747292 107.874825) (xy 73.002707 108.02229) (xy 73.002718 108.022295)
				(xy 73.275199 108.135161) (xy 73.275206 108.135163) (xy 73.499999 108.195396) (xy 73.5 108.195396)
				(xy 73.5 106.165826) (xy 73.534075 106.292993) (xy 73.599901 106.407007) (xy 73.692993 106.500099)
				(xy 73.807007 106.565925) (xy 73.934174 106.6) (xy 74.065826 106.6) (xy 74.192993 106.565925) (xy 74.307007 106.500099)
				(xy 74.400099 106.407007) (xy 74.465925 106.292993) (xy 74.5 106.165826) (xy 74.5 108.195397) (xy 74.518746 108.190374)
				(xy 74.588596 108.192036) (xy 74.646459 108.231197) (xy 74.673964 108.295426) (xy 74.662378 108.364328)
				(xy 74.649217 108.385634) (xy 74.525185 108.547276) (xy 74.525174 108.547292) (xy 74.377709 108.802707)
				(xy 74.377704 108.802718) (xy 74.264838 109.075199) (xy 74.264836 109.075206) (xy 74.204603 109.299999)
				(xy 74.204603 109.3) (xy 76.234174 109.3) (xy 76.107007 109.334075) (xy 75.992993 109.399901) (xy 75.899901 109.492993)
				(xy 75.834075 109.607007) (xy 75.8 109.734174) (xy 75.8 109.865826) (xy 75.834075 109.992993) (xy 75.899901 110.107007)
				(xy 75.992993 110.200099) (xy 76.107007 110.265925) (xy 76.234174 110.3) (xy 74.204603 110.3) (xy 74.264836 110.524793)
				(xy 74.264838 110.5248) (xy 74.377704 110.797281) (xy 74.377709 110.797292) (xy 74.525174 111.052707)
				(xy 74.525185 111.052723) (xy 74.704729 111.286709) (xy 74.704735 111.286716) (xy 74.913283 111.495264)
				(xy 74.91329 111.49527) (xy 75.147276 111.674814) (xy 75.147292 111.674825) (xy 75.402707 111.82229)
				(xy 75.402718 111.822295) (xy 75.675199 111.935161) (xy 75.675209 111.935164) (xy 75.960102 112.0115)
				(xy 75.960115 112.011503) (xy 76.252516 112.049998) (xy 76.252534 112.05) (xy 76.9 112.05) (xy 76.9 110.3)
				(xy 77.9 110.3) (xy 77.9 112.05) (xy 78.547466 112.05) (xy 78.547483 112.049998) (xy 78.839884 112.011503)
				(xy 78.839897 112.0115) (xy 79.12479 111.935164) (xy 79.1248 111.935161) (xy 79.397281 111.822295)
				(xy 79.397292 111.82229) (xy 79.652707 111.674825) (xy 79.652723 111.674814) (xy 79.886709 111.49527)
				(xy 79.886716 111.495264) (xy 80.095264 111.286716) (xy 80.09527 111.286709) (xy 80.274814 111.052723)
				(xy 80.274825 111.052707) (xy 80.42229 110.797292) (xy 80.422295 110.797281) (xy 80.535161 110.5248)
				(xy 80.535163 110.524793) (xy 80.595397 110.3) (xy 78.565826 110.3) (xy 78.692993 110.265925) (xy 78.807007 110.200099)
				(xy 78.900099 110.107007) (xy 78.965925 109.992993) (xy 79 109.865826) (xy 79 109.734174) (xy 78.965925 109.607007)
				(xy 78.900099 109.492993) (xy 78.807007 109.399901) (xy 78.692993 109.334075) (xy 78.565826 109.3)
				(xy 80.595397 109.3) (xy 80.595396 109.299999) (xy 80.535163 109.075206) (xy 80.535161 109.075199)
				(xy 80.422295 108.802718) (xy 80.42229 108.802707) (xy 80.274825 108.547292) (xy 80.274813 108.547274)
				(xy 80.238528 108.499987) (xy 80.213333 108.434818) (xy 80.227371 108.366373) (xy 80.276185 108.316383)
				(xy 80.336903 108.3005) (xy 81.002846 108.3005) (xy 81.069885 108.320185) (xy 81.090527 108.336819)
				(xy 82.28601 109.532301) (xy 82.319495 109.593624) (xy 82.314511 109.663316) (xy 82.278035 109.714971)
				(xy 82.224926 109.759534) (xy 82.124646 109.865826) (xy 82.001057 109.996823) (xy 82.001054 109.996826)
				(xy 82.001052 109.996829) (xy 82.001045 109.996837) (xy 81.806251 110.25849) (xy 81.643143 110.541003)
				(xy 81.643137 110.541016) (xy 81.513931 110.840547) (xy 81.420369 111.153067) (xy 81.420367 111.153075)
				(xy 81.363723 111.474319) (xy 81.363722 111.47433) (xy 81.344754 111.799996) (xy 81.344754 111.800003)
				(xy 81.363722 112.125669) (xy 81.363723 112.12568) (xy 81.420367 112.446924) (xy 81.420369 112.446932)
				(xy 81.513931 112.759452) (xy 81.643137 113.058983) (xy 81.643143 113.058996) (xy 81.806251 113.341509)
				(xy 82.001045 113.603162) (xy 82.00105 113.603168) (xy 82.001057 113.603177) (xy 82.224923 113.840462)
				(xy 82.224929 113.840467) (xy 82.22493 113.840468) (xy 82.224931 113.840469) (xy 82.474815 114.050147)
				(xy 82.474818 114.050149) (xy 82.474823 114.050153) (xy 82.747377 114.229414) (xy 83.029021 114.370861)
				(xy 83.038106 114.375424) (xy 83.038899 114.375822) (xy 83.345446 114.487396) (xy 83.345452 114.487397)
				(xy 83.345454 114.487398) (xy 83.662858 114.562625) (xy 83.662865 114.562626) (xy 83.662874 114.562628)
				(xy 83.986889 114.6005) (xy 83.986896 114.6005) (xy 84.313104 114.6005) (xy 84.313111 114.6005)
				(xy 84.637126 114.562628) (xy 84.637135 114.562625) (xy 84.637141 114.562625) (xy 84.893176 114.501942)
				(xy 84.954554 114.487396) (xy 85.261101 114.375822) (xy 85.552623 114.229414) (xy 85.825177 114.050153)
				(xy 86.075077 113.840462) (xy 86.298943 113.603177) (xy 86.493749 113.341508) (xy 86.656859 113.058992)
				(xy 86.786069 112.759451) (xy 86.87963 112.446934) (xy 86.885371 112.414379) (xy 86.936276 112.12568)
				(xy 86.936275 112.12568) (xy 86.936278 112.125669) (xy 86.952424 111.848442) (xy 86.955246 111.800003)
				(xy 86.955246 111.799996) (xy 86.947955 111.674814) (xy 86.94791 111.674038) (xy 93.7995 111.674038)
				(xy 93.7995 111.925962) (xy 93.834964 112.149869) (xy 93.83891 112.174785) (xy 93.91676 112.414383)
				(xy 93.995413 112.568747) (xy 94.027651 112.632018) (xy 94.031132 112.638848) (xy 94.179201 112.842649)
				(xy 94.179205 112.842654) (xy 94.357345 113.020794) (xy 94.35735 113.020798) (xy 94.535117 113.149952)
				(xy 94.561155 113.16887) (xy 94.704184 113.241747) (xy 94.785616 113.283239) (xy 94.785618 113.283239)
				(xy 94.785621 113.283241) (xy 95.025215 113.36109) (xy 95.274038 113.4005) (xy 95.274039 113.4005)
				(xy 95.525961 113.4005) (xy 95.525962 113.4005) (xy 95.774785 113.36109) (xy 96.014379 113.283241)
				(xy 96.238845 113.16887) (xy 96.442656 113.020793) (xy 96.620793 112.842656) (xy 96.76887 112.638845)
				(xy 96.883241 112.414379) (xy 96.96109 112.174785) (xy 97.0005 111.925962) (xy 97.0005 111.674038)
				(xy 96.96109 111.425215) (xy 96.883241 111.185621) (xy 96.883239 111.185618) (xy 96.883239 111.185616)
				(xy 96.815518 111.052707) (xy 96.76887 110.961155) (xy 96.749952 110.935117) (xy 96.620798 110.75735)
				(xy 96.620794 110.757345) (xy 96.442654 110.579205) (xy 96.442649 110.579201) (xy 96.238848 110.431132)
				(xy 96.238847 110.431131) (xy 96.238845 110.43113) (xy 96.168747 110.395413) (xy 96.014383 110.31676)
				(xy 95.774785 110.23891) (xy 95.525962 110.1995) (xy 95.274038 110.1995) (xy 95.149626 110.219205)
				(xy 95.025214 110.23891) (xy 94.785616 110.31676) (xy 94.561151 110.431132) (xy 94.35735 110.579201)
				(xy 94.357345 110.579205) (xy 94.179205 110.757345) (xy 94.179201 110.75735) (xy 94.031132 110.961151)
				(xy 93.91676 111.185616) (xy 93.843397 111.411405) (xy 93.83891 111.425215) (xy 93.7995 111.674038)
				(xy 86.94791 111.674038) (xy 86.936278 111.474331) (xy 86.930529 111.441726) (xy 86.879632 111.153075)
				(xy 86.87963 111.153067) (xy 86.872164 111.128129) (xy 86.786069 110.840549) (xy 86.656859 110.541008)
				(xy 86.513907 110.293406) (xy 86.493748 110.25849) (xy 86.298954 109.996837) (xy 86.298947 109.996829)
				(xy 86.298943 109.996823) (xy 86.075077 109.759538) (xy 85.994794 109.692172) (xy 85.956092 109.634001)
				(xy 85.9505 109.597183) (xy 85.9505 108.731995) (xy 85.9505 108.731989) (xy 85.919693 108.497986)
				(xy 85.858606 108.270007) (xy 85.771392 108.059455) (xy 85.769645 108.054306) (xy 85.72112 107.970259)
				(xy 85.650273 107.847549) (xy 85.506592 107.6603) (xy 85.506587 107.660294) (xy 83.136819 105.290526)
				(xy 83.103334 105.229203) (xy 83.1005 105.202845) (xy 83.1005 102.455043) (xy 83.100499 102.455039)
				(xy 83.085369 102.32075) (xy 83.085366 102.320737) (xy 83.03278 102.170455) (xy 83.029218 102.100676)
				(xy 83.063946 102.040049) (xy 83.12594 102.007821) (xy 83.149821 102.0055) (xy 86.169957 102.0055)
				(xy 86.169958 102.005499) (xy 86.238853 101.997737) (xy 86.304249 101.990369) (xy 86.304252 101.990368)
				(xy 86.304255 101.990368) (xy 86.474522 101.930789) (xy 86.627262 101.834816) (xy 86.627264 101.834813)
				(xy 86.632627 101.831444) (xy 86.699864 101.812443) (xy 86.766699 101.83281) (xy 86.811914 101.886078)
				(xy 86.818373 101.904336) (xy 86.819834 101.909789) (xy 86.932701 102.182275) (xy 86.932709 102.182292)
				(xy 87.080174 102.437707) (xy 87.080185 102.437723) (xy 87.259729 102.671709) (xy 87.259735 102.671716)
				(xy 87.468283 102.880264) (xy 87.46829 102.88027) (xy 87.702276 103.059814) (xy 87.702292 103.059825)
				(xy 87.957707 103.20729) (xy 87.957718 103.207295) (xy 88.230199 103.320161) (xy 88.230209 103.320164)
				(xy 88.515102 103.3965) (xy 88.515115 103.396503) (xy 88.807516 103.434998) (xy 88.807534 103.435)
				(xy 88.955 103.435) (xy 89.955 103.435) (xy 90.102466 103.435) (xy 90.102483 103.434998) (xy 90.394884 103.396503)
				(xy 90.394897 103.3965) (xy 90.67979 103.320164) (xy 90.6798 103.320161) (xy 90.952281 103.207295)
				(xy 90.952292 103.20729) (xy 91.207707 103.059825) (xy 91.207723 103.059814) (xy 91.441709 102.88027)
				(xy 91.441716 102.880264) (xy 91.650264 102.671716) (xy 91.65027 102.671709) (xy 91.829814 102.437723)
				(xy 91.829825 102.437707) (xy 91.97729 102.182292) (xy 91.977295 102.182281) (xy 92.090161 101.9098)
				(xy 92.090163 101.909793) (xy 92.150397 101.685) (xy 89.955 101.685) (xy 89.955 103.435) (xy 88.955 103.435)
				(xy 88.955 101.13484) (xy 89.074 101.13484) (xy 89.074 101.23516) (xy 89.099964 101.332061) (xy 89.150124 101.41894)
				(xy 89.22106 101.489876) (xy 89.307939 101.540036) (xy 89.40484 101.566) (xy 89.50516 101.566) (xy 89.602061 101.540036)
				(xy 89.68894 101.489876) (xy 89.759876 101.41894) (xy 89.810036 101.332061) (xy 89.836 101.23516)
				(xy 89.836 101.13484) (xy 89.810036 101.037939) (xy 89.759876 100.95106) (xy 89.68894 100.880124)
				(xy 89.602061 100.829964) (xy 89.50516 100.804) (xy 89.40484 100.804) (xy 89.307939 100.829964)
				(xy 89.22106 100.880124) (xy 89.150124 100.95106) (xy 89.099964 101.037939) (xy 89.074 101.13484)
				(xy 88.955 101.13484) (xy 88.955 100.809) (xy 88.974685 100.741961) (xy 89.027489 100.696206) (xy 89.079 100.685)
				(xy 92.150397 100.685) (xy 92.150396 100.684999) (xy 92.090163 100.460206) (xy 92.090161 100.460199)
				(xy 91.977295 100.187718) (xy 91.97729 100.187707) (xy 91.829825 99.932292) (xy 91.829814 99.932276)
				(xy 91.65027 99.69829) (xy 91.650264 99.698283) (xy 91.441716 99.489735) (xy 91.240326 99.335202)
				(xy 91.199124 99.278774) (xy 91.194969 99.209028) (xy 91.229182 99.148107) (xy 91.240318 99.138457)
				(xy 91.354134 99.051123) (xy 91.419304 99.02593) (xy 91.42962 99.0255) (xy 106.752847 99.0255) (xy 106.819886 99.045185)
				(xy 106.840528 99.061819) (xy 115.893181 108.114472) (xy 115.926666 108.175795) (xy 115.9295 108.202153)
				(xy 115.9295 108.859604) (xy 115.909815 108.926643) (xy 115.857011 108.972398) (xy 115.787853 108.982342)
				(xy 115.726836 108.955458) (xy 115.686453 108.922317) (xy 115.686451 108.922316) (xy 115.68645 108.922315)
				(xy 115.503954 108.824768) (xy 115.305934 108.7647) (xy 115.305932 108.764699) (xy 115.305934 108.764699)
				(xy 115.186805 108.752966) (xy 115.151608 108.7495) (xy 112.388392 108.7495) (xy 112.350298 108.753251)
				(xy 112.234067 108.764699) (xy 112.036043 108.824769) (xy 111.970873 108.859604) (xy 111.85355 108.922315)
				(xy 111.853548 108.922316) (xy 111.853547 108.922317) (xy 111.693589 109.053589) (xy 111.562317 109.213547)
				(xy 111.562315 109.21355) (xy 111.556633 109.224181) (xy 111.464769 109.396043) (xy 111.404699 109.594067)
				(xy 111.398698 109.655005) (xy 111.390901 109.734174) (xy 111.3895 109.748395) (xy 111.3895 109.8755)
				(xy 111.369815 109.942539) (xy 111.317011 109.988294) (xy 111.2655 109.9995) (xy 108.854957 109.9995)
				(xy 108.787918 109.979815) (xy 108.764763 109.960594) (xy 108.659951 109.8495) (xy 108.575077 109.759538)
				(xy 108.575069 109.759531) (xy 108.575068 109.75953) (xy 108.325184 109.549852) (xy 108.325179 109.549848)
				(xy 108.325177 109.549847) (xy 108.052623 109.370586) (xy 107.912073 109.299999) (xy 107.761108 109.224181)
				(xy 107.761102 109.224178) (xy 107.454566 109.112608) (xy 107.454545 109.112601) (xy 107.137141 109.037374)
				(xy 107.137126 109.037372) (xy 106.813111 108.9995) (xy 106.486889 108.9995) (xy 106.203375 109.032638)
				(xy 106.162873 109.037372) (xy 106.162858 109.037374) (xy 105.845454 109.112601) (xy 105.845433 109.112608)
				(xy 105.538897 109.224178) (xy 105.538891 109.224181) (xy 105.24738 109.370584) (xy 104.974815 109.549852)
				(xy 104.724931 109.75953) (xy 104.72493 109.759531) (xy 104.724924 109.759536) (xy 104.724923 109.759538)
				(xy 104.501057 109.996823) (xy 104.501054 109.996826) (xy 104.501052 109.996829) (xy 104.501045 109.996837)
				(xy 104.306251 110.25849) (xy 104.143143 110.541003) (xy 104.143137 110.541016) (xy 104.013931 110.840547)
				(xy 103.920369 111.153067) (xy 103.920367 111.153075) (xy 103.863723 111.474319) (xy 103.863722 111.47433)
				(xy 103.844754 111.799996) (xy 103.844754 111.800003) (xy 103.863722 112.125669) (xy 103.863723 112.12568)
				(xy 103.920367 112.446924) (xy 103.920369 112.446932) (xy 104.013931 112.759452) (xy 104.143137 113.058983)
				(xy 104.143143 113.058996) (xy 104.306251 113.341509) (xy 104.501045 113.603162) (xy 104.50105 113.603168)
				(xy 104.501057 113.603177) (xy 104.724923 113.840462) (xy 104.724929 113.840467) (xy 104.72493 113.840468)
				(xy 104.724931 113.840469) (xy 104.974815 114.050147) (xy 104.974818 114.050149) (xy 104.974823 114.050153)
				(xy 105.247377 114.229414) (xy 105.529021 114.370861) (xy 105.538106 114.375424) (xy 105.538899 114.375822)
				(xy 105.845446 114.487396) (xy 105.845452 114.487397) (xy 105.845454 114.487398) (xy 106.162858 114.562625)
				(xy 106.162865 114.562626) (xy 106.162874 114.562628) (xy 106.486889 114.6005) (xy 106.486896 114.6005)
				(xy 106.813104 114.6005) (xy 106.813111 114.6005) (xy 107.137126 114.562628) (xy 107.137135 114.562625)
				(xy 107.137141 114.562625) (xy 107.393176 114.501942) (xy 107.454554 114.487396) (xy 107.761101 114.375822)
				(xy 108.052623 114.229414) (xy 108.325177 114.050153) (xy 108.575077 113.840462) (xy 108.764763 113.639406)
				(xy 108.825086 113.604152) (xy 108.854957 113.6005) (xy 111.281964 113.6005) (xy 111.349003 113.620185)
				(xy 111.394758 113.672989) (xy 111.403582 113.700311) (xy 111.404699 113.705932) (xy 111.4047 113.705934)
				(xy 111.464768 113.903954) (xy 111.562315 114.08645) (xy 111.562316 114.086451) (xy 111.562317 114.086452)
				(xy 111.693589 114.24641) (xy 111.770569 114.309585) (xy 111.85355 114.377685) (xy 112.036046 114.475232)
				(xy 112.234066 114.5353) (xy 112.234065 114.5353) (xy 112.272647 114.5391) (xy 112.388392 114.5505)
				(xy 112.388395 114.5505) (xy 115.151605 114.5505) (xy 115.151608 114.5505) (xy 115.305934 114.5353)
				(xy 115.503954 114.475232) (xy 115.68645 114.377685) (xy 115.84641 114.24641) (xy 115.977685 114.08645)
				(xy 116.007529 114.030615) (xy 116.056491 113.980771) (xy 116.124629 113.965311) (xy 116.190309 113.989143)
				(xy 116.192373 113.990693) (xy 116.404627 114.153561) (xy 116.674869 114.309585) (xy 116.67487 114.309585)
				(xy 116.674873 114.309587) (xy 116.839269 114.377682) (xy 116.963168 114.429003) (xy 116.963169 114.429003)
				(xy 116.963171 114.429004) (xy 117.264591 114.509769) (xy 117.573974 114.5505) (xy 117.573981 114.5505)
				(xy 117.886019 114.5505) (xy 117.886026 114.5505) (xy 118.195409 114.509769) (xy 118.496829 114.429004)
				(xy 118.785127 114.309587) (xy 119.055373 114.153561) (xy 119.302941 113.963595) (xy 119.523595 113.742941)
				(xy 119.710767 113.499013) (xy 119.767195 113.457811) (xy 119.809143 113.4505) (xy 121.077847 113.4505)
				(xy 121.144886 113.470185) (xy 121.165528 113.486819) (xy 122.240295 114.561587) (xy 122.240302 114.561593)
				(xy 122.291007 114.6005) (xy 122.42755 114.705273) (xy 122.427557 114.705277) (xy 122.631942 114.82328)
				(xy 122.63195 114.823284) (xy 122.722272 114.860696) (xy 122.850007 114.913606) (xy 123.077986 114.974693)
				(xy 123.311989 115.0055) (xy 126.773965 115.0055) (xy 126.841004 115.025185) (xy 126.849451 115.031124)
				(xy 127.054627 115.188561) (xy 127.324869 115.344585) (xy 127.32487 115.344585) (xy 127.324873 115.344587)
				(xy 127.517071 115.424198) (xy 127.613168 115.464003) (xy 127.613169 115.464003) (xy 127.613171 115.464004)
				(xy 127.914591 115.544769) (xy 128.223974 115.5855) (xy 128.223981 115.5855) (xy 129.576019 115.5855)
				(xy 129.576026 115.5855) (xy 129.885409 115.544769) (xy 130.186829 115.464004) (xy 130.475127 115.344587)
				(xy 130.745373 115.188561) (xy 130.992941 114.998595) (xy 131.213595 114.777941) (xy 131.403561 114.530373)
				(xy 131.487343 114.385258) (xy 136.6745 114.385258) (xy 136.6745 114.614741) (xy 136.68642 114.705277)
				(xy 136.704452 114.842238) (xy 136.753472 115.025185) (xy 136.763842 115.063887) (xy 136.85165 115.275876)
				(xy 136.851656 115.275888) (xy 136.960264 115.464004) (xy 136.966392 115.474617) (xy 137.106081 115.656661)
				(xy 137.106089 115.65667) (xy 137.26833 115.818911) (xy 137.268338 115.818918) (xy 137.450382 115.958607)
				(xy 137.450385 115.958608) (xy 137.450388 115.958611) (xy 137.649112 116.073344) (xy 137.649117 116.073346)
				(xy 137.649123 116.073349) (xy 137.74048 116.11119) (xy 137.861113 116.161158) (xy 138.082762 116.220548)
				(xy 138.310266 116.2505) (xy 138.310273 116.2505) (xy 138.539727 116.2505) (xy 138.539734 116.2505)
				(xy 138.767238 116.220548) (xy 138.988887 116.161158) (xy 139.200888 116.073344) (xy 139.399612 115.958611)
				(xy 139.581661 115.818919) (xy 139.581665 115.818914) (xy 139.58167 115.818911) (xy 139.743911 115.65667)
				(xy 139.743914 115.656665) (xy 139.743919 115.656661) (xy 139.883611 115.474612) (xy 139.998344 115.275888)
				(xy 140.086158 115.063887) (xy 140.145548 114.842238) (xy 140.1755 114.614734) (xy 140.1755 114.385266)
				(xy 140.145548 114.157762) (xy 140.086158 113.936113) (xy 140.03619 113.81548) (xy 139.998349 113.724123)
				(xy 139.998346 113.724117) (xy 139.998344 113.724112) (xy 139.883611 113.525388) (xy 139.883608 113.525385)
				(xy 139.883607 113.525382) (xy 139.743918 113.343338) (xy 139.743911 113.34333) (xy 139.58167 113.181089)
				(xy 139.581661 113.181081) (xy 139.399617 113.041392) (xy 139.363938 113.020793) (xy 139.200888 112.926656)
				(xy 139.200876 112.92665) (xy 138.988887 112.838842) (xy 138.767238 112.779452) (xy 138.729215 112.774446)
				(xy 138.539741 112.7495) (xy 138.539734 112.7495) (xy 138.310266 112.7495) (xy 138.310258 112.7495)
				(xy 138.093715 112.778009) (xy 138.082762 112.779452) (xy 138.036544 112.791836) (xy 137.861112 112.838842)
				(xy 137.649123 112.92665) (xy 137.649109 112.926657) (xy 137.450382 113.041392) (xy 137.268338 113.181081)
				(xy 137.106081 113.343338) (xy 136.966392 113.525382) (xy 136.851657 113.724109) (xy 136.85165 113.724123)
				(xy 136.763842 113.936112) (xy 136.704453 114.157759) (xy 136.704451 114.15777) (xy 136.6745 114.385258)
				(xy 131.487343 114.385258) (xy 131.559587 114.260127) (xy 131.679004 113.971829) (xy 131.759769 113.670409)
				(xy 131.8005 113.361026) (xy 131.8005 113.048974) (xy 131.759769 112.739591) (xy 131.679004 112.438171)
				(xy 131.559587 112.149873) (xy 131.545619 112.12568) (xy 131.403561 111.879627) (xy 131.211124 111.628838)
				(xy 131.212252 111.627971) (xy 131.185365 111.570021) (xy 131.194891 111.500804) (xy 131.240327 111.447725)
				(xy 131.250584 111.441726) (xy 131.303128 111.41428) (xy 131.460753 111.285753) (xy 131.589278 111.128129)
				(xy 131.683442 110.947861) (xy 131.73939 110.752328) (xy 131.739391 110.752325) (xy 131.749999 110.633)
				(xy 131.75 110.632998) (xy 131.75 109.745) (xy 129.648332 109.745) (xy 129.69757 109.67131) (xy 129.765414 109.50752)
				(xy 129.8 109.333642) (xy 129.8 109.156358) (xy 129.765414 108.98248) (xy 129.69757 108.81869) (xy 129.648332 108.745)
				(xy 131.75 108.745) (xy 131.75 107.857002) (xy 131.749999 107.856999) (xy 131.739391 107.737674)
				(xy 131.73939 107.737671) (xy 131.683442 107.542138) (xy 131.589278 107.36187) (xy 131.460753 107.204246)
				(xy 131.303129 107.075721) (xy 131.122861 106.981557) (xy 130.927328 106.925609) (xy 130.927325 106.925608)
				(xy 130.808 106.915) (xy 130.167184 106.915) (xy 130.100145 106.895315) (xy 130.05439 106.842511)
				(xy 130.044446 106.773353) (xy 130.073471 106.709797) (xy 130.132249 106.672023) (xy 130.139592 106.670109)
				(xy 130.171589 106.662805) (xy 130.207182 106.654682) (xy 130.477572 106.560068) (xy 130.735669 106.435775)
				(xy 130.978227 106.283366) (xy 131.202195 106.104757) (xy 131.404757 105.902195) (xy 131.583366 105.678227)
				(xy 131.735775 105.435669) (xy 131.860068 105.177572) (xy 131.954682 104.907182) (xy 132.018426 104.627898)
				(xy 132.0505 104.343233) (xy 132.0505 104.056767) (xy 132.027488 103.852533) (xy 132.018427 103.772108)
				(xy 132.010071 103.735499) (xy 131.954682 103.492818) (xy 131.922203 103.4) (xy 131.86007 103.222434)
				(xy 131.860068 103.222428) (xy 131.735775 102.964331) (xy 131.583366 102.721773) (xy 131.404757 102.497805)
				(xy 131.214633 102.307681) (xy 131.181148 102.246358) (xy 131.186132 102.176666) (xy 131.214633 102.132319)
				(xy 131.306903 102.040049) (xy 131.404757 101.942195) (xy 131.583366 101.718227) (xy 131.735775 101.475669)
				(xy 131.860068 101.217572) (xy 131.954682 100.947182) (xy 132.018426 100.667898) (xy 132.0505 100.383233)
				(xy 132.0505 100.096767) (xy 132.030968 99.923415) (xy 132.018427 99.812108) (xy 132.014177 99.793488)
				(xy 131.954682 99.532818) (xy 131.860068 99.262428) (xy 131.735775 99.004331) (xy 131.593902 98.778542)
				(xy 131.574903 98.711306) (xy 131.595271 98.644471) (xy 131.629392 98.609882) (xy 131.662191 98.587684)
				(xy 131.807684 98.442191) (xy 131.923013 98.271792) (xy 132.00401 98.082647) (xy 132.047747 97.881591)
				(xy 132.0505 97.835376) (xy 132.0505 95.450441) (xy 136.5745 95.450441) (xy 136.5745 95.699558)
				(xy 136.574501 95.699575) (xy 136.607017 95.946561) (xy 136.671498 96.187207) (xy 136.76683 96.417361)
				(xy 136.766837 96.417376) (xy 136.8914 96.633126) (xy 137.04306 96.830774) (xy 137.043066 96.830781)
				(xy 137.219218 97.006933) (xy 137.219225 97.006939) (xy 137.416873 97.158599) (xy 137.632623 97.283162)
				(xy 137.632638 97.283169) (xy 137.731825 97.324253) (xy 137.862793 97.378502) (xy 138.103435 97.442982)
				(xy 138.350435 97.4755) (xy 138.350442 97.4755) (xy 138.599558 97.4755) (xy 138.599565 97.4755)
				(xy 138.846565 97.442982) (xy 139.087207 97.378502) (xy 139.317373 97.283164) (xy 139.533127 97.158599)
				(xy 139.730776 97.006938) (xy 139.906938 96.830776) (xy 140.058599 96.633127) (xy 140.183164 96.417373)
				(xy 140.278502 96.187207) (xy 140.342982 95.946565) (xy 140.3755 95.699565) (xy 140.3755 95.450435)
				(xy 140.342982 95.203435) (xy 140.278502 94.962793) (xy 140.183164 94.732627) (xy 140.17855 94.724636)
				(xy 140.058599 94.516873) (xy 139.906939 94.319225) (xy 139.906933 94.319218) (xy 139.730781 94.143066)
				(xy 139.730774 94.14306) (xy 139.533126 93.9914) (xy 139.317376 93.866837) (xy 139.317361 93.86683)
				(xy 139.087207 93.771498) (xy 138.930469 93.7295) (xy 138.846565 93.707018) (xy 138.846564 93.707017)
				(xy 138.846561 93.707017) (xy 138.599575 93.674501) (xy 138.59957 93.6745) (xy 138.599565 93.6745)
				(xy 138.350435 93.6745) (xy 138.350429 93.6745) (xy 138.350424 93.674501) (xy 138.103438 93.707017)
				(xy 137.862792 93.771498) (xy 137.632638 93.86683) (xy 137.632623 93.866837) (xy 137.416873 93.9914)
				(xy 137.219225 94.14306) (xy 137.219218 94.143066) (xy 137.043066 94.319218) (xy 137.04306 94.319225)
				(xy 136.8914 94.516873) (xy 136.766837 94.732623) (xy 136.76683 94.732638) (xy 136.671498 94.962792)
				(xy 136.607017 95.203438) (xy 136.574501 95.450424) (xy 136.5745 95.450441) (xy 132.0505 95.450441)
				(xy 132.0505 94.724624) (xy 132.047747 94.678409) (xy 132.00401 94.477353) (xy 131.923013 94.288208)
				(xy 131.891466 94.241597) (xy 131.807689 94.117815) (xy 131.807681 94.117806) (xy 131.662193 93.972318)
				(xy 131.662184 93.97231) (xy 131.491789 93.856985) (xy 131.302648 93.77599) (xy 131.302637 93.775987)
				(xy 131.101596 93.732254) (xy 131.101595 93.732253) (xy 131.101591 93.732253) (xy 131.055376 93.7295)
				(xy 131.055364 93.7295) (xy 129.047153 93.7295) (xy 128.980114 93.709815) (xy 128.959472 93.693181)
				(xy 127.978472 92.712181) (xy 127.944987 92.650858) (xy 127.949971 92.581166) (xy 127.991843 92.525233)
				(xy 128.057307 92.500816) (xy 128.066153 92.5005) (xy 141.3755 92.5005)
			)
		)
		(filled_polygon
			(layer "B.Cu")
			(pts
				(xy 117.517655 95.320185) (xy 117.56341 95.372989) (xy 117.573502 95.426567) (xy 117.5745 95.426567)
				(xy 117.5745 99.01996) (xy 117.589631 99.154253) (xy 117.589631 99.154255) (xy 117.593059 99.164052)
				(xy 117.596617 99.233831) (xy 117.593059 99.245948) (xy 117.589631 99.255744) (xy 117.589631 99.255746)
				(xy 117.5745 99.390039) (xy 117.5745 102.97996) (xy 117.58963 103.114249) (xy 117.589631 103.114254)
				(xy 117.649211 103.284523) (xy 117.719573 103.396503) (xy 117.745184 103.437262) (xy 117.872738 103.564816)
				(xy 118.025478 103.660789) (xy 118.195745 103.720368) (xy 118.19575 103.720369) (xy 118.286246 103.730565)
				(xy 118.33004 103.735499) (xy 118.330043 103.7355) (xy 118.330046 103.7355) (xy 120.327847 103.7355)
				(xy 120.394886 103.755185) (xy 120.415528 103.771819) (xy 122.200295 105.556587) (xy 122.200301 105.556592)
				(xy 122.38755 105.700273) (xy 122.387557 105.700277) (xy 122.591942 105.81828) (xy 122.591958 105.818288)
				(xy 122.709594 105.867014) (xy 122.810006 105.908606) (xy 122.858183 105.921515) (xy 122.858182 105.921515)
				(xy 122.891087 105.930331) (xy 123.037986 105.969693) (xy 123.271989 106.0005) (xy 123.508011 106.0005)
				(xy 126.642186 106.0005) (xy 126.709225 106.020185) (xy 126.729867 106.036819) (xy 126.797805 106.104757)
				(xy 127.021773 106.283366) (xy 127.264331 106.435775) (xy 127.522428 106.560068) (xy 127.522434 106.56007)
				(xy 127.792806 106.654678) (xy 127.792818 106.654682) (xy 127.860408 106.670109) (xy 127.921387 106.704217)
				(xy 127.954245 106.765879) (xy 127.94855 106.835516) (xy 127.90611 106.89102) (xy 127.8404 106.914768)
				(xy 127.832816 106.915) (xy 126.991999 106.915) (xy 126.872674 106.925608) (xy 126.872671 106.925609)
				(xy 126.677138 106.981557) (xy 126.49687 107.075721) (xy 126.339246 107.204246) (xy 126.210721 107.36187)
				(xy 126.116557 107.542138) (xy 126.060609 107.737671) (xy 126.060608 107.737674) (xy 126.05 107.856999)
				(xy 126.05 108.745) (xy 128.151668 108.745) (xy 128.10243 108.81869) (xy 128.034586 108.98248) (xy 128 109.156358)
				(xy 128 109.333642) (xy 128.034586 109.50752) (xy 128.10243 109.67131) (xy 128.151668 109.745) (xy 126.05 109.745)
				(xy 126.05 110.633) (xy 126.060608 110.752325) (xy 126.060609 110.752328) (xy 126.116557 110.947861)
				(xy 126.210721 111.128129) (xy 126.271068 111.202139) (xy 126.298177 111.266535) (xy 126.286168 111.335365)
				(xy 126.238853 111.386776) (xy 126.174966 111.4045) (xy 124.227153 111.4045) (xy 124.160114 111.384815)
				(xy 124.139472 111.368181) (xy 123.064704 110.293412) (xy 123.064697 110.293406) (xy 122.877458 110.149733)
				(xy 122.877456 110.149731) (xy 122.87745 110.149727) (xy 122.877445 110.149724) (xy 122.877442 110.149722)
				(xy 122.673057 110.031719) (xy 122.673041 110.031711) (xy 122.544806 109.978596) (xy 122.454993 109.941394)
				(xy 122.22701 109.880306) (xy 121.99302 109.849501) (xy 121.993017 109.8495) (xy 121.993011 109.8495)
				(xy 121.993004 109.8495) (xy 119.809143 109.8495) (xy 119.742104 109.829815) (xy 119.710767 109.800986)
				(xy 119.556124 109.59945) (xy 119.53093 109.534281) (xy 119.5305 109.523964) (xy 119.5305 107.286995)
				(xy 119.5305 107.286989) (xy 119.499693 107.052986) (xy 119.438606 106.825007) (xy 119.351392 106.614455)
				(xy 119.349645 106.609306) (xy 119.230277 106.402557) (xy 119.230273 106.40255) (xy 119.086592 106.215301)
				(xy 119.086587 106.215295) (xy 108.739704 95.868412) (xy 108.739697 95.868406) (xy 108.552458 95.724733)
				(xy 108.552456 95.724731) (xy 108.55245 95.724727) (xy 108.552445 95.724724) (xy 108.552442 95.724722)
				(xy 108.34806 95.606721) (xy 108.348055 95.606719) (xy 108.34805 95.606716) (xy 108.257728 95.569303)
				(xy 108.257727 95.569302) (xy 108.184717 95.539061) (xy 108.130314 95.49522) (xy 108.108249 95.428926)
				(xy 108.125528 95.361227) (xy 108.176665 95.313616) (xy 108.23217 95.3005) (xy 117.450616 95.3005)
			)
		)
		(filled_polygon
			(layer "B.Cu")
			(pts
				(xy 85.220886 92.520185) (xy 85.266641 92.572989) (xy 85.276585 92.642147) (xy 85.24756 92.705703)
				(xy 85.241528 92.712181) (xy 83.018412 94.935295) (xy 83.018406 94.935302) (xy 82.874733 95.122541)
				(xy 82.874722 95.122557) (xy 82.756721 95.326939) (xy 82.756717 95.326947) (xy 82.756716 95.32695)
				(xy 82.742518 95.361227) (xy 82.719303 95.417273) (xy 82.666395 95.545002) (xy 82.605306 95.772989)
				(xy 82.574501 96.006979) (xy 82.5745 96.006995) (xy 82.5745 96.294311) (xy 82.554815 96.36135) (xy 82.502011 96.407105)
				(xy 82.464385 96.417531) (xy 82.44575 96.41963) (xy 82.275478 96.47921) (xy 82.122737 96.575184)
				(xy 81.995184 96.702737) (xy 81.899211 96.855476) (xy 81.839631 97.025745) (xy 81.83963 97.02575)
				(xy 81.8245 97.160039) (xy 81.8245 101.24996) (xy 81.83963 101.384249) (xy 81.839633 101.384262)
				(xy 81.89222 101.534545) (xy 81.895782 101.604324) (xy 81.861054 101.664951) (xy 81.79906 101.697179)
				(xy 81.775179 101.6995) (xy 78.255039 101.6995) (xy 78.12075 101.71463) (xy 78.120745 101.714631)
				(xy 77.950476 101.774211) (xy 77.797737 101.870184) (xy 77.670184 101.997737) (xy 77.574211 102.150476)
				(xy 77.514631 102.320745) (xy 77.51463 102.32075) (xy 77.4995 102.455039) (xy 77.4995 107.54496)
				(xy 77.51463 107.679249) (xy 77.514631 107.679254) (xy 77.574211 107.849523) (xy 77.629116 107.936903)
				(xy 77.670184 108.002262) (xy 77.797738 108.129816) (xy 77.841973 108.157611) (xy 77.888263 108.209943)
				(xy 77.9 108.262603) (xy 77.9 109.3) (xy 76.9 109.3) (xy 76.9 107.55) (xy 76.252534 107.55) (xy 76.252516 107.550001)
				(xy 75.960115 107.588496) (xy 75.960102 107.588499) (xy 75.88125 107.609627) (xy 75.8114 107.607964)
				(xy 75.753537 107.568801) (xy 75.726034 107.504572) (xy 75.737621 107.43567) (xy 75.750781 107.414365)
				(xy 75.874819 107.252715) (xy 75.874825 107.252707) (xy 76.02229 106.997292) (xy 76.022295 106.997281)
				(xy 76.135161 106.7248) (xy 76.135164 106.72479) (xy 76.2115 106.439897) (xy 76.211503 106.439884)
				(xy 76.249998 106.147483) (xy 76.25 106.147466) (xy 76.25 105.5) (xy 74.5 105.5) (xy 74.5 104.5)
				(xy 76.25 104.5) (xy 76.25 103.852533) (xy 76.249998 103.852516) (xy 76.211503 103.560115) (xy 76.2115 103.560102)
				(xy 76.135164 103.275209) (xy 76.135161 103.275199) (xy 76.022295 103.002718) (xy 76.02229 103.002707)
				(xy 75.874825 102.747292) (xy 75.874814 102.747276) (xy 75.69527 102.51329) (xy 75.695264 102.513283)
				(xy 75.486716 102.304735) (xy 75.486709 102.304729) (xy 75.252723 102.125185) (xy 75.252707 102.125174)
				(xy 74.997292 101.977709) (xy 74.997281 101.977704) (xy 74.724791 101.864835) (xy 74.5 101.804602)
				(xy 74.5 103.834174) (xy 74.465925 103.707007) (xy 74.400099 103.592993) (xy 74.307007 103.499901)
				(xy 74.192993 103.434075) (xy 74.065826 103.4) (xy 73.934174 103.4) (xy 73.807007 103.434075) (xy 73.692993 103.499901)
				(xy 73.599901 103.592993) (xy 73.534075 103.707007) (xy 73.5 103.834174) (xy 73.5 101.804602) (xy 73.499999 101.804602)
				(xy 73.275208 101.864835) (xy 73.002718 101.977704) (xy 73.002707 101.977709) (xy 72.747292 102.125174)
				(xy 72.747275 102.125185) (xy 72.699986 102.161472) (xy 72.634816 102.186666) (xy 72.566372 102.172627)
				(xy 72.516382 102.123813) (xy 72.5005 102.063096) (xy 72.5005 95.450441) (xy 73.7245 95.450441)
				(xy 73.7245 95.699558) (xy 73.724501 95.699575) (xy 73.757017 95.946561) (xy 73.821498 96.187207)
				(xy 73.91683 96.417361) (xy 73.916837 96.417376) (xy 74.0414 96.633126) (xy 74.19306 96.830774)
				(xy 74.193066 96.830781) (xy 74.369218 97.006933) (xy 74.369225 97.006939) (xy 74.566873 97.158599)
				(xy 74.782623 97.283162) (xy 74.782638 97.283169) (xy 74.881825 97.324253) (xy 75.012793 97.378502)
				(xy 75.253435 97.442982) (xy 75.500435 97.4755) (xy 75.500442 97.4755) (xy 75.749558 97.4755) (xy 75.749565 97.4755)
				(xy 75.996565 97.442982) (xy 76.237207 97.378502) (xy 76.467373 97.283164) (xy 76.683127 97.158599)
				(xy 76.880776 97.006938) (xy 77.056938 96.830776) (xy 77.208599 96.633127) (xy 77.333164 96.417373)
				(xy 77.428502 96.187207) (xy 77.492982 95.946565) (xy 77.5255 95.699565) (xy 77.5255 95.450435)
				(xy 77.492982 95.203435) (xy 77.428502 94.962793) (xy 77.333164 94.732627) (xy 77.32855 94.724636)
				(xy 77.208599 94.516873) (xy 77.056939 94.319225) (xy 77.056933 94.319218) (xy 76.880781 94.143066)
				(xy 76.880774 94.14306) (xy 76.683126 93.9914) (xy 76.467376 93.866837) (xy 76.467361 93.86683)
				(xy 76.237207 93.771498) (xy 76.080469 93.7295) (xy 75.996565 93.707018) (xy 75.996564 93.707017)
				(xy 75.996561 93.707017) (xy 75.749575 93.674501) (xy 75.74957 93.6745) (xy 75.749565 93.6745) (xy 75.500435 93.6745)
				(xy 75.500429 93.6745) (xy 75.500424 93.674501) (xy 75.253438 93.707017) (xy 75.012792 93.771498)
				(xy 74.782638 93.86683) (xy 74.782623 93.866837) (xy 74.566873 93.9914) (xy 74.369225 94.14306)
				(xy 74.369218 94.143066) (xy 74.193066 94.319218) (xy 74.19306 94.319225) (xy 74.0414 94.516873)
				(xy 73.916837 94.732623) (xy 73.91683 94.732638) (xy 73.821498 94.962792) (xy 73.757017 95.203438)
				(xy 73.724501 95.450424) (xy 73.7245 95.450441) (xy 72.5005 95.450441) (xy 72.5005 92.6245) (xy 72.520185 92.557461)
				(xy 72.572989 92.511706) (xy 72.6245 92.5005) (xy 85.153847 92.5005)
			)
		)
	)
)
